<?xml version="1.0" encoding="UTF-8"?>
<svg xmlns="http://www.w3.org/2000/svg" xmlns:xlink="http://www.w3.org/1999/xlink" width="401" height="270" viewBox="0 0 401 270">
<defs>
<g>
<g id="glyph-0-0">
<path d="M 6.375 -1.859375 L 6.375 0 L 0.5625 0 L 0.5625 -1.90625 C 2.039062 -3.300781 2.976562 -4.25 3.375 -4.75 C 3.78125 -5.25 3.984375 -5.679688 3.984375 -6.046875 C 3.984375 -6.347656 3.894531 -6.570312 3.71875 -6.71875 C 3.539062 -6.863281 3.269531 -6.9375 2.90625 -6.9375 C 2.507812 -6.9375 2.125 -6.882812 1.75 -6.78125 C 1.382812 -6.675781 1.035156 -6.519531 0.703125 -6.3125 L 0.703125 -8.28125 C 1.023438 -8.4375 1.421875 -8.5625 1.890625 -8.65625 C 2.367188 -8.757812 2.832031 -8.8125 3.28125 -8.8125 C 4.195312 -8.8125 4.921875 -8.582031 5.453125 -8.125 C 5.984375 -7.675781 6.25 -7.035156 6.25 -6.203125 C 6.25 -5.640625 6.039062 -5.054688 5.625 -4.453125 C 5.207031 -3.847656 4.429688 -3 3.296875 -1.90625 L 3.328125 -1.859375 Z M 6.375 -1.859375 "/>
</g>
<g id="glyph-0-1">
<path d="M 2.9375 0.109375 C 2.738281 0.109375 2.539062 0.0976562 2.34375 0.078125 C 2.15625 0.0664062 1.972656 0.0507812 1.796875 0.03125 C 1.554688 0 1.34375 -0.0351562 1.15625 -0.078125 C 0.976562 -0.117188 0.820312 -0.171875 0.6875 -0.234375 L 0.6875 -2.234375 C 0.851562 -2.160156 1.03125 -2.097656 1.21875 -2.046875 C 1.414062 -1.992188 1.625 -1.945312 1.84375 -1.90625 C 2.0625 -1.84375 2.269531 -1.800781 2.46875 -1.78125 C 2.675781 -1.757812 2.867188 -1.75 3.046875 -1.75 C 3.460938 -1.75 3.769531 -1.820312 3.96875 -1.96875 C 4.175781 -2.113281 4.28125 -2.335938 4.28125 -2.640625 C 4.28125 -2.929688 4.171875 -3.140625 3.953125 -3.265625 C 3.742188 -3.390625 3.335938 -3.453125 2.734375 -3.453125 L 1.6875 -3.453125 L 1.6875 -5.296875 L 2.734375 -5.296875 C 3.203125 -5.296875 3.554688 -5.367188 3.796875 -5.515625 C 4.035156 -5.671875 4.15625 -5.890625 4.15625 -6.171875 C 4.15625 -6.441406 4.070312 -6.640625 3.90625 -6.765625 C 3.738281 -6.890625 3.488281 -6.953125 3.15625 -6.953125 C 2.957031 -6.953125 2.753906 -6.929688 2.546875 -6.890625 C 2.335938 -6.859375 2.128906 -6.804688 1.921875 -6.734375 C 1.703125 -6.660156 1.5 -6.578125 1.3125 -6.484375 C 1.125 -6.390625 0.957031 -6.289062 0.8125 -6.1875 L 0.8125 -8.28125 C 1.132812 -8.445312 1.53125 -8.578125 2 -8.671875 C 2.476562 -8.765625 2.957031 -8.8125 3.4375 -8.8125 C 4.382812 -8.8125 5.117188 -8.601562 5.640625 -8.1875 C 6.160156 -7.769531 6.421875 -7.195312 6.421875 -6.46875 C 6.421875 -5.976562 6.300781 -5.546875 6.0625 -5.171875 C 5.820312 -4.796875 5.515625 -4.554688 5.140625 -4.453125 L 5.140625 -4.40625 C 5.554688 -4.3125 5.894531 -4.09375 6.15625 -3.75 C 6.425781 -3.414062 6.5625 -3.023438 6.5625 -2.578125 C 6.5625 -1.734375 6.238281 -1.070312 5.59375 -0.59375 C 4.957031 -0.125 4.070312 0.109375 2.9375 0.109375 Z M 2.9375 0.109375 "/>
</g>
<g id="glyph-0-2">
<path d="M 7.46875 -2.953125 C 7.46875 -2.035156 7.160156 -1.289062 6.546875 -0.71875 C 5.929688 -0.15625 5.117188 0.125 4.109375 0.125 C 3.023438 0.125 2.179688 -0.242188 1.578125 -0.984375 C 0.984375 -1.734375 0.6875 -2.753906 0.6875 -4.046875 C 0.6875 -5.597656 1.03125 -6.773438 1.71875 -7.578125 C 2.414062 -8.390625 3.421875 -8.796875 4.734375 -8.796875 C 5.085938 -8.796875 5.46875 -8.765625 5.875 -8.703125 C 6.289062 -8.640625 6.640625 -8.554688 6.921875 -8.453125 L 6.921875 -6.375 C 6.554688 -6.5625 6.191406 -6.703125 5.828125 -6.796875 C 5.472656 -6.890625 5.113281 -6.9375 4.75 -6.9375 C 4.132812 -6.9375 3.675781 -6.78125 3.375 -6.46875 C 3.070312 -6.164062 2.921875 -5.703125 2.921875 -5.078125 C 3.179688 -5.242188 3.472656 -5.367188 3.796875 -5.453125 C 4.117188 -5.546875 4.445312 -5.59375 4.78125 -5.59375 C 5.59375 -5.59375 6.242188 -5.351562 6.734375 -4.875 C 7.222656 -4.394531 7.46875 -3.753906 7.46875 -2.953125 Z M 5.1875 -2.765625 C 5.1875 -3.128906 5.09375 -3.40625 4.90625 -3.59375 C 4.726562 -3.789062 4.46875 -3.890625 4.125 -3.890625 C 3.90625 -3.890625 3.691406 -3.847656 3.484375 -3.765625 C 3.285156 -3.691406 3.113281 -3.585938 2.96875 -3.453125 C 2.96875 -2.929688 3.070312 -2.515625 3.28125 -2.203125 C 3.5 -1.890625 3.796875 -1.734375 4.171875 -1.734375 C 4.472656 -1.734375 4.71875 -1.828125 4.90625 -2.015625 C 5.09375 -2.203125 5.1875 -2.453125 5.1875 -2.765625 Z M 5.1875 -2.765625 "/>
</g>
<g id="glyph-0-3">
<path d="M 0.625 -5.734375 C 0.625 -6.640625 0.925781 -7.375 1.53125 -7.9375 C 2.144531 -8.507812 2.960938 -8.796875 3.984375 -8.796875 C 5.054688 -8.796875 5.894531 -8.425781 6.5 -7.6875 C 7.101562 -6.945312 7.40625 -5.925781 7.40625 -4.625 C 7.40625 -3.082031 7.054688 -1.90625 6.359375 -1.09375 C 5.671875 -0.28125 4.671875 0.125 3.359375 0.125 C 3.003906 0.125 2.617188 0.09375 2.203125 0.03125 C 1.796875 -0.03125 1.453125 -0.117188 1.171875 -0.234375 L 1.171875 -2.296875 C 1.523438 -2.117188 1.882812 -1.976562 2.25 -1.875 C 2.613281 -1.78125 2.972656 -1.734375 3.328125 -1.734375 C 3.941406 -1.734375 4.398438 -1.882812 4.703125 -2.1875 C 5.015625 -2.5 5.171875 -2.96875 5.171875 -3.59375 C 4.910156 -3.4375 4.617188 -3.3125 4.296875 -3.21875 C 3.972656 -3.125 3.644531 -3.078125 3.3125 -3.078125 C 2.488281 -3.078125 1.832031 -3.316406 1.34375 -3.796875 C 0.863281 -4.273438 0.625 -4.921875 0.625 -5.734375 Z M 2.90625 -5.921875 C 2.90625 -5.554688 2.992188 -5.273438 3.171875 -5.078125 C 3.359375 -4.878906 3.617188 -4.78125 3.953125 -4.78125 C 4.171875 -4.78125 4.382812 -4.816406 4.59375 -4.890625 C 4.800781 -4.972656 4.976562 -5.082031 5.125 -5.21875 C 5.125 -5.738281 5.015625 -6.15625 4.796875 -6.46875 C 4.585938 -6.78125 4.289062 -6.9375 3.90625 -6.9375 C 3.601562 -6.9375 3.359375 -6.84375 3.171875 -6.65625 C 2.992188 -6.46875 2.90625 -6.222656 2.90625 -5.921875 Z M 2.90625 -5.921875 "/>
</g>
<g id="glyph-0-4">
<path d="M 6.25 -6.953125 L 3.203125 0 L 0.90625 0 L 3.90625 -6.796875 L 3.90625 -6.8125 L 0.234375 -6.8125 L 0.234375 -8.671875 L 6.25 -8.671875 Z M 6.25 -6.953125 "/>
</g>
<g id="glyph-0-5">
<path d="M 4.3125 0 L 4.3125 -1.859375 L 0.453125 -1.859375 L 0.453125 -3.578125 L 3.78125 -8.671875 L 6.59375 -8.671875 L 6.59375 -3.625 L 7.484375 -3.625 L 7.484375 -1.859375 L 6.59375 -1.859375 L 6.59375 0 Z M 2.78125 -3.65625 L 2.796875 -3.625 L 4.3125 -3.625 L 4.3125 -5.234375 C 4.3125 -5.441406 4.316406 -5.65625 4.328125 -5.875 C 4.335938 -6.09375 4.351562 -6.304688 4.375 -6.515625 L 4.328125 -6.515625 C 4.222656 -6.304688 4.113281 -6.097656 4 -5.890625 C 3.882812 -5.679688 3.765625 -5.460938 3.640625 -5.234375 Z M 2.78125 -3.65625 "/>
</g>
<g id="glyph-0-6">
<path d="M 2.953125 0.125 C 2.765625 0.125 2.578125 0.117188 2.390625 0.109375 C 2.210938 0.0976562 2.035156 0.078125 1.859375 0.046875 C 1.640625 0.015625 1.4375 -0.015625 1.25 -0.046875 C 1.070312 -0.0859375 0.921875 -0.132812 0.796875 -0.1875 L 0.796875 -2.1875 C 1.222656 -2.039062 1.625 -1.925781 2 -1.84375 C 2.382812 -1.769531 2.742188 -1.734375 3.078125 -1.734375 C 3.503906 -1.734375 3.832031 -1.828125 4.0625 -2.015625 C 4.289062 -2.203125 4.40625 -2.46875 4.40625 -2.8125 C 4.40625 -3.25 4.164062 -3.539062 3.6875 -3.6875 C 3.21875 -3.832031 2.304688 -3.863281 0.953125 -3.78125 L 0.953125 -8.671875 L 6.296875 -8.671875 L 6.296875 -6.8125 L 3.234375 -6.8125 L 3.234375 -5.546875 C 4.316406 -5.597656 5.160156 -5.394531 5.765625 -4.9375 C 6.378906 -4.476562 6.6875 -3.800781 6.6875 -2.90625 C 6.6875 -1.957031 6.359375 -1.210938 5.703125 -0.671875 C 5.046875 -0.140625 4.128906 0.125 2.953125 0.125 Z M 2.953125 0.125 "/>
</g>
<g id="glyph-1-0">
<path d="M 3.21875 0 L 3.21875 -1.53125 L 0.421875 -1.53125 L 0.421875 -2.34375 L 3.046875 -6.515625 L 4.203125 -6.515625 L 4.203125 -2.34375 L 4.953125 -2.34375 L 4.953125 -1.53125 L 4.203125 -1.53125 L 4.203125 0 Z M 1.46875 -2.34375 L 3.21875 -2.34375 L 3.21875 -5.40625 L 3.203125 -5.40625 C 3.179688 -5.34375 3.148438 -5.269531 3.109375 -5.1875 C 3.066406 -5.101562 2.914062 -4.84375 2.65625 -4.40625 L 1.4375 -2.375 Z M 1.46875 -2.34375 "/>
</g>
<g id="glyph-1-1">
<path d="M 1.75 -0.578125 C 1.75 -0.398438 1.679688 -0.242188 1.546875 -0.109375 C 1.421875 0.015625 1.269531 0.078125 1.09375 0.078125 C 0.90625 0.078125 0.742188 0.015625 0.609375 -0.109375 C 0.484375 -0.242188 0.421875 -0.398438 0.421875 -0.578125 C 0.421875 -0.765625 0.484375 -0.921875 0.609375 -1.046875 C 0.742188 -1.179688 0.90625 -1.25 1.09375 -1.25 C 1.269531 -1.25 1.421875 -1.179688 1.546875 -1.046875 C 1.679688 -0.921875 1.75 -0.765625 1.75 -0.578125 Z M 1.75 -0.578125 "/>
</g>
<g id="glyph-1-2">
<path d="M 4.359375 -0.875 L 4.359375 0 L 0.515625 0 L 0.515625 -1.046875 C 0.984375 -1.492188 1.332031 -1.832031 1.5625 -2.0625 C 1.800781 -2.300781 2.003906 -2.507812 2.171875 -2.6875 C 2.554688 -3.101562 2.832031 -3.472656 3 -3.796875 C 3.175781 -4.117188 3.265625 -4.414062 3.265625 -4.6875 C 3.265625 -5.019531 3.164062 -5.273438 2.96875 -5.453125 C 2.78125 -5.640625 2.515625 -5.734375 2.171875 -5.734375 C 1.898438 -5.734375 1.617188 -5.675781 1.328125 -5.5625 C 1.046875 -5.445312 0.804688 -5.300781 0.609375 -5.125 L 0.609375 -6.078125 C 0.835938 -6.242188 1.097656 -6.375 1.390625 -6.46875 C 1.679688 -6.5625 1.972656 -6.609375 2.265625 -6.609375 C 2.898438 -6.609375 3.390625 -6.441406 3.734375 -6.109375 C 4.085938 -5.773438 4.265625 -5.300781 4.265625 -4.6875 C 4.265625 -4.195312 4.085938 -3.6875 3.734375 -3.15625 C 3.378906 -2.632812 2.6875 -1.882812 1.65625 -0.90625 L 1.6875 -0.875 Z M 4.359375 -0.875 "/>
</g>
<g id="glyph-1-3">
<path d="M 4.203125 -4.421875 C 4.203125 -3.722656 4.050781 -3.1875 3.75 -2.8125 C 3.457031 -2.445312 3.023438 -2.265625 2.453125 -2.265625 C 1.878906 -2.265625 1.441406 -2.445312 1.140625 -2.8125 C 0.847656 -3.1875 0.703125 -3.722656 0.703125 -4.421875 C 0.703125 -5.117188 0.847656 -5.648438 1.140625 -6.015625 C 1.441406 -6.378906 1.878906 -6.5625 2.453125 -6.5625 C 3.023438 -6.5625 3.457031 -6.378906 3.75 -6.015625 C 4.050781 -5.648438 4.203125 -5.117188 4.203125 -4.421875 Z M 7.109375 -6.515625 L 4.421875 0 L 3.46875 0 L 6.15625 -6.515625 Z M 3.296875 -4.421875 C 3.296875 -4.890625 3.226562 -5.234375 3.09375 -5.453125 C 2.957031 -5.671875 2.742188 -5.78125 2.453125 -5.78125 C 2.171875 -5.78125 1.957031 -5.671875 1.8125 -5.453125 C 1.675781 -5.234375 1.609375 -4.890625 1.609375 -4.421875 C 1.609375 -3.953125 1.675781 -3.601562 1.8125 -3.375 C 1.957031 -3.15625 2.171875 -3.046875 2.453125 -3.046875 C 2.742188 -3.046875 2.957031 -3.15625 3.09375 -3.375 C 3.226562 -3.601562 3.296875 -3.953125 3.296875 -4.421875 Z M 9.921875 -2.0625 C 9.921875 -1.351562 9.769531 -0.816406 9.46875 -0.453125 C 9.175781 -0.0859375 8.742188 0.09375 8.171875 0.09375 C 7.597656 0.09375 7.160156 -0.0859375 6.859375 -0.453125 C 6.566406 -0.816406 6.421875 -1.351562 6.421875 -2.0625 C 6.421875 -2.757812 6.566406 -3.289062 6.859375 -3.65625 C 7.160156 -4.019531 7.597656 -4.203125 8.171875 -4.203125 C 8.742188 -4.203125 9.175781 -4.019531 9.46875 -3.65625 C 9.769531 -3.289062 9.921875 -2.757812 9.921875 -2.0625 Z M 9.015625 -2.0625 C 9.015625 -2.519531 8.941406 -2.859375 8.796875 -3.078125 C 8.660156 -3.304688 8.453125 -3.421875 8.171875 -3.421875 C 7.890625 -3.421875 7.675781 -3.304688 7.53125 -3.078125 C 7.394531 -2.859375 7.328125 -2.519531 7.328125 -2.0625 C 7.328125 -1.59375 7.394531 -1.242188 7.53125 -1.015625 C 7.675781 -0.796875 7.890625 -0.6875 8.171875 -0.6875 C 8.453125 -0.6875 8.660156 -0.796875 8.796875 -1.015625 C 8.941406 -1.242188 9.015625 -1.59375 9.015625 -2.0625 Z M 9.015625 -2.0625 "/>
</g>
<g id="glyph-1-4">
<path d="M 4.203125 -0.875 L 4.203125 0 L 0.59375 0 L 0.59375 -0.875 L 1.90625 -0.875 L 1.90625 -4.8125 L 0.515625 -4.8125 L 0.515625 -5.578125 C 0.628906 -5.578125 0.738281 -5.582031 0.84375 -5.59375 C 0.945312 -5.613281 1.046875 -5.632812 1.140625 -5.65625 C 1.242188 -5.6875 1.335938 -5.726562 1.421875 -5.78125 C 1.515625 -5.832031 1.59375 -5.890625 1.65625 -5.953125 C 1.738281 -6.046875 1.800781 -6.132812 1.84375 -6.21875 C 1.882812 -6.3125 1.90625 -6.410156 1.90625 -6.515625 L 2.890625 -6.515625 L 2.890625 -0.875 Z M 4.203125 -0.875 "/>
</g>
<g id="glyph-1-5">
<path d="M 4.21875 -5.546875 L 1.734375 0 L 0.71875 0 L 3.25 -5.609375 L 3.21875 -5.625 L 0.25 -5.625 L 0.25 -6.515625 L 4.21875 -6.515625 Z M 4.21875 -5.546875 "/>
</g>
<g id="glyph-1-6">
<path d="M 2.203125 0.09375 C 2.054688 0.09375 1.914062 0.0859375 1.78125 0.078125 C 1.65625 0.0664062 1.535156 0.046875 1.421875 0.015625 C 1.242188 -0.015625 1.09375 -0.0507812 0.96875 -0.09375 C 0.851562 -0.144531 0.757812 -0.195312 0.6875 -0.25 L 0.6875 -1.21875 C 0.769531 -1.15625 0.875 -1.09375 1 -1.03125 C 1.125 -0.976562 1.265625 -0.929688 1.421875 -0.890625 C 1.554688 -0.859375 1.6875 -0.832031 1.8125 -0.8125 C 1.945312 -0.789062 2.085938 -0.78125 2.234375 -0.78125 C 2.628906 -0.78125 2.941406 -0.882812 3.171875 -1.09375 C 3.410156 -1.3125 3.53125 -1.601562 3.53125 -1.96875 C 3.53125 -2.269531 3.441406 -2.515625 3.265625 -2.703125 C 3.097656 -2.890625 2.835938 -3.015625 2.484375 -3.078125 C 2.335938 -3.097656 2.171875 -3.109375 1.984375 -3.109375 C 1.804688 -3.117188 1.414062 -3.109375 0.8125 -3.078125 L 0.8125 -6.515625 L 4.1875 -6.515625 L 4.1875 -5.640625 L 1.796875 -5.640625 L 1.796875 -3.9375 C 2.671875 -4.007812 3.34375 -3.875 3.8125 -3.53125 C 4.289062 -3.195312 4.53125 -2.691406 4.53125 -2.015625 C 4.53125 -1.398438 4.316406 -0.894531 3.890625 -0.5 C 3.472656 -0.101562 2.910156 0.09375 2.203125 0.09375 Z M 2.203125 0.09375 "/>
</g>
<g id="glyph-1-7">
<path d="M 5.296875 -3.25 C 5.296875 -2.15625 5.097656 -1.320312 4.703125 -0.75 C 4.304688 -0.1875 3.71875 0.09375 2.9375 0.09375 C 2.164062 0.09375 1.582031 -0.1875 1.1875 -0.75 C 0.789062 -1.320312 0.59375 -2.15625 0.59375 -3.25 C 0.59375 -4.34375 0.789062 -5.175781 1.1875 -5.75 C 1.582031 -6.320312 2.164062 -6.609375 2.9375 -6.609375 C 3.71875 -6.609375 4.304688 -6.320312 4.703125 -5.75 C 5.097656 -5.175781 5.296875 -4.34375 5.296875 -3.25 Z M 4.296875 -3.25 C 4.296875 -4.09375 4.179688 -4.710938 3.953125 -5.109375 C 3.734375 -5.503906 3.394531 -5.703125 2.9375 -5.703125 C 2.488281 -5.703125 2.15625 -5.503906 1.9375 -5.109375 C 1.71875 -4.710938 1.609375 -4.09375 1.609375 -3.25 C 1.609375 -2.40625 1.71875 -1.785156 1.9375 -1.390625 C 2.15625 -0.992188 2.488281 -0.796875 2.9375 -0.796875 C 3.394531 -0.796875 3.734375 -0.992188 3.953125 -1.390625 C 4.179688 -1.785156 4.296875 -2.40625 4.296875 -3.25 Z M 4.296875 -3.25 "/>
</g>
<g id="glyph-1-8">
<path d="M 5.15625 -1.78125 C 5.15625 -1.238281 4.9375 -0.789062 4.5 -0.4375 C 4.0625 -0.0820312 3.523438 0.09375 2.890625 0.09375 C 2.191406 0.09375 1.632812 -0.0664062 1.21875 -0.390625 C 0.800781 -0.722656 0.59375 -1.164062 0.59375 -1.71875 C 0.59375 -2.0625 0.695312 -2.382812 0.90625 -2.6875 C 1.113281 -2.988281 1.398438 -3.242188 1.765625 -3.453125 C 1.472656 -3.609375 1.242188 -3.804688 1.078125 -4.046875 C 0.921875 -4.285156 0.84375 -4.550781 0.84375 -4.84375 C 0.84375 -5.351562 1.035156 -5.773438 1.421875 -6.109375 C 1.804688 -6.441406 2.296875 -6.609375 2.890625 -6.609375 C 3.472656 -6.609375 3.945312 -6.453125 4.3125 -6.140625 C 4.6875 -5.835938 4.875 -5.445312 4.875 -4.96875 C 4.875 -4.65625 4.785156 -4.367188 4.609375 -4.109375 C 4.441406 -3.847656 4.21875 -3.644531 3.9375 -3.5 C 4.351562 -3.289062 4.660156 -3.046875 4.859375 -2.765625 C 5.054688 -2.484375 5.15625 -2.15625 5.15625 -1.78125 Z M 3.875 -4.8125 C 3.875 -5.101562 3.78125 -5.335938 3.59375 -5.515625 C 3.40625 -5.691406 3.15625 -5.78125 2.84375 -5.78125 C 2.539062 -5.78125 2.296875 -5.691406 2.109375 -5.515625 C 1.921875 -5.347656 1.828125 -5.140625 1.828125 -4.890625 C 1.828125 -4.648438 1.929688 -4.441406 2.140625 -4.265625 C 2.359375 -4.085938 2.691406 -3.9375 3.140625 -3.8125 C 3.367188 -3.914062 3.546875 -4.054688 3.671875 -4.234375 C 3.804688 -4.410156 3.875 -4.601562 3.875 -4.8125 Z M 4.15625 -1.796875 C 4.15625 -2.066406 4.007812 -2.3125 3.71875 -2.53125 C 3.4375 -2.75 3.023438 -2.929688 2.484375 -3.078125 C 2.222656 -2.960938 2.007812 -2.796875 1.84375 -2.578125 C 1.675781 -2.359375 1.59375 -2.113281 1.59375 -1.84375 C 1.59375 -1.507812 1.703125 -1.238281 1.921875 -1.03125 C 2.148438 -0.820312 2.457031 -0.71875 2.84375 -0.71875 C 3.25 -0.71875 3.566406 -0.8125 3.796875 -1 C 4.035156 -1.195312 4.15625 -1.460938 4.15625 -1.796875 Z M 4.15625 -1.796875 "/>
</g>
<g id="glyph-1-9">
<path d="M 4.9375 -2.078125 C 4.9375 -1.453125 4.738281 -0.929688 4.34375 -0.515625 C 3.945312 -0.109375 3.429688 0.09375 2.796875 0.09375 C 2.078125 0.09375 1.53125 -0.171875 1.15625 -0.703125 C 0.78125 -1.242188 0.59375 -2.019531 0.59375 -3.03125 C 0.59375 -4.175781 0.820312 -5.054688 1.28125 -5.671875 C 1.738281 -6.296875 2.398438 -6.609375 3.265625 -6.609375 C 3.472656 -6.609375 3.691406 -6.582031 3.921875 -6.53125 C 4.160156 -6.488281 4.390625 -6.425781 4.609375 -6.34375 L 4.609375 -5.359375 C 4.359375 -5.484375 4.125 -5.570312 3.90625 -5.625 C 3.6875 -5.6875 3.484375 -5.71875 3.296875 -5.71875 C 2.734375 -5.71875 2.304688 -5.539062 2.015625 -5.1875 C 1.722656 -4.84375 1.578125 -4.332031 1.578125 -3.65625 C 1.773438 -3.800781 1.988281 -3.910156 2.21875 -3.984375 C 2.445312 -4.054688 2.679688 -4.09375 2.921875 -4.09375 C 3.535156 -4.09375 4.023438 -3.910156 4.390625 -3.546875 C 4.753906 -3.179688 4.9375 -2.691406 4.9375 -2.078125 Z M 3.9375 -2 C 3.9375 -2.40625 3.828125 -2.71875 3.609375 -2.9375 C 3.398438 -3.15625 3.097656 -3.265625 2.703125 -3.265625 C 2.472656 -3.265625 2.257812 -3.226562 2.0625 -3.15625 C 1.875 -3.082031 1.710938 -2.984375 1.578125 -2.859375 C 1.578125 -2.160156 1.679688 -1.632812 1.890625 -1.28125 C 2.097656 -0.925781 2.40625 -0.75 2.8125 -0.75 C 3.164062 -0.75 3.441406 -0.859375 3.640625 -1.078125 C 3.835938 -1.304688 3.9375 -1.613281 3.9375 -2 Z M 3.9375 -2 "/>
</g>
<g id="glyph-2-0">
<path d="M 2.28125 -4.8125 L 2.171875 0 L 0.828125 0 L 1.21875 -8.390625 L 2.734375 -8.390625 L 4.671875 -2.78125 C 4.753906 -2.550781 4.828125 -2.320312 4.890625 -2.09375 C 4.960938 -1.875 5.023438 -1.65625 5.078125 -1.4375 L 5.109375 -1.4375 C 5.109375 -1.445312 5.15625 -1.613281 5.25 -1.9375 C 5.34375 -2.269531 5.429688 -2.554688 5.515625 -2.796875 L 7.453125 -8.390625 L 8.96875 -8.390625 L 9.359375 0 L 8.015625 0 L 7.890625 -4.8125 C 7.890625 -5.082031 7.894531 -5.351562 7.90625 -5.625 C 7.914062 -5.894531 7.929688 -6.164062 7.953125 -6.4375 L 7.921875 -6.4375 C 7.859375 -6.164062 7.785156 -5.894531 7.703125 -5.625 C 7.628906 -5.351562 7.546875 -5.082031 7.453125 -4.8125 L 5.78125 0 L 4.40625 0 L 2.734375 -4.8125 C 2.640625 -5.082031 2.550781 -5.351562 2.46875 -5.625 C 2.394531 -5.894531 2.328125 -6.164062 2.265625 -6.4375 L 2.234375 -6.4375 C 2.265625 -6.164062 2.28125 -5.894531 2.28125 -5.625 C 2.289062 -5.351562 2.289062 -5.082031 2.28125 -4.8125 Z M 2.28125 -4.8125 "/>
</g>
<g id="glyph-2-1">
<path d="M 5.96875 -2.984375 C 5.96875 -2.054688 5.722656 -1.304688 5.234375 -0.734375 C 4.742188 -0.160156 4.082031 0.125 3.25 0.125 C 2.4375 0.125 1.78125 -0.160156 1.28125 -0.734375 C 0.789062 -1.304688 0.546875 -2.054688 0.546875 -2.984375 C 0.546875 -3.921875 0.789062 -4.675781 1.28125 -5.25 C 1.78125 -5.820312 2.4375 -6.109375 3.25 -6.109375 C 4.070312 -6.109375 4.726562 -5.820312 5.21875 -5.25 C 5.71875 -4.675781 5.96875 -3.921875 5.96875 -2.984375 Z M 4.734375 -2.984375 C 4.734375 -3.609375 4.597656 -4.101562 4.328125 -4.46875 C 4.066406 -4.832031 3.707031 -5.015625 3.25 -5.015625 C 2.789062 -5.015625 2.429688 -4.832031 2.171875 -4.46875 C 1.921875 -4.101562 1.796875 -3.609375 1.796875 -2.984375 C 1.796875 -2.367188 1.921875 -1.878906 2.171875 -1.515625 C 2.429688 -1.160156 2.789062 -0.984375 3.25 -0.984375 C 3.707031 -0.984375 4.066406 -1.160156 4.328125 -1.515625 C 4.597656 -1.878906 4.734375 -2.367188 4.734375 -2.984375 Z M 4.734375 -2.984375 "/>
</g>
<g id="glyph-2-2">
<path d="M 2.46875 -8.265625 C 2.46875 -8.015625 2.382812 -7.804688 2.21875 -7.640625 C 2.050781 -7.484375 1.847656 -7.40625 1.609375 -7.40625 C 1.367188 -7.40625 1.164062 -7.484375 1 -7.640625 C 0.832031 -7.804688 0.75 -8.015625 0.75 -8.265625 C 0.75 -8.503906 0.832031 -8.707031 1 -8.875 C 1.164062 -9.039062 1.367188 -9.125 1.609375 -9.125 C 1.847656 -9.125 2.050781 -9.039062 2.21875 -8.875 C 2.382812 -8.707031 2.46875 -8.503906 2.46875 -8.265625 Z M 2.21875 -6 L 2.21875 0 L 0.984375 0 L 0.984375 -6 Z M 2.21875 -6 "/>
</g>
<g id="glyph-2-3">
<path d="M 2.21875 -4.421875 L 2.21875 0 L 0.984375 0 L 0.984375 -6 L 2.21875 -6 L 2.21875 -5.5625 L 2.25 -5.515625 C 2.53125 -5.710938 2.820312 -5.859375 3.125 -5.953125 C 3.425781 -6.054688 3.738281 -6.109375 4.0625 -6.109375 C 4.632812 -6.109375 5.070312 -5.945312 5.375 -5.625 C 5.675781 -5.300781 5.828125 -4.828125 5.828125 -4.203125 L 5.828125 0 L 4.59375 0 L 4.59375 -3.796875 C 4.59375 -4.242188 4.523438 -4.554688 4.390625 -4.734375 C 4.265625 -4.921875 4.046875 -5.015625 3.734375 -5.015625 C 3.441406 -5.015625 3.144531 -4.953125 2.84375 -4.828125 C 2.550781 -4.710938 2.34375 -4.578125 2.21875 -4.421875 Z M 2.21875 -4.421875 "/>
</g>
<g id="glyph-2-4">
<path d="M 4.8125 -1.65625 C 4.8125 -1.125 4.609375 -0.691406 4.203125 -0.359375 C 3.796875 -0.0351562 3.253906 0.125 2.578125 0.125 C 2.242188 0.125 1.910156 0.0820312 1.578125 0 C 1.242188 -0.0820312 0.972656 -0.1875 0.765625 -0.3125 L 0.765625 -1.5 C 0.859375 -1.40625 0.972656 -1.320312 1.109375 -1.25 C 1.242188 -1.1875 1.398438 -1.125 1.578125 -1.0625 C 1.722656 -1.019531 1.875 -0.984375 2.03125 -0.953125 C 2.1875 -0.929688 2.347656 -0.921875 2.515625 -0.921875 C 2.859375 -0.921875 3.125 -0.972656 3.3125 -1.078125 C 3.5 -1.191406 3.59375 -1.347656 3.59375 -1.546875 C 3.59375 -1.703125 3.519531 -1.84375 3.375 -1.96875 C 3.238281 -2.101562 2.9375 -2.269531 2.46875 -2.46875 C 2.125 -2.625 1.867188 -2.75 1.703125 -2.84375 C 1.535156 -2.9375 1.394531 -3.035156 1.28125 -3.140625 C 1.082031 -3.304688 0.9375 -3.488281 0.84375 -3.6875 C 0.757812 -3.894531 0.71875 -4.117188 0.71875 -4.359375 C 0.71875 -4.898438 0.910156 -5.328125 1.296875 -5.640625 C 1.691406 -5.953125 2.234375 -6.109375 2.921875 -6.109375 C 3.242188 -6.109375 3.550781 -6.070312 3.84375 -6 C 4.144531 -5.925781 4.394531 -5.828125 4.59375 -5.703125 L 4.59375 -4.609375 C 4.320312 -4.753906 4.035156 -4.867188 3.734375 -4.953125 C 3.441406 -5.035156 3.15625 -5.078125 2.875 -5.078125 C 2.570312 -5.078125 2.335938 -5.019531 2.171875 -4.90625 C 2.003906 -4.789062 1.921875 -4.640625 1.921875 -4.453125 C 1.921875 -4.296875 1.988281 -4.148438 2.125 -4.015625 C 2.269531 -3.890625 2.578125 -3.726562 3.046875 -3.53125 C 3.398438 -3.382812 3.65625 -3.265625 3.8125 -3.171875 C 3.976562 -3.078125 4.125 -2.976562 4.25 -2.875 C 4.4375 -2.707031 4.578125 -2.523438 4.671875 -2.328125 C 4.765625 -2.128906 4.8125 -1.90625 4.8125 -1.65625 Z M 4.8125 -1.65625 "/>
</g>
<g id="glyph-2-5">
</g>
<g id="glyph-2-6">
<path d="M 4.359375 -0.46875 C 4.179688 -0.28125 3.960938 -0.132812 3.703125 -0.03125 C 3.441406 0.0703125 3.164062 0.125 2.875 0.125 C 2.1875 0.125 1.625 -0.160156 1.1875 -0.734375 C 0.757812 -1.304688 0.546875 -2.039062 0.546875 -2.9375 C 0.546875 -3.882812 0.789062 -4.648438 1.28125 -5.234375 C 1.769531 -5.816406 2.421875 -6.109375 3.234375 -6.109375 C 3.492188 -6.109375 3.71875 -6.085938 3.90625 -6.046875 C 4.09375 -6.003906 4.242188 -5.9375 4.359375 -5.84375 L 4.390625 -5.875 L 4.390625 -8.703125 L 5.625 -8.703125 L 5.625 0 L 4.390625 0 L 4.390625 -0.421875 Z M 4.390625 -4.71875 C 4.273438 -4.800781 4.128906 -4.867188 3.953125 -4.921875 C 3.785156 -4.972656 3.601562 -5 3.40625 -5 C 2.90625 -5 2.507812 -4.820312 2.21875 -4.46875 C 1.9375 -4.113281 1.796875 -3.617188 1.796875 -2.984375 C 1.796875 -2.367188 1.921875 -1.878906 2.171875 -1.515625 C 2.429688 -1.148438 2.78125 -0.96875 3.21875 -0.96875 C 3.46875 -0.96875 3.695312 -1.023438 3.90625 -1.140625 C 4.125 -1.253906 4.285156 -1.40625 4.390625 -1.59375 Z M 4.390625 -4.71875 "/>
</g>
<g id="glyph-2-7">
<path d="M 5.34375 -0.21875 C 5.039062 -0.101562 4.738281 -0.0195312 4.4375 0.03125 C 4.144531 0.09375 3.851562 0.125 3.5625 0.125 C 2.613281 0.125 1.875 -0.144531 1.34375 -0.6875 C 0.8125 -1.226562 0.546875 -1.984375 0.546875 -2.953125 C 0.546875 -3.921875 0.796875 -4.6875 1.296875 -5.25 C 1.796875 -5.820312 2.472656 -6.109375 3.328125 -6.109375 C 4.046875 -6.109375 4.601562 -5.890625 5 -5.453125 C 5.394531 -5.023438 5.59375 -4.421875 5.59375 -3.640625 C 5.59375 -3.460938 5.582031 -3.28125 5.5625 -3.09375 C 5.539062 -2.90625 5.507812 -2.710938 5.46875 -2.515625 L 1.75 -2.515625 C 1.820312 -1.992188 2.007812 -1.601562 2.3125 -1.34375 C 2.613281 -1.09375 3.035156 -0.96875 3.578125 -0.96875 C 3.847656 -0.96875 4.128906 -1 4.421875 -1.0625 C 4.722656 -1.125 5.03125 -1.21875 5.34375 -1.34375 Z M 4.484375 -3.875 C 4.484375 -4.25 4.367188 -4.550781 4.140625 -4.78125 C 3.921875 -5.019531 3.613281 -5.140625 3.21875 -5.140625 C 2.789062 -5.140625 2.445312 -4.992188 2.1875 -4.703125 C 1.925781 -4.421875 1.78125 -4.015625 1.75 -3.484375 L 4.4375 -3.484375 C 4.445312 -3.546875 4.457031 -3.609375 4.46875 -3.671875 C 4.476562 -3.742188 4.484375 -3.8125 4.484375 -3.875 Z M 4.484375 -3.875 "/>
</g>
<g id="glyph-2-8">
<path d="M 2.21875 -8.703125 L 2.21875 0 L 0.984375 0 L 0.984375 -8.703125 Z M 2.21875 -8.703125 "/>
</g>
<g id="glyph-2-9">
<path d="M 2.21875 -4.4375 L 2.21875 0 L 0.984375 0 L 0.984375 -6 L 2.21875 -6 L 2.21875 -5.5625 L 2.25 -5.515625 C 2.53125 -5.722656 2.816406 -5.875 3.109375 -5.96875 C 3.398438 -6.0625 3.703125 -6.109375 4.015625 -6.109375 C 4.367188 -6.109375 4.664062 -6.050781 4.90625 -5.9375 C 5.15625 -5.820312 5.335938 -5.648438 5.453125 -5.421875 C 5.742188 -5.648438 6.0625 -5.820312 6.40625 -5.9375 C 6.757812 -6.050781 7.117188 -6.109375 7.484375 -6.109375 C 8.078125 -6.109375 8.515625 -5.953125 8.796875 -5.640625 C 9.085938 -5.328125 9.234375 -4.847656 9.234375 -4.203125 L 9.234375 0 L 8.015625 0 L 8.015625 -3.796875 C 8.015625 -4.222656 7.941406 -4.53125 7.796875 -4.71875 C 7.660156 -4.914062 7.4375 -5.015625 7.125 -5.015625 C 6.851562 -5.015625 6.582031 -4.953125 6.3125 -4.828125 C 6.039062 -4.710938 5.847656 -4.578125 5.734375 -4.421875 L 5.734375 0 L 4.5 0 L 4.5 -3.734375 C 4.5 -4.203125 4.429688 -4.53125 4.296875 -4.71875 C 4.171875 -4.914062 3.945312 -5.015625 3.625 -5.015625 C 3.351562 -5.015625 3.078125 -4.957031 2.796875 -4.84375 C 2.523438 -4.738281 2.332031 -4.601562 2.21875 -4.4375 Z M 2.21875 -4.4375 "/>
</g>
<g id="glyph-2-10">
<path d="M 4.328125 -0.09375 C 4.160156 -0.0195312 3.976562 0.03125 3.78125 0.0625 C 3.582031 0.101562 3.378906 0.125 3.171875 0.125 C 2.546875 0.125 2.078125 -0.0507812 1.765625 -0.40625 C 1.453125 -0.757812 1.296875 -1.285156 1.296875 -1.984375 L 1.296875 -4.9375 L 0.328125 -4.9375 L 0.328125 -6 L 1.296875 -6 L 1.296875 -7.578125 L 2.53125 -7.578125 L 2.53125 -6 L 4.203125 -6 L 4.203125 -4.9375 L 2.53125 -4.9375 L 2.53125 -2.671875 C 2.53125 -2.015625 2.59375 -1.566406 2.71875 -1.328125 C 2.851562 -1.097656 3.09375 -0.984375 3.4375 -0.984375 C 3.582031 -0.984375 3.734375 -1 3.890625 -1.03125 C 4.046875 -1.0625 4.191406 -1.097656 4.328125 -1.140625 Z M 4.328125 -0.09375 "/>
</g>
<g id="glyph-2-11">
<path d="M 4.234375 -0.5625 C 4.046875 -0.351562 3.796875 -0.1875 3.484375 -0.0625 C 3.179688 0.0625 2.859375 0.125 2.515625 0.125 C 1.953125 0.125 1.5 -0.0390625 1.15625 -0.375 C 0.820312 -0.71875 0.65625 -1.164062 0.65625 -1.71875 C 0.65625 -2.332031 0.878906 -2.804688 1.328125 -3.140625 C 1.785156 -3.472656 2.4375 -3.640625 3.28125 -3.640625 L 4.109375 -3.640625 C 4.117188 -3.660156 4.125 -3.6875 4.125 -3.71875 C 4.125 -3.75 4.125 -3.800781 4.125 -3.875 C 4.125 -4.300781 4.03125 -4.597656 3.84375 -4.765625 C 3.65625 -4.929688 3.332031 -5.015625 2.875 -5.015625 C 2.570312 -5.015625 2.28125 -4.976562 2 -4.90625 C 1.71875 -4.84375 1.421875 -4.738281 1.109375 -4.59375 L 1.109375 -5.734375 C 1.234375 -5.785156 1.378906 -5.835938 1.546875 -5.890625 C 1.710938 -5.941406 1.894531 -5.984375 2.09375 -6.015625 C 2.257812 -6.054688 2.429688 -6.082031 2.609375 -6.09375 C 2.785156 -6.101562 2.957031 -6.109375 3.125 -6.109375 C 3.914062 -6.109375 4.484375 -5.914062 4.828125 -5.53125 C 5.171875 -5.15625 5.34375 -4.546875 5.34375 -3.703125 L 5.34375 0 L 4.453125 0 L 4.265625 -0.546875 Z M 3.40625 -2.734375 C 2.894531 -2.734375 2.515625 -2.65625 2.265625 -2.5 C 2.023438 -2.351562 1.90625 -2.117188 1.90625 -1.796875 C 1.90625 -1.503906 1.984375 -1.28125 2.140625 -1.125 C 2.304688 -0.976562 2.539062 -0.90625 2.84375 -0.90625 C 3.132812 -0.90625 3.410156 -0.96875 3.671875 -1.09375 C 3.929688 -1.21875 4.113281 -1.363281 4.21875 -1.53125 L 4.21875 -2.734375 Z M 3.40625 -2.734375 "/>
</g>
<g id="glyph-2-12">
<path d="M 2.578125 -4.953125 L 2.578125 0 L 1.34375 0 L 1.34375 -4.953125 L 0.4375 -4.953125 L 0.4375 -6 L 1.34375 -6 C 1.375 -6.988281 1.570312 -7.703125 1.9375 -8.140625 C 2.300781 -8.585938 2.859375 -8.8125 3.609375 -8.8125 C 3.796875 -8.8125 3.984375 -8.796875 4.171875 -8.765625 C 4.359375 -8.734375 4.550781 -8.6875 4.75 -8.625 L 4.75 -7.484375 C 4.632812 -7.554688 4.488281 -7.613281 4.3125 -7.65625 C 4.144531 -7.707031 3.957031 -7.734375 3.75 -7.734375 C 3.300781 -7.734375 2.992188 -7.617188 2.828125 -7.390625 C 2.660156 -7.171875 2.578125 -6.707031 2.578125 -6 L 4.171875 -6 L 4.171875 -4.953125 Z M 2.578125 -4.953125 "/>
</g>
<g id="glyph-2-13">
<path d="M 4.890625 -0.28125 C 4.691406 -0.15625 4.441406 -0.0546875 4.140625 0.015625 C 3.847656 0.0859375 3.550781 0.125 3.25 0.125 C 2.414062 0.125 1.753906 -0.15625 1.265625 -0.71875 C 0.785156 -1.289062 0.546875 -2.046875 0.546875 -2.984375 C 0.546875 -3.929688 0.789062 -4.6875 1.28125 -5.25 C 1.769531 -5.820312 2.429688 -6.109375 3.265625 -6.109375 C 3.566406 -6.109375 3.863281 -6.070312 4.15625 -6 C 4.445312 -5.9375 4.675781 -5.847656 4.84375 -5.734375 L 4.84375 -4.546875 C 4.71875 -4.679688 4.515625 -4.789062 4.234375 -4.875 C 3.953125 -4.957031 3.660156 -5 3.359375 -5 C 2.828125 -5 2.429688 -4.835938 2.171875 -4.515625 C 1.921875 -4.191406 1.796875 -3.703125 1.796875 -3.046875 C 1.796875 -2.359375 1.921875 -1.84375 2.171875 -1.5 C 2.429688 -1.15625 2.820312 -0.984375 3.34375 -0.984375 C 3.613281 -0.984375 3.894531 -1.023438 4.1875 -1.109375 C 4.488281 -1.203125 4.722656 -1.3125 4.890625 -1.4375 Z M 4.890625 -0.28125 "/>
</g>
<g id="glyph-2-14">
<path d="M 2.265625 -8.21875 L 1.203125 -5.21875 L 0.328125 -5.46875 L 0.90625 -8.453125 Z M 2.265625 -8.21875 "/>
</g>
<g id="glyph-2-15">
<path d="M 3.96875 -4.296875 L 6.96875 -4.296875 L 6.96875 -0.46875 C 6.53125 -0.28125 6.082031 -0.132812 5.625 -0.03125 C 5.164062 0.0703125 4.734375 0.125 4.328125 0.125 C 3.160156 0.125 2.238281 -0.253906 1.5625 -1.015625 C 0.882812 -1.785156 0.546875 -2.84375 0.546875 -4.1875 C 0.546875 -5.539062 0.890625 -6.597656 1.578125 -7.359375 C 2.273438 -8.128906 3.21875 -8.515625 4.40625 -8.515625 C 4.789062 -8.515625 5.1875 -8.472656 5.59375 -8.390625 C 6 -8.304688 6.398438 -8.179688 6.796875 -8.015625 L 6.796875 -6.703125 C 6.398438 -6.898438 6 -7.050781 5.59375 -7.15625 C 5.1875 -7.257812 4.800781 -7.3125 4.4375 -7.3125 C 3.625 -7.3125 2.992188 -7.039062 2.546875 -6.5 C 2.097656 -5.96875 1.875 -5.195312 1.875 -4.1875 C 1.875 -3.164062 2.097656 -2.378906 2.546875 -1.828125 C 2.992188 -1.285156 3.628906 -1.015625 4.453125 -1.015625 C 4.671875 -1.015625 4.882812 -1.035156 5.09375 -1.078125 C 5.300781 -1.117188 5.484375 -1.171875 5.640625 -1.234375 L 5.640625 -3.09375 L 3.96875 -3.09375 Z M 3.96875 -4.296875 "/>
</g>
<g id="glyph-2-16">
<path d="M 2.234375 -0.109375 L 2.234375 2.46875 L 0.984375 2.46875 L 0.984375 -6 L 2.234375 -6 L 2.234375 -5.5625 L 2.265625 -5.53125 C 2.453125 -5.71875 2.671875 -5.859375 2.921875 -5.953125 C 3.179688 -6.054688 3.453125 -6.109375 3.734375 -6.109375 C 4.429688 -6.109375 4.992188 -5.820312 5.421875 -5.25 C 5.859375 -4.6875 6.078125 -3.957031 6.078125 -3.0625 C 6.078125 -2.125 5.828125 -1.359375 5.328125 -0.765625 C 4.835938 -0.171875 4.191406 0.125 3.390625 0.125 C 3.148438 0.125 2.9375 0.0976562 2.75 0.046875 C 2.5625 0.00390625 2.398438 -0.0546875 2.265625 -0.140625 Z M 3.40625 -5.03125 C 3.144531 -5.03125 2.90625 -4.96875 2.6875 -4.84375 C 2.46875 -4.71875 2.316406 -4.570312 2.234375 -4.40625 L 2.234375 -1.265625 C 2.335938 -1.179688 2.476562 -1.113281 2.65625 -1.0625 C 2.832031 -1.007812 3.019531 -0.984375 3.21875 -0.984375 C 3.726562 -0.984375 4.125 -1.15625 4.40625 -1.5 C 4.6875 -1.851562 4.828125 -2.351562 4.828125 -3 C 4.828125 -3.625 4.695312 -4.117188 4.4375 -4.484375 C 4.1875 -4.847656 3.84375 -5.03125 3.40625 -5.03125 Z M 3.40625 -5.03125 "/>
</g>
<g id="glyph-2-17">
<path d="M 4.5625 -0.46875 C 4.28125 -0.269531 3.988281 -0.117188 3.6875 -0.015625 C 3.394531 0.078125 3.085938 0.125 2.765625 0.125 C 2.179688 0.125 1.738281 -0.0351562 1.4375 -0.359375 C 1.132812 -0.679688 0.984375 -1.160156 0.984375 -1.796875 L 0.984375 -6 L 2.21875 -6 L 2.21875 -2.203125 C 2.21875 -1.753906 2.285156 -1.4375 2.421875 -1.25 C 2.554688 -1.070312 2.78125 -0.984375 3.09375 -0.984375 C 3.375 -0.984375 3.664062 -1.039062 3.96875 -1.15625 C 4.269531 -1.269531 4.476562 -1.410156 4.59375 -1.578125 L 4.59375 -6 L 5.828125 -6 L 5.828125 0 L 4.59375 0 L 4.59375 -0.4375 Z M 4.5625 -0.46875 "/>
</g>
<g id="glyph-2-18">
<path d="M 2.21875 -3.953125 L 2.21875 0 L 0.984375 0 L 0.984375 -6 L 2.21875 -6 L 2.21875 -5.28125 L 2.265625 -5.25 C 2.472656 -5.53125 2.71875 -5.742188 3 -5.890625 C 3.289062 -6.035156 3.613281 -6.109375 3.96875 -6.109375 C 4.03125 -6.109375 4.09375 -6.109375 4.15625 -6.109375 C 4.21875 -6.109375 4.28125 -6.101562 4.34375 -6.09375 L 4.34375 -4.75 C 4.3125 -4.757812 4.273438 -4.765625 4.234375 -4.765625 C 4.203125 -4.765625 4.160156 -4.765625 4.109375 -4.765625 C 3.648438 -4.765625 3.253906 -4.691406 2.921875 -4.546875 C 2.597656 -4.398438 2.363281 -4.203125 2.21875 -3.953125 Z M 2.21875 -3.953125 "/>
</g>
<g id="glyph-2-19">
<path d="M 2.28125 -1.921875 L 1.71875 0 L 0.328125 0 L 3 -8.390625 L 4.546875 -8.390625 L 7.203125 0 L 5.8125 0 L 5.25 -1.921875 Z M 3.765625 -7.0625 C 3.679688 -6.726562 3.59375 -6.382812 3.5 -6.03125 C 3.40625 -5.6875 3.3125 -5.351562 3.21875 -5.03125 L 2.65625 -3.125 L 4.890625 -3.125 L 4.34375 -5.046875 C 4.238281 -5.410156 4.132812 -5.769531 4.03125 -6.125 C 3.9375 -6.488281 3.859375 -6.800781 3.796875 -7.0625 Z M 3.765625 -7.0625 "/>
</g>
<g id="glyph-2-20">
<path d="M 2.328125 -3.71875 L 2.328125 0 L 0.984375 0 L 0.984375 -8.390625 L 2.328125 -8.390625 L 2.328125 -4.921875 L 6.0625 -4.921875 L 6.0625 -8.390625 L 7.390625 -8.390625 L 7.390625 0 L 6.0625 0 L 6.0625 -3.71875 Z M 2.328125 -3.71875 "/>
</g>
<g id="glyph-2-21">
<path d="M 6.078125 -3.078125 C 6.078125 -2.109375 5.816406 -1.332031 5.296875 -0.75 C 4.785156 -0.164062 4.097656 0.125 3.234375 0.125 C 2.953125 0.125 2.664062 0.0859375 2.375 0.015625 C 2.082031 -0.0546875 1.617188 -0.222656 0.984375 -0.484375 L 0.984375 -8.703125 L 2.234375 -8.703125 L 2.234375 -5.5625 L 2.265625 -5.515625 C 2.441406 -5.703125 2.660156 -5.847656 2.921875 -5.953125 C 3.191406 -6.054688 3.472656 -6.109375 3.765625 -6.109375 C 4.453125 -6.109375 5.007812 -5.820312 5.4375 -5.25 C 5.863281 -4.6875 6.078125 -3.960938 6.078125 -3.078125 Z M 2.234375 -1.25 C 2.378906 -1.164062 2.546875 -1.097656 2.734375 -1.046875 C 2.921875 -1.003906 3.101562 -0.984375 3.28125 -0.984375 C 3.757812 -0.984375 4.132812 -1.171875 4.40625 -1.546875 C 4.6875 -1.921875 4.828125 -2.421875 4.828125 -3.046875 C 4.828125 -3.640625 4.695312 -4.113281 4.4375 -4.46875 C 4.1875 -4.820312 3.84375 -5 3.40625 -5 C 3.15625 -5 2.921875 -4.941406 2.703125 -4.828125 C 2.492188 -4.722656 2.335938 -4.582031 2.234375 -4.40625 Z M 2.234375 -1.25 "/>
</g>
<g id="glyph-2-22">
<path d="M 3.609375 -9.5625 L 4.84375 -9.5625 L 1.453125 0.859375 L 0.21875 0.859375 Z M 3.609375 -9.5625 "/>
</g>
<g id="glyph-2-23">
<path d="M 1.875 -4.203125 C 1.875 -3.242188 2.085938 -2.484375 2.515625 -1.921875 C 2.953125 -1.367188 3.53125 -1.09375 4.25 -1.09375 C 4.601562 -1.09375 4.96875 -1.15625 5.34375 -1.28125 C 5.726562 -1.40625 6.070312 -1.570312 6.375 -1.78125 L 6.375 -0.5 C 6.082031 -0.3125 5.726562 -0.160156 5.3125 -0.046875 C 4.90625 0.0664062 4.503906 0.125 4.109375 0.125 C 3.046875 0.125 2.1875 -0.273438 1.53125 -1.078125 C 0.875 -1.890625 0.546875 -2.925781 0.546875 -4.1875 C 0.546875 -5.457031 0.878906 -6.492188 1.546875 -7.296875 C 2.222656 -8.109375 3.109375 -8.515625 4.203125 -8.515625 C 4.597656 -8.515625 4.988281 -8.460938 5.375 -8.359375 C 5.769531 -8.253906 6.082031 -8.113281 6.3125 -7.9375 L 6.3125 -6.65625 C 6.007812 -6.863281 5.679688 -7.023438 5.328125 -7.140625 C 4.984375 -7.253906 4.648438 -7.3125 4.328125 -7.3125 C 3.578125 -7.3125 2.976562 -7.035156 2.53125 -6.484375 C 2.09375 -5.929688 1.875 -5.171875 1.875 -4.203125 Z M 1.875 -4.203125 "/>
</g>
<g id="glyph-2-24">
<path d="M 2.84375 -2.171875 L 1.578125 0 L 0.21875 0 L 2.1875 -3.15625 L 0.328125 -6 L 1.71875 -6 L 2.921875 -4.015625 L 2.953125 -4.015625 L 4.09375 -6 L 5.453125 -6 L 3.59375 -3.015625 L 5.5625 0 L 4.1875 0 L 2.875 -2.171875 Z M 2.84375 -2.171875 "/>
</g>
<g id="glyph-2-25">
<path d="M 2.328125 -2.75 L 2.328125 0 L 0.984375 0 L 0.984375 -8.390625 L 3.125 -8.390625 C 4.164062 -8.390625 4.945312 -8.160156 5.46875 -7.703125 C 6 -7.242188 6.265625 -6.5625 6.265625 -5.65625 C 6.265625 -4.71875 5.976562 -4 5.40625 -3.5 C 4.84375 -3 4.039062 -2.75 3 -2.75 Z M 3.125 -7.1875 L 2.328125 -7.1875 L 2.328125 -3.953125 L 3 -3.953125 C 3.664062 -3.953125 4.148438 -4.085938 4.453125 -4.359375 C 4.765625 -4.628906 4.921875 -5.035156 4.921875 -5.578125 C 4.921875 -6.109375 4.769531 -6.507812 4.46875 -6.78125 C 4.164062 -7.050781 3.71875 -7.1875 3.125 -7.1875 Z M 3.125 -7.1875 "/>
</g>
<g id="glyph-2-26">
<path d="M 5.25 -9.046875 L 3.015625 -7.109375 L 2.375 -7.765625 L 4.1875 -9.9375 Z M 5.34375 -0.21875 C 5.039062 -0.101562 4.738281 -0.0195312 4.4375 0.03125 C 4.144531 0.09375 3.851562 0.125 3.5625 0.125 C 2.613281 0.125 1.875 -0.144531 1.34375 -0.6875 C 0.8125 -1.226562 0.546875 -1.984375 0.546875 -2.953125 C 0.546875 -3.921875 0.796875 -4.6875 1.296875 -5.25 C 1.796875 -5.820312 2.472656 -6.109375 3.328125 -6.109375 C 4.046875 -6.109375 4.601562 -5.890625 5 -5.453125 C 5.394531 -5.023438 5.59375 -4.421875 5.59375 -3.640625 C 5.59375 -3.460938 5.582031 -3.28125 5.5625 -3.09375 C 5.539062 -2.90625 5.507812 -2.710938 5.46875 -2.515625 L 1.75 -2.515625 C 1.820312 -1.992188 2.007812 -1.601562 2.3125 -1.34375 C 2.613281 -1.09375 3.035156 -0.96875 3.578125 -0.96875 C 3.847656 -0.96875 4.128906 -1 4.421875 -1.0625 C 4.722656 -1.125 5.03125 -1.21875 5.34375 -1.34375 Z M 4.484375 -3.875 C 4.484375 -4.25 4.367188 -4.550781 4.140625 -4.78125 C 3.921875 -5.019531 3.613281 -5.140625 3.21875 -5.140625 C 2.789062 -5.140625 2.445312 -4.992188 2.1875 -4.703125 C 1.925781 -4.421875 1.78125 -4.015625 1.75 -3.484375 L 4.4375 -3.484375 C 4.445312 -3.546875 4.457031 -3.609375 4.46875 -3.671875 C 4.476562 -3.742188 4.484375 -3.8125 4.484375 -3.875 Z M 4.484375 -3.875 "/>
</g>
<g id="glyph-2-27">
<path d="M 2.21875 -4.421875 L 2.21875 0 L 0.984375 0 L 0.984375 -8.703125 L 2.21875 -8.703125 L 2.21875 -5.5625 L 2.25 -5.515625 C 2.539062 -5.722656 2.832031 -5.875 3.125 -5.96875 C 3.425781 -6.0625 3.734375 -6.109375 4.046875 -6.109375 C 4.628906 -6.109375 5.070312 -5.945312 5.375 -5.625 C 5.675781 -5.300781 5.828125 -4.828125 5.828125 -4.203125 L 5.828125 0 L 4.59375 0 L 4.59375 -3.796875 C 4.59375 -4.234375 4.523438 -4.546875 4.390625 -4.734375 C 4.253906 -4.921875 4.03125 -5.015625 3.71875 -5.015625 C 3.4375 -5.015625 3.144531 -4.953125 2.84375 -4.828125 C 2.539062 -4.710938 2.332031 -4.578125 2.21875 -4.421875 Z M 2.21875 -4.421875 "/>
</g>
<g id="glyph-2-28">
<path d="M 4.359375 -0.46875 C 4.160156 -0.269531 3.9375 -0.117188 3.6875 -0.015625 C 3.445312 0.078125 3.1875 0.125 2.90625 0.125 C 2.195312 0.125 1.625 -0.15625 1.1875 -0.71875 C 0.757812 -1.289062 0.546875 -2.023438 0.546875 -2.921875 C 0.546875 -3.867188 0.789062 -4.632812 1.28125 -5.21875 C 1.78125 -5.8125 2.441406 -6.109375 3.265625 -6.109375 C 3.484375 -6.109375 3.691406 -6.082031 3.890625 -6.03125 C 4.085938 -5.988281 4.28125 -5.914062 4.46875 -5.8125 L 5.625 -6.078125 L 5.625 2.46875 L 4.390625 2.46875 L 4.390625 -0.421875 Z M 4.390625 -4.703125 C 4.265625 -4.796875 4.109375 -4.867188 3.921875 -4.921875 C 3.734375 -4.972656 3.546875 -5 3.359375 -5 C 2.867188 -5 2.484375 -4.816406 2.203125 -4.453125 C 1.929688 -4.085938 1.796875 -3.585938 1.796875 -2.953125 C 1.796875 -2.347656 1.925781 -1.863281 2.1875 -1.5 C 2.445312 -1.144531 2.804688 -0.96875 3.265625 -0.96875 C 3.523438 -0.96875 3.753906 -1.023438 3.953125 -1.140625 C 4.148438 -1.253906 4.296875 -1.410156 4.390625 -1.609375 Z M 4.390625 -4.703125 "/>
</g>
<g id="glyph-2-29">
<path d="M 5.609375 -2.28125 C 5.609375 -1.539062 5.347656 -0.953125 4.828125 -0.515625 C 4.316406 -0.0859375 3.601562 0.125 2.6875 0.125 C 2.320312 0.125 1.972656 0.0859375 1.640625 0.015625 C 1.304688 -0.0546875 0.976562 -0.164062 0.65625 -0.3125 L 0.65625 -1.640625 C 0.957031 -1.441406 1.285156 -1.285156 1.640625 -1.171875 C 1.992188 -1.066406 2.347656 -1.015625 2.703125 -1.015625 C 3.191406 -1.015625 3.570312 -1.113281 3.84375 -1.3125 C 4.125 -1.507812 4.265625 -1.785156 4.265625 -2.140625 C 4.265625 -2.410156 4.171875 -2.65625 3.984375 -2.875 C 3.796875 -3.101562 3.382812 -3.390625 2.75 -3.734375 C 2.332031 -3.960938 2.023438 -4.144531 1.828125 -4.28125 C 1.640625 -4.414062 1.472656 -4.554688 1.328125 -4.703125 C 1.117188 -4.921875 0.960938 -5.160156 0.859375 -5.421875 C 0.753906 -5.679688 0.703125 -5.960938 0.703125 -6.265625 C 0.703125 -6.953125 0.941406 -7.5 1.421875 -7.90625 C 1.910156 -8.3125 2.566406 -8.515625 3.390625 -8.515625 C 3.722656 -8.515625 4.039062 -8.476562 4.34375 -8.40625 C 4.65625 -8.34375 4.941406 -8.242188 5.203125 -8.109375 L 5.203125 -6.71875 C 4.992188 -6.90625 4.71875 -7.054688 4.375 -7.171875 C 4.03125 -7.285156 3.679688 -7.34375 3.328125 -7.34375 C 2.910156 -7.34375 2.59375 -7.257812 2.375 -7.09375 C 2.15625 -6.925781 2.046875 -6.691406 2.046875 -6.390625 C 2.046875 -6.128906 2.132812 -5.894531 2.3125 -5.6875 C 2.488281 -5.476562 2.890625 -5.210938 3.515625 -4.890625 C 3.941406 -4.660156 4.253906 -4.476562 4.453125 -4.34375 C 4.660156 -4.207031 4.832031 -4.066406 4.96875 -3.921875 C 5.1875 -3.691406 5.347656 -3.441406 5.453125 -3.171875 C 5.554688 -2.898438 5.609375 -2.601562 5.609375 -2.28125 Z M 5.609375 -2.28125 "/>
</g>
<g id="glyph-2-30">
<path d="M 5.625 -6 L 3.484375 0 L 2.25 0 L 0.109375 -6 L 1.46875 -6 L 2.625 -2.28125 C 2.695312 -2.0625 2.75 -1.875 2.78125 -1.71875 C 2.820312 -1.570312 2.847656 -1.460938 2.859375 -1.390625 L 2.890625 -1.390625 C 2.898438 -1.460938 2.925781 -1.570312 2.96875 -1.71875 C 3.007812 -1.875 3.0625 -2.0625 3.125 -2.28125 L 4.28125 -6 Z M 5.625 -6 "/>
</g>
<g id="glyph-2-31">
<path d="M 5.03125 -1.09375 L 5.03125 0 L 0.65625 0 L 0.65625 -1.109375 L 3.515625 -4.875 L 3.46875 -4.90625 L 0.78125 -4.90625 L 0.78125 -6 L 4.921875 -6 L 4.921875 -4.890625 L 2.078125 -1.125 L 2.109375 -1.09375 Z M 5.03125 -1.09375 "/>
</g>
<g id="glyph-2-32">
<path d="M 2.328125 -3.21875 L 2.328125 0 L 0.984375 0 L 0.984375 -8.390625 L 3.125 -8.390625 C 4.144531 -8.390625 4.921875 -8.179688 5.453125 -7.765625 C 5.992188 -7.347656 6.265625 -6.726562 6.265625 -5.90625 C 6.265625 -5.351562 6.140625 -4.878906 5.890625 -4.484375 C 5.648438 -4.085938 5.300781 -3.78125 4.84375 -3.5625 L 6.890625 0 L 5.328125 0 L 3.59375 -3.265625 C 3.476562 -3.242188 3.359375 -3.226562 3.234375 -3.21875 C 3.117188 -3.21875 2.992188 -3.21875 2.859375 -3.21875 Z M 3.125 -7.1875 L 2.328125 -7.1875 L 2.328125 -4.390625 L 3 -4.390625 C 3.632812 -4.390625 4.113281 -4.503906 4.4375 -4.734375 C 4.757812 -4.972656 4.921875 -5.328125 4.921875 -5.796875 C 4.921875 -6.253906 4.765625 -6.597656 4.453125 -6.828125 C 4.148438 -7.066406 3.707031 -7.1875 3.125 -7.1875 Z M 3.125 -7.1875 "/>
</g>
<g id="glyph-2-33">
<path d="M 4.65625 -1.203125 L 4.65625 0 L 0.765625 0 L 0.765625 -1.203125 L 2.0625 -1.203125 L 2.0625 -7.1875 L 0.765625 -7.1875 L 0.765625 -8.390625 L 4.65625 -8.390625 L 4.65625 -7.1875 L 3.375 -7.1875 L 3.375 -1.203125 Z M 4.65625 -1.203125 "/>
</g>
<g id="glyph-2-34">
<path d="M 2.5 -0.953125 L 0.9375 1.8125 L 0.109375 1.40625 L 1.203125 -1.4375 Z M 2.5 -0.953125 "/>
</g>
<g id="glyph-2-35">
<path d="M 4.796875 -6.53125 C 4.796875 -6.25 4.734375 -5.976562 4.609375 -5.71875 C 4.492188 -5.457031 4.25 -5.097656 3.875 -4.640625 C 3.445312 -4.140625 3.164062 -3.726562 3.03125 -3.40625 C 2.90625 -3.09375 2.84375 -2.757812 2.84375 -2.40625 L 1.734375 -2.40625 C 1.722656 -2.84375 1.785156 -3.253906 1.921875 -3.640625 C 2.066406 -4.023438 2.359375 -4.484375 2.796875 -5.015625 C 3.097656 -5.378906 3.289062 -5.65625 3.375 -5.84375 C 3.46875 -6.03125 3.515625 -6.21875 3.515625 -6.40625 C 3.515625 -6.726562 3.410156 -6.972656 3.203125 -7.140625 C 2.992188 -7.316406 2.710938 -7.40625 2.359375 -7.40625 C 2.035156 -7.40625 1.707031 -7.34375 1.375 -7.21875 C 1.039062 -7.101562 0.765625 -6.941406 0.546875 -6.734375 L 0.546875 -7.953125 C 0.796875 -8.140625 1.09375 -8.28125 1.4375 -8.375 C 1.78125 -8.476562 2.132812 -8.53125 2.5 -8.53125 C 3.195312 -8.53125 3.753906 -8.347656 4.171875 -7.984375 C 4.585938 -7.628906 4.796875 -7.144531 4.796875 -6.53125 Z M 3.203125 -0.75 C 3.203125 -0.507812 3.113281 -0.304688 2.9375 -0.140625 C 2.769531 0.0234375 2.570312 0.109375 2.34375 0.109375 C 2.101562 0.109375 1.898438 0.0234375 1.734375 -0.140625 C 1.566406 -0.304688 1.484375 -0.507812 1.484375 -0.75 C 1.484375 -0.976562 1.566406 -1.175781 1.734375 -1.34375 C 1.898438 -1.519531 2.101562 -1.609375 2.34375 -1.609375 C 2.570312 -1.609375 2.769531 -1.519531 2.9375 -1.34375 C 3.113281 -1.175781 3.203125 -0.976562 3.203125 -0.75 Z M 3.203125 -0.75 "/>
</g>
<g id="glyph-3-0">
<path d="M 4.34375 -2.671875 C 4.34375 -1.773438 4.175781 -1.09375 3.84375 -0.625 C 3.519531 -0.15625 3.046875 0.078125 2.421875 0.078125 C 1.785156 0.078125 1.300781 -0.148438 0.96875 -0.609375 C 0.644531 -1.078125 0.484375 -1.765625 0.484375 -2.671875 C 0.484375 -3.566406 0.644531 -4.25 0.96875 -4.71875 C 1.300781 -5.1875 1.785156 -5.421875 2.421875 -5.421875 C 3.046875 -5.421875 3.519531 -5.1875 3.84375 -4.71875 C 4.175781 -4.25 4.34375 -3.566406 4.34375 -2.671875 Z M 3.515625 -2.671875 C 3.515625 -3.359375 3.421875 -3.863281 3.234375 -4.1875 C 3.054688 -4.519531 2.785156 -4.6875 2.421875 -4.6875 C 2.046875 -4.6875 1.765625 -4.519531 1.578125 -4.1875 C 1.398438 -3.863281 1.3125 -3.359375 1.3125 -2.671875 C 1.3125 -1.972656 1.398438 -1.460938 1.578125 -1.140625 C 1.765625 -0.816406 2.046875 -0.65625 2.421875 -0.65625 C 2.785156 -0.65625 3.054688 -0.816406 3.234375 -1.140625 C 3.421875 -1.460938 3.515625 -1.972656 3.515625 -2.671875 Z M 3.515625 -2.671875 "/>
</g>
<g id="glyph-3-1">
<path d="M 3.578125 -0.71875 L 3.578125 0 L 0.421875 0 L 0.421875 -0.859375 C 0.804688 -1.222656 1.09375 -1.5 1.28125 -1.6875 C 1.476562 -1.882812 1.644531 -2.054688 1.78125 -2.203125 C 2.09375 -2.546875 2.320312 -2.847656 2.46875 -3.109375 C 2.613281 -3.367188 2.6875 -3.613281 2.6875 -3.84375 C 2.6875 -4.113281 2.601562 -4.320312 2.4375 -4.46875 C 2.28125 -4.625 2.0625 -4.703125 1.78125 -4.703125 C 1.5625 -4.703125 1.332031 -4.65625 1.09375 -4.5625 C 0.863281 -4.46875 0.664062 -4.347656 0.5 -4.203125 L 0.5 -4.984375 C 0.6875 -5.117188 0.898438 -5.222656 1.140625 -5.296875 C 1.378906 -5.378906 1.617188 -5.421875 1.859375 -5.421875 C 2.378906 -5.421875 2.78125 -5.285156 3.0625 -5.015625 C 3.351562 -4.742188 3.5 -4.351562 3.5 -3.84375 C 3.5 -3.445312 3.351562 -3.03125 3.0625 -2.59375 C 2.769531 -2.164062 2.203125 -1.546875 1.359375 -0.734375 L 1.375 -0.71875 Z M 3.578125 -0.71875 "/>
</g>
<g id="glyph-3-2">
<path d="M 2.640625 0 L 2.640625 -1.25 L 0.34375 -1.25 L 0.34375 -1.921875 L 2.5 -5.34375 L 3.453125 -5.34375 L 3.453125 -1.921875 L 4.0625 -1.921875 L 4.0625 -1.25 L 3.453125 -1.25 L 3.453125 0 Z M 1.203125 -1.921875 L 2.640625 -1.921875 L 2.640625 -4.4375 L 2.625 -4.4375 C 2.601562 -4.382812 2.578125 -4.320312 2.546875 -4.25 C 2.515625 -4.1875 2.390625 -3.976562 2.171875 -3.625 L 1.1875 -1.953125 Z M 1.203125 -1.921875 "/>
</g>
<g id="glyph-3-3">
<path d="M 4.046875 -1.703125 C 4.046875 -1.191406 3.882812 -0.765625 3.5625 -0.421875 C 3.238281 -0.0859375 2.816406 0.078125 2.296875 0.078125 C 1.703125 0.078125 1.25 -0.140625 0.9375 -0.578125 C 0.632812 -1.023438 0.484375 -1.660156 0.484375 -2.484375 C 0.484375 -3.429688 0.671875 -4.15625 1.046875 -4.65625 C 1.421875 -5.164062 1.960938 -5.421875 2.671875 -5.421875 C 2.847656 -5.421875 3.03125 -5.398438 3.21875 -5.359375 C 3.40625 -5.328125 3.59375 -5.273438 3.78125 -5.203125 L 3.78125 -4.40625 C 3.570312 -4.5 3.378906 -4.570312 3.203125 -4.625 C 3.023438 -4.675781 2.859375 -4.703125 2.703125 -4.703125 C 2.242188 -4.703125 1.894531 -4.554688 1.65625 -4.265625 C 1.414062 -3.972656 1.296875 -3.550781 1.296875 -3 C 1.460938 -3.113281 1.632812 -3.203125 1.8125 -3.265625 C 2 -3.328125 2.191406 -3.359375 2.390625 -3.359375 C 2.898438 -3.359375 3.300781 -3.207031 3.59375 -2.90625 C 3.894531 -2.601562 4.046875 -2.203125 4.046875 -1.703125 Z M 3.234375 -1.640625 C 3.234375 -1.972656 3.144531 -2.226562 2.96875 -2.40625 C 2.789062 -2.59375 2.539062 -2.6875 2.21875 -2.6875 C 2.03125 -2.6875 1.851562 -2.65625 1.6875 -2.59375 C 1.53125 -2.53125 1.398438 -2.453125 1.296875 -2.359375 C 1.296875 -1.773438 1.378906 -1.335938 1.546875 -1.046875 C 1.722656 -0.753906 1.976562 -0.609375 2.3125 -0.609375 C 2.601562 -0.609375 2.828125 -0.695312 2.984375 -0.875 C 3.148438 -1.0625 3.234375 -1.316406 3.234375 -1.640625 Z M 3.234375 -1.640625 "/>
</g>
<g id="glyph-4-0">
<path d="M 4.21875 -1.421875 L 3.140625 0 L 0.328125 -2.25 L 0.328125 -3.75 L 3.140625 -6 L 4.21875 -4.578125 L 2.375 -3 Z M 8.125 -1.421875 L 7.03125 0 L 4.21875 -2.25 L 4.21875 -3.75 L 7.03125 -6 L 8.125 -4.578125 L 6.265625 -3 Z M 8.125 -1.421875 "/>
</g>
<g id="glyph-4-1">
<path d="M 5.171875 -0.140625 C 4.929688 -0.0546875 4.675781 0.00390625 4.40625 0.046875 C 4.144531 0.0859375 3.875 0.109375 3.59375 0.109375 C 2.84375 0.109375 2.253906 -0.0820312 1.828125 -0.46875 C 1.398438 -0.863281 1.1875 -1.40625 1.1875 -2.09375 L 1.1875 -4.34375 L 0.21875 -4.34375 L 0.21875 -6 L 1.1875 -6 L 1.1875 -7.578125 L 3.390625 -7.578125 L 3.390625 -6 L 5.0625 -6 L 5.0625 -4.34375 L 3.390625 -4.34375 L 3.390625 -2.8125 C 3.390625 -2.414062 3.445312 -2.144531 3.5625 -2 C 3.6875 -1.851562 3.894531 -1.78125 4.1875 -1.78125 C 4.3125 -1.78125 4.457031 -1.789062 4.625 -1.8125 C 4.789062 -1.84375 4.972656 -1.882812 5.171875 -1.9375 Z M 5.171875 -0.140625 "/>
</g>
<g id="glyph-4-2">
<path d="M 6.59375 -2.984375 C 6.59375 -2.023438 6.316406 -1.269531 5.765625 -0.71875 C 5.210938 -0.164062 4.460938 0.109375 3.515625 0.109375 C 2.554688 0.109375 1.800781 -0.164062 1.25 -0.71875 C 0.707031 -1.269531 0.4375 -2.023438 0.4375 -2.984375 C 0.4375 -3.953125 0.707031 -4.710938 1.25 -5.265625 C 1.800781 -5.828125 2.554688 -6.109375 3.515625 -6.109375 C 4.460938 -6.109375 5.210938 -5.828125 5.765625 -5.265625 C 6.316406 -4.710938 6.59375 -3.953125 6.59375 -2.984375 Z M 4.375 -2.984375 C 4.375 -3.472656 4.300781 -3.835938 4.15625 -4.078125 C 4.019531 -4.316406 3.804688 -4.4375 3.515625 -4.4375 C 3.222656 -4.4375 3.003906 -4.316406 2.859375 -4.078125 C 2.722656 -3.835938 2.65625 -3.472656 2.65625 -2.984375 C 2.65625 -2.503906 2.722656 -2.144531 2.859375 -1.90625 C 3.003906 -1.675781 3.222656 -1.5625 3.515625 -1.5625 C 3.804688 -1.5625 4.019531 -1.675781 4.15625 -1.90625 C 4.300781 -2.144531 4.375 -2.503906 4.375 -2.984375 Z M 4.375 -2.984375 "/>
</g>
<g id="glyph-4-3">
<path d="M 4.421875 -0.40625 C 4.191406 -0.226562 3.941406 -0.09375 3.671875 0 C 3.398438 0.0820312 3.113281 0.125 2.8125 0.125 C 2.175781 0.125 1.691406 -0.046875 1.359375 -0.390625 C 1.035156 -0.742188 0.875 -1.265625 0.875 -1.953125 L 0.875 -5.984375 L 3.078125 -5.984375 L 3.078125 -2.390625 C 3.078125 -2.085938 3.113281 -1.875 3.1875 -1.75 C 3.257812 -1.632812 3.394531 -1.578125 3.59375 -1.578125 C 3.75 -1.578125 3.90625 -1.597656 4.0625 -1.640625 C 4.226562 -1.691406 4.363281 -1.757812 4.46875 -1.84375 L 4.46875 -5.984375 L 6.671875 -5.984375 L 6.671875 0 L 4.46875 0 L 4.46875 -0.375 Z M 4.421875 -0.40625 "/>
</g>
<g id="glyph-4-4">
<path d="M 3.296875 -8.1875 C 3.296875 -7.820312 3.171875 -7.515625 2.921875 -7.265625 C 2.671875 -7.015625 2.359375 -6.890625 1.984375 -6.890625 C 1.609375 -6.890625 1.289062 -7.015625 1.03125 -7.265625 C 0.78125 -7.515625 0.65625 -7.820312 0.65625 -8.1875 C 0.65625 -8.550781 0.78125 -8.851562 1.03125 -9.09375 C 1.289062 -9.332031 1.609375 -9.453125 1.984375 -9.453125 C 2.359375 -9.453125 2.671875 -9.332031 2.921875 -9.09375 C 3.171875 -8.851562 3.296875 -8.550781 3.296875 -8.1875 Z M -0.875 0.625 C -0.550781 0.65625 -0.273438 0.65625 -0.046875 0.625 C 0.171875 0.601562 0.34375 0.550781 0.46875 0.46875 C 0.613281 0.363281 0.71875 0.210938 0.78125 0.015625 C 0.84375 -0.171875 0.875 -0.425781 0.875 -0.75 L 0.875 -6 L 3.078125 -6 L 3.078125 -0.8125 C 3.078125 -0.113281 2.992188 0.457031 2.828125 0.90625 C 2.671875 1.363281 2.425781 1.722656 2.09375 1.984375 C 1.789062 2.222656 1.390625 2.390625 0.890625 2.484375 C 0.398438 2.578125 -0.1875 2.597656 -0.875 2.546875 Z M -0.875 0.625 "/>
</g>
<g id="glyph-4-5">
<path d="M 3.078125 -3.21875 L 3.078125 0 L 0.875 0 L 0.875 -6 L 3.078125 -6 L 3.078125 -5.28125 L 3.125 -5.25 C 3.394531 -5.5625 3.648438 -5.78125 3.890625 -5.90625 C 4.140625 -6.039062 4.40625 -6.109375 4.6875 -6.109375 C 4.757812 -6.109375 4.832031 -6.101562 4.90625 -6.09375 C 4.988281 -6.09375 5.082031 -6.082031 5.1875 -6.0625 L 5.1875 -3.8125 C 5.039062 -3.832031 4.941406 -3.84375 4.890625 -3.84375 C 4.835938 -3.84375 4.785156 -3.84375 4.734375 -3.84375 C 4.316406 -3.84375 3.976562 -3.789062 3.71875 -3.6875 C 3.457031 -3.59375 3.242188 -3.4375 3.078125 -3.21875 Z M 3.078125 -3.21875 "/>
</g>
<g id="glyph-4-6">
<path d="M 5.328125 -1.875 C 5.328125 -1.28125 5.09375 -0.796875 4.625 -0.421875 C 4.15625 -0.0546875 3.5625 0.125 2.84375 0.125 C 2.445312 0.125 2.0625 0.09375 1.6875 0.03125 C 1.3125 -0.03125 0.972656 -0.117188 0.671875 -0.234375 L 0.671875 -1.984375 C 0.953125 -1.835938 1.265625 -1.710938 1.609375 -1.609375 C 1.960938 -1.515625 2.285156 -1.46875 2.578125 -1.46875 C 2.804688 -1.46875 2.972656 -1.488281 3.078125 -1.53125 C 3.179688 -1.582031 3.234375 -1.664062 3.234375 -1.78125 C 3.234375 -1.863281 3.1875 -1.9375 3.09375 -2 C 3 -2.0625 2.789062 -2.140625 2.46875 -2.234375 C 2.09375 -2.335938 1.804688 -2.429688 1.609375 -2.515625 C 1.421875 -2.609375 1.265625 -2.71875 1.140625 -2.84375 C 0.960938 -3.007812 0.828125 -3.203125 0.734375 -3.421875 C 0.648438 -3.648438 0.609375 -3.90625 0.609375 -4.1875 C 0.609375 -4.8125 0.820312 -5.285156 1.25 -5.609375 C 1.6875 -5.941406 2.328125 -6.109375 3.171875 -6.109375 C 3.492188 -6.109375 3.804688 -6.082031 4.109375 -6.03125 C 4.410156 -5.988281 4.71875 -5.921875 5.03125 -5.828125 L 5.03125 -4.125 C 4.84375 -4.238281 4.578125 -4.332031 4.234375 -4.40625 C 3.890625 -4.476562 3.5625 -4.515625 3.25 -4.515625 C 3.050781 -4.515625 2.90625 -4.492188 2.8125 -4.453125 C 2.726562 -4.410156 2.6875 -4.332031 2.6875 -4.21875 C 2.6875 -4.144531 2.726562 -4.078125 2.8125 -4.015625 C 2.90625 -3.953125 3.113281 -3.878906 3.4375 -3.796875 C 3.8125 -3.679688 4.09375 -3.578125 4.28125 -3.484375 C 4.476562 -3.398438 4.644531 -3.300781 4.78125 -3.1875 C 4.957031 -3.03125 5.09375 -2.835938 5.1875 -2.609375 C 5.28125 -2.390625 5.328125 -2.144531 5.328125 -1.875 Z M 5.328125 -1.875 "/>
</g>
<g id="glyph-4-7">
<path d="M 6.515625 -6 L 4.25 0 L 2.265625 0 L 0 -6 L 2.359375 -6 L 3.03125 -3.28125 C 3.09375 -3.019531 3.140625 -2.796875 3.171875 -2.609375 C 3.210938 -2.421875 3.238281 -2.273438 3.25 -2.171875 L 3.28125 -2.171875 C 3.28125 -2.273438 3.300781 -2.421875 3.34375 -2.609375 C 3.382812 -2.796875 3.4375 -3.019531 3.5 -3.28125 L 4.15625 -6 Z M 6.515625 -6 "/>
</g>
<g id="glyph-4-8">
<path d="M 5.734375 -0.234375 C 5.410156 -0.117188 5.078125 -0.03125 4.734375 0.03125 C 4.390625 0.09375 4.035156 0.125 3.671875 0.125 C 2.679688 0.125 1.894531 -0.160156 1.3125 -0.734375 C 0.726562 -1.304688 0.4375 -2.085938 0.4375 -3.078125 C 0.4375 -3.992188 0.707031 -4.726562 1.25 -5.28125 C 1.789062 -5.832031 2.519531 -6.109375 3.4375 -6.109375 C 4.25 -6.109375 4.878906 -5.890625 5.328125 -5.453125 C 5.773438 -5.023438 6 -4.414062 6 -3.625 C 6 -3.425781 5.984375 -3.222656 5.953125 -3.015625 C 5.921875 -2.804688 5.878906 -2.617188 5.828125 -2.453125 L 2.515625 -2.453125 C 2.585938 -2.128906 2.726562 -1.894531 2.9375 -1.75 C 3.15625 -1.613281 3.476562 -1.546875 3.90625 -1.546875 C 4.15625 -1.546875 4.40625 -1.566406 4.65625 -1.609375 C 4.914062 -1.648438 5.273438 -1.742188 5.734375 -1.890625 Z M 4.203125 -3.953125 C 4.203125 -4.203125 4.128906 -4.398438 3.984375 -4.546875 C 3.835938 -4.691406 3.640625 -4.765625 3.390625 -4.765625 C 3.097656 -4.765625 2.875 -4.671875 2.71875 -4.484375 C 2.5625 -4.304688 2.476562 -4.039062 2.46875 -3.6875 L 4.1875 -3.6875 C 4.1875 -3.695312 4.1875 -3.71875 4.1875 -3.75 C 4.195312 -3.789062 4.203125 -3.859375 4.203125 -3.953125 Z M 4.203125 -3.953125 "/>
</g>
<g id="glyph-4-9">
<path d="M 3.078125 -4.140625 L 3.078125 0 L 0.875 0 L 0.875 -6 L 3.078125 -6 L 3.078125 -5.609375 L 3.125 -5.578125 C 3.351562 -5.753906 3.601562 -5.882812 3.875 -5.96875 C 4.144531 -6.0625 4.429688 -6.109375 4.734375 -6.109375 C 5.367188 -6.109375 5.847656 -5.929688 6.171875 -5.578125 C 6.503906 -5.234375 6.671875 -4.71875 6.671875 -4.03125 L 6.671875 0 L 4.46875 0 L 4.46875 -3.59375 C 4.46875 -3.894531 4.429688 -4.101562 4.359375 -4.21875 C 4.285156 -4.34375 4.148438 -4.40625 3.953125 -4.40625 C 3.796875 -4.40625 3.632812 -4.378906 3.46875 -4.328125 C 3.3125 -4.285156 3.179688 -4.222656 3.078125 -4.140625 Z M 3.078125 -4.140625 "/>
</g>
<g id="glyph-4-10">
<path d="M 4.171875 -4.578125 L 5.265625 -6 L 8.0625 -3.75 L 8.0625 -2.25 L 5.265625 0 L 4.171875 -1.421875 L 6.015625 -2.984375 Z M 0.28125 -4.578125 L 1.359375 -6 L 4.171875 -3.75 L 4.171875 -2.25 L 1.359375 0 L 0.28125 -1.421875 L 2.125 -2.984375 Z M 0.28125 -4.578125 "/>
</g>
<g id="glyph-4-11">
<path d="M 5.703125 -8.828125 L 3.234375 -6.765625 L 2.203125 -7.78125 L 4.09375 -10.15625 Z M 5.734375 -0.234375 C 5.410156 -0.117188 5.078125 -0.03125 4.734375 0.03125 C 4.390625 0.09375 4.035156 0.125 3.671875 0.125 C 2.679688 0.125 1.894531 -0.160156 1.3125 -0.734375 C 0.726562 -1.304688 0.4375 -2.085938 0.4375 -3.078125 C 0.4375 -3.992188 0.707031 -4.726562 1.25 -5.28125 C 1.789062 -5.832031 2.519531 -6.109375 3.4375 -6.109375 C 4.25 -6.109375 4.878906 -5.890625 5.328125 -5.453125 C 5.773438 -5.023438 6 -4.414062 6 -3.625 C 6 -3.425781 5.984375 -3.222656 5.953125 -3.015625 C 5.921875 -2.804688 5.878906 -2.617188 5.828125 -2.453125 L 2.515625 -2.453125 C 2.585938 -2.128906 2.726562 -1.894531 2.9375 -1.75 C 3.15625 -1.613281 3.476562 -1.546875 3.90625 -1.546875 C 4.15625 -1.546875 4.40625 -1.566406 4.65625 -1.609375 C 4.914062 -1.648438 5.273438 -1.742188 5.734375 -1.890625 Z M 4.203125 -3.953125 C 4.203125 -4.203125 4.128906 -4.398438 3.984375 -4.546875 C 3.835938 -4.691406 3.640625 -4.765625 3.390625 -4.765625 C 3.097656 -4.765625 2.875 -4.671875 2.71875 -4.484375 C 2.5625 -4.304688 2.476562 -4.039062 2.46875 -3.6875 L 4.1875 -3.6875 C 4.1875 -3.695312 4.1875 -3.71875 4.1875 -3.75 C 4.195312 -3.789062 4.203125 -3.859375 4.203125 -3.953125 Z M 4.203125 -3.953125 "/>
</g>
<g id="glyph-4-12">
<path d="M 3.078125 -0.171875 L 3.078125 2.46875 L 0.875 2.46875 L 0.875 -6 L 3.078125 -6 L 3.078125 -5.5625 L 3.109375 -5.53125 C 3.285156 -5.71875 3.5 -5.859375 3.75 -5.953125 C 4.007812 -6.054688 4.296875 -6.109375 4.609375 -6.109375 C 5.285156 -6.109375 5.832031 -5.828125 6.25 -5.265625 C 6.675781 -4.710938 6.890625 -3.988281 6.890625 -3.09375 C 6.890625 -2.132812 6.664062 -1.359375 6.21875 -0.765625 C 5.78125 -0.171875 5.1875 0.125 4.4375 0.125 C 4.21875 0.125 3.992188 0.09375 3.765625 0.03125 C 3.535156 -0.03125 3.328125 -0.109375 3.140625 -0.203125 Z M 3.71875 -4.4375 C 3.582031 -4.4375 3.457031 -4.410156 3.34375 -4.359375 C 3.226562 -4.304688 3.140625 -4.226562 3.078125 -4.125 L 3.078125 -1.734375 C 3.148438 -1.679688 3.238281 -1.640625 3.34375 -1.609375 C 3.457031 -1.585938 3.566406 -1.578125 3.671875 -1.578125 C 3.992188 -1.578125 4.242188 -1.703125 4.421875 -1.953125 C 4.597656 -2.203125 4.6875 -2.554688 4.6875 -3.015625 C 4.6875 -3.453125 4.601562 -3.796875 4.4375 -4.046875 C 4.269531 -4.304688 4.03125 -4.4375 3.71875 -4.4375 Z M 3.71875 -4.4375 "/>
</g>
<g id="glyph-4-13">
<path d="M 5.171875 -0.3125 C 4.898438 -0.164062 4.617188 -0.0625 4.328125 0 C 4.035156 0.0703125 3.734375 0.109375 3.421875 0.109375 C 2.515625 0.109375 1.789062 -0.175781 1.25 -0.75 C 0.707031 -1.320312 0.4375 -2.066406 0.4375 -2.984375 C 0.4375 -3.953125 0.695312 -4.710938 1.21875 -5.265625 C 1.75 -5.828125 2.484375 -6.109375 3.421875 -6.109375 C 3.773438 -6.109375 4.085938 -6.070312 4.359375 -6 C 4.640625 -5.925781 4.898438 -5.820312 5.140625 -5.6875 L 5.140625 -3.890625 C 4.941406 -4.035156 4.707031 -4.148438 4.4375 -4.234375 C 4.175781 -4.316406 3.914062 -4.359375 3.65625 -4.359375 C 3.3125 -4.359375 3.050781 -4.242188 2.875 -4.015625 C 2.707031 -3.796875 2.625 -3.46875 2.625 -3.03125 C 2.625 -2.59375 2.710938 -2.257812 2.890625 -2.03125 C 3.066406 -1.800781 3.320312 -1.6875 3.65625 -1.6875 C 3.925781 -1.6875 4.191406 -1.726562 4.453125 -1.8125 C 4.722656 -1.894531 4.960938 -2.007812 5.171875 -2.15625 Z M 5.171875 -0.3125 "/>
</g>
<g id="glyph-4-14">
<path d="M 3.984375 -0.578125 C 3.722656 -0.316406 3.46875 -0.132812 3.21875 -0.03125 C 2.96875 0.0703125 2.679688 0.125 2.359375 0.125 C 1.796875 0.125 1.351562 -0.046875 1.03125 -0.390625 C 0.707031 -0.734375 0.546875 -1.191406 0.546875 -1.765625 C 0.546875 -2.390625 0.78125 -2.851562 1.25 -3.15625 C 1.71875 -3.46875 2.425781 -3.625 3.375 -3.625 L 3.765625 -3.625 C 3.765625 -3.644531 3.765625 -3.664062 3.765625 -3.6875 C 3.765625 -3.71875 3.765625 -3.78125 3.765625 -3.875 C 3.765625 -4.070312 3.679688 -4.210938 3.515625 -4.296875 C 3.359375 -4.390625 3.109375 -4.4375 2.765625 -4.4375 C 2.472656 -4.4375 2.203125 -4.410156 1.953125 -4.359375 C 1.703125 -4.316406 1.410156 -4.234375 1.078125 -4.109375 L 1.078125 -5.84375 C 1.378906 -5.925781 1.695312 -5.988281 2.03125 -6.03125 C 2.375 -6.082031 2.734375 -6.109375 3.109375 -6.109375 C 4.128906 -6.109375 4.859375 -5.882812 5.296875 -5.4375 C 5.734375 -5 5.953125 -4.28125 5.953125 -3.28125 L 5.953125 0 L 4.25 0 L 4.03125 -0.578125 Z M 3.515625 -2.515625 C 3.210938 -2.515625 2.992188 -2.460938 2.859375 -2.359375 C 2.722656 -2.265625 2.65625 -2.101562 2.65625 -1.875 C 2.65625 -1.695312 2.695312 -1.554688 2.78125 -1.453125 C 2.875 -1.359375 3 -1.3125 3.15625 -1.3125 C 3.320312 -1.3125 3.484375 -1.347656 3.640625 -1.421875 C 3.796875 -1.503906 3.898438 -1.597656 3.953125 -1.703125 L 3.953125 -2.515625 Z M 3.515625 -2.515625 "/>
</g>
<g id="glyph-4-15">
<path d="M 3.078125 -8.703125 L 3.078125 0 L 0.875 0 L 0.875 -8.703125 Z M 3.078125 -8.703125 "/>
</g>
</g>
<clipPath id="clip-0">
<path clip-rule="nonzero" d="M 191 39.441406 L 193 39.441406 L 193 253.78125 L 191 253.78125 Z M 191 39.441406 "/>
</clipPath>
<clipPath id="clip-1">
<path clip-rule="nonzero" d="M 268 39.441406 L 270 39.441406 L 270 253.78125 L 268 253.78125 Z M 268 39.441406 "/>
</clipPath>
<clipPath id="clip-2">
<path clip-rule="nonzero" d="M 345 39.441406 L 347 39.441406 L 347 253.78125 L 345 253.78125 Z M 345 39.441406 "/>
</clipPath>
<clipPath id="clip-3">
<path clip-rule="nonzero" d="M 131.273438 239 L 395.519531 239 L 395.519531 241 L 131.273438 241 Z M 131.273438 239 "/>
</clipPath>
<clipPath id="clip-4">
<path clip-rule="nonzero" d="M 131.273438 215 L 395.519531 215 L 395.519531 218 L 131.273438 218 Z M 131.273438 215 "/>
</clipPath>
<clipPath id="clip-5">
<path clip-rule="nonzero" d="M 131.273438 192 L 395.519531 192 L 395.519531 194 L 131.273438 194 Z M 131.273438 192 "/>
</clipPath>
<clipPath id="clip-6">
<path clip-rule="nonzero" d="M 131.273438 169 L 395.519531 169 L 395.519531 171 L 131.273438 171 Z M 131.273438 169 "/>
</clipPath>
<clipPath id="clip-7">
<path clip-rule="nonzero" d="M 131.273438 146 L 395.519531 146 L 395.519531 148 L 131.273438 148 Z M 131.273438 146 "/>
</clipPath>
<clipPath id="clip-8">
<path clip-rule="nonzero" d="M 131.273438 122 L 395.519531 122 L 395.519531 124 L 131.273438 124 Z M 131.273438 122 "/>
</clipPath>
<clipPath id="clip-9">
<path clip-rule="nonzero" d="M 131.273438 99 L 395.519531 99 L 395.519531 101 L 131.273438 101 Z M 131.273438 99 "/>
</clipPath>
<clipPath id="clip-10">
<path clip-rule="nonzero" d="M 131.273438 76 L 395.519531 76 L 395.519531 78 L 131.273438 78 Z M 131.273438 76 "/>
</clipPath>
<clipPath id="clip-11">
<path clip-rule="nonzero" d="M 131.273438 52 L 395.519531 52 L 395.519531 54 L 131.273438 54 Z M 131.273438 52 "/>
</clipPath>
<clipPath id="clip-12">
<path clip-rule="nonzero" d="M 152 39.441406 L 154 39.441406 L 154 253.78125 L 152 253.78125 Z M 152 39.441406 "/>
</clipPath>
<clipPath id="clip-13">
<path clip-rule="nonzero" d="M 230 39.441406 L 231 39.441406 L 231 253.78125 L 230 253.78125 Z M 230 39.441406 "/>
</clipPath>
<clipPath id="clip-14">
<path clip-rule="nonzero" d="M 307 39.441406 L 308 39.441406 L 308 253.78125 L 307 253.78125 Z M 307 39.441406 "/>
</clipPath>
<clipPath id="clip-15">
<path clip-rule="nonzero" d="M 384 39.441406 L 385 39.441406 L 385 253.78125 L 384 253.78125 Z M 384 39.441406 "/>
</clipPath>
<clipPath id="clip-16">
<path clip-rule="nonzero" d="M 152 39.441406 L 154 39.441406 L 154 253.78125 L 152 253.78125 Z M 152 39.441406 "/>
</clipPath>
</defs>
<rect x="-40.1" y="-27" width="481.2" height="324" fill="rgb(100%, 100%, 100%)" fill-opacity="1"/>
<rect x="-40.1" y="-27" width="481.2" height="324" fill="rgb(100%, 100%, 100%)" fill-opacity="1"/>
<path fill="none" stroke-width="1.066978" stroke-linecap="round" stroke-linejoin="round" stroke="rgb(100%, 100%, 100%)" stroke-opacity="1" stroke-miterlimit="10" d="M 0 270 L 401 270 L 401 0 L 0 0 Z M 0 270 "/>
<g clip-path="url(#clip-0)">
<path fill="none" stroke-width="0.533489" stroke-linecap="butt" stroke-linejoin="round" stroke="rgb(100%, 100%, 100%)" stroke-opacity="1" stroke-miterlimit="10" d="M 191.847656 253.78125 L 191.847656 39.441406 "/>
</g>
<g clip-path="url(#clip-1)">
<path fill="none" stroke-width="0.533489" stroke-linecap="butt" stroke-linejoin="round" stroke="rgb(100%, 100%, 100%)" stroke-opacity="1" stroke-miterlimit="10" d="M 268.949219 253.78125 L 268.949219 39.441406 "/>
</g>
<g clip-path="url(#clip-2)">
<path fill="none" stroke-width="0.533489" stroke-linecap="butt" stroke-linejoin="round" stroke="rgb(100%, 100%, 100%)" stroke-opacity="1" stroke-miterlimit="10" d="M 346.050781 253.78125 L 346.050781 39.441406 "/>
</g>
<g clip-path="url(#clip-3)">
<path fill="none" stroke-width="1.066978" stroke-linecap="butt" stroke-linejoin="round" stroke="rgb(100%, 100%, 100%)" stroke-opacity="1" stroke-miterlimit="10" d="M 131.273438 239.800781 L 395.519531 239.800781 "/>
</g>
<g clip-path="url(#clip-4)">
<path fill="none" stroke-width="1.066978" stroke-linecap="butt" stroke-linejoin="round" stroke="rgb(100%, 100%, 100%)" stroke-opacity="1" stroke-miterlimit="10" d="M 131.273438 216.503906 L 395.519531 216.503906 "/>
</g>
<g clip-path="url(#clip-5)">
<path fill="none" stroke-width="1.066978" stroke-linecap="butt" stroke-linejoin="round" stroke="rgb(100%, 100%, 100%)" stroke-opacity="1" stroke-miterlimit="10" d="M 131.273438 193.207031 L 395.519531 193.207031 "/>
</g>
<g clip-path="url(#clip-6)">
<path fill="none" stroke-width="1.066978" stroke-linecap="butt" stroke-linejoin="round" stroke="rgb(100%, 100%, 100%)" stroke-opacity="1" stroke-miterlimit="10" d="M 131.273438 169.910156 L 395.519531 169.910156 "/>
</g>
<g clip-path="url(#clip-7)">
<path fill="none" stroke-width="1.066978" stroke-linecap="butt" stroke-linejoin="round" stroke="rgb(100%, 100%, 100%)" stroke-opacity="1" stroke-miterlimit="10" d="M 131.273438 146.613281 L 395.519531 146.613281 "/>
</g>
<g clip-path="url(#clip-8)">
<path fill="none" stroke-width="1.066978" stroke-linecap="butt" stroke-linejoin="round" stroke="rgb(100%, 100%, 100%)" stroke-opacity="1" stroke-miterlimit="10" d="M 131.273438 123.3125 L 395.519531 123.3125 "/>
</g>
<g clip-path="url(#clip-9)">
<path fill="none" stroke-width="1.066978" stroke-linecap="butt" stroke-linejoin="round" stroke="rgb(100%, 100%, 100%)" stroke-opacity="1" stroke-miterlimit="10" d="M 131.273438 100.015625 L 395.519531 100.015625 "/>
</g>
<g clip-path="url(#clip-10)">
<path fill="none" stroke-width="1.066978" stroke-linecap="butt" stroke-linejoin="round" stroke="rgb(100%, 100%, 100%)" stroke-opacity="1" stroke-miterlimit="10" d="M 131.273438 76.71875 L 395.519531 76.71875 "/>
</g>
<g clip-path="url(#clip-11)">
<path fill="none" stroke-width="1.066978" stroke-linecap="butt" stroke-linejoin="round" stroke="rgb(100%, 100%, 100%)" stroke-opacity="1" stroke-miterlimit="10" d="M 131.273438 53.421875 L 395.519531 53.421875 "/>
</g>
<g clip-path="url(#clip-12)">
<path fill="none" stroke-width="0.640187" stroke-linecap="butt" stroke-linejoin="round" stroke="rgb(94.901961%, 94.901961%, 94.901961%)" stroke-opacity="1" stroke-miterlimit="10" d="M 153.296875 253.78125 L 153.296875 39.441406 "/>
</g>
<g clip-path="url(#clip-13)">
<path fill="none" stroke-width="0.640187" stroke-linecap="butt" stroke-linejoin="round" stroke="rgb(94.901961%, 94.901961%, 94.901961%)" stroke-opacity="1" stroke-miterlimit="10" d="M 230.398438 253.78125 L 230.398438 39.441406 "/>
</g>
<g clip-path="url(#clip-14)">
<path fill="none" stroke-width="0.640187" stroke-linecap="butt" stroke-linejoin="round" stroke="rgb(94.901961%, 94.901961%, 94.901961%)" stroke-opacity="1" stroke-miterlimit="10" d="M 307.5 253.78125 L 307.5 39.441406 "/>
</g>
<g clip-path="url(#clip-15)">
<path fill="none" stroke-width="0.640187" stroke-linecap="butt" stroke-linejoin="round" stroke="rgb(94.901961%, 94.901961%, 94.901961%)" stroke-opacity="1" stroke-miterlimit="10" d="M 384.601562 253.78125 L 384.601562 39.441406 "/>
</g>
<path fill-rule="nonzero" fill="rgb(80%, 4.705882%, 0%)" fill-opacity="0.101961" d="M 153.296875 250.285156 L 161.007812 250.285156 L 161.007812 229.316406 L 153.296875 229.316406 Z M 153.296875 250.285156 "/>
<path fill-rule="nonzero" fill="rgb(80%, 4.705882%, 0%)" fill-opacity="0.117647" d="M 153.296875 226.988281 L 164.863281 226.988281 L 164.863281 206.019531 L 153.296875 206.019531 Z M 153.296875 226.988281 "/>
<path fill-rule="nonzero" fill="rgb(80%, 4.705882%, 0%)" fill-opacity="0.117647" d="M 153.296875 203.691406 L 164.863281 203.691406 L 164.863281 182.722656 L 153.296875 182.722656 Z M 153.296875 203.691406 "/>
<path fill-rule="nonzero" fill="rgb(80%, 4.705882%, 0%)" fill-opacity="0.168627" d="M 153.296875 180.394531 L 176.425781 180.394531 L 176.425781 159.425781 L 153.296875 159.425781 Z M 153.296875 180.394531 "/>
<path fill-rule="nonzero" fill="rgb(80%, 4.705882%, 0%)" fill-opacity="0.215686" d="M 153.296875 157.09375 L 187.992188 157.09375 L 187.992188 136.125 L 153.296875 136.125 Z M 153.296875 157.09375 "/>
<path fill-rule="nonzero" fill="rgb(80%, 4.705882%, 0%)" fill-opacity="0.682353" d="M 153.296875 133.796875 L 295.9375 133.796875 L 295.9375 112.828125 L 153.296875 112.828125 Z M 153.296875 133.796875 "/>
<path fill-rule="nonzero" fill="rgb(80%, 4.705882%, 0%)" fill-opacity="0.8" d="M 153.296875 110.5 L 322.921875 110.5 L 322.921875 89.53125 L 153.296875 89.53125 Z M 153.296875 110.5 "/>
<path fill-rule="nonzero" fill="rgb(80%, 4.705882%, 0%)" fill-opacity="0.933333" d="M 153.296875 87.203125 L 353.761719 87.203125 L 353.761719 66.234375 L 153.296875 66.234375 Z M 153.296875 87.203125 "/>
<path fill-rule="nonzero" fill="rgb(80%, 4.705882%, 0%)" fill-opacity="1" d="M 153.296875 63.90625 L 369.183594 63.90625 L 369.183594 42.9375 L 153.296875 42.9375 Z M 153.296875 63.90625 "/>
<g fill="rgb(80%, 4.705882%, 0%)" fill-opacity="0.101961">
<use xlink:href="#glyph-0-0" x="165.324219" y="243.302734"/>
</g>
<g fill="rgb(80%, 4.705882%, 0%)" fill-opacity="0.117647">
<use xlink:href="#glyph-0-1" x="169.179688" y="220.005859"/>
</g>
<g fill="rgb(80%, 4.705882%, 0%)" fill-opacity="0.117647">
<use xlink:href="#glyph-0-1" x="169.179688" y="196.708984"/>
</g>
<g fill="rgb(80%, 4.705882%, 0%)" fill-opacity="0.168627">
<use xlink:href="#glyph-0-2" x="180.742188" y="173.412109"/>
</g>
<g fill="rgb(80%, 4.705882%, 0%)" fill-opacity="0.215686">
<use xlink:href="#glyph-0-3" x="192.308594" y="150.115234"/>
</g>
<g fill="rgb(80%, 4.705882%, 0%)" fill-opacity="0.682353">
<use xlink:href="#glyph-0-1" x="300.253906" y="126.814453"/>
<use xlink:href="#glyph-0-4" x="307.253906" y="126.814453"/>
</g>
<g fill="rgb(80%, 4.705882%, 0%)" fill-opacity="0.8">
<use xlink:href="#glyph-0-5" x="327.238281" y="103.517578"/>
<use xlink:href="#glyph-0-5" x="335.238281" y="103.517578"/>
</g>
<g fill="rgb(80%, 4.705882%, 0%)" fill-opacity="0.933333">
<use xlink:href="#glyph-0-6" x="358.078125" y="80.220703"/>
<use xlink:href="#glyph-0-0" x="365.078125" y="80.220703"/>
</g>
<g fill="rgb(80%, 4.705882%, 0%)" fill-opacity="1">
<use xlink:href="#glyph-0-6" x="373.5" y="56.923828"/>
<use xlink:href="#glyph-0-2" x="380.5" y="56.923828"/>
</g>
<g fill="rgb(100%, 96.078431%, 95.686275%)" fill-opacity="1">
<use xlink:href="#glyph-1-0" x="159.675781" y="149.864258"/>
<use xlink:href="#glyph-1-1" x="165.675781" y="149.864258"/>
<use xlink:href="#glyph-1-2" x="167.675781" y="149.864258"/>
<use xlink:href="#glyph-1-3" x="172.675781" y="149.864258"/>
</g>
<g fill="rgb(100%, 96.078431%, 95.686275%)" fill-opacity="1">
<use xlink:href="#glyph-1-4" x="263.617188" y="126.563477"/>
<use xlink:href="#glyph-1-5" x="268.617188" y="126.563477"/>
<use xlink:href="#glyph-1-1" x="273.617188" y="126.563477"/>
<use xlink:href="#glyph-1-6" x="275.617188" y="126.563477"/>
<use xlink:href="#glyph-1-3" x="280.617188" y="126.563477"/>
</g>
<g fill="rgb(100%, 96.078431%, 95.686275%)" fill-opacity="1">
<use xlink:href="#glyph-1-2" x="288.601562" y="103.266602"/>
<use xlink:href="#glyph-1-7" x="293.601562" y="103.266602"/>
<use xlink:href="#glyph-1-1" x="299.601562" y="103.266602"/>
<use xlink:href="#glyph-1-8" x="301.601562" y="103.266602"/>
<use xlink:href="#glyph-1-3" x="307.601562" y="103.266602"/>
</g>
<g fill="rgb(100%, 96.078431%, 95.686275%)" fill-opacity="1">
<use xlink:href="#glyph-1-2" x="320.445312" y="79.969727"/>
<use xlink:href="#glyph-1-0" x="325.445312" y="79.969727"/>
<use xlink:href="#glyph-1-1" x="331.445312" y="79.969727"/>
<use xlink:href="#glyph-1-6" x="333.445312" y="79.969727"/>
<use xlink:href="#glyph-1-3" x="338.445312" y="79.969727"/>
</g>
<g fill="rgb(100%, 96.078431%, 95.686275%)" fill-opacity="1">
<use xlink:href="#glyph-1-2" x="335.863281" y="56.672852"/>
<use xlink:href="#glyph-1-9" x="340.863281" y="56.672852"/>
<use xlink:href="#glyph-1-1" x="345.863281" y="56.672852"/>
<use xlink:href="#glyph-1-0" x="347.863281" y="56.672852"/>
<use xlink:href="#glyph-1-3" x="353.863281" y="56.672852"/>
</g>
<g clip-path="url(#clip-16)">
<path fill="none" stroke-width="1.066978" stroke-linecap="butt" stroke-linejoin="round" stroke="rgb(33.333333%, 33.333333%, 33.333333%)" stroke-opacity="1" stroke-miterlimit="10" d="M 153.296875 253.78125 L 153.296875 39.441406 "/>
</g>
<g fill="rgb(30.196078%, 30.196078%, 30.196078%)" fill-opacity="1">
<use xlink:href="#glyph-2-0" x="94.480469" y="238.064453"/>
<use xlink:href="#glyph-2-1" x="104.480469" y="238.064453"/>
<use xlink:href="#glyph-2-2" x="111.480469" y="238.064453"/>
<use xlink:href="#glyph-2-3" x="114.480469" y="238.064453"/>
<use xlink:href="#glyph-2-4" x="121.480469" y="238.064453"/>
<use xlink:href="#glyph-2-5" x="126.480469" y="238.064453"/>
<use xlink:href="#glyph-2-6" x="130.480469" y="238.064453"/>
<use xlink:href="#glyph-2-7" x="137.480469" y="238.064453"/>
</g>
<g fill="rgb(30.196078%, 30.196078%, 30.196078%)" fill-opacity="1">
<use xlink:href="#glyph-2-8" x="16.480469" y="249.943359"/>
<use xlink:href="#glyph-2-2" x="19.480469" y="249.943359"/>
<use xlink:href="#glyph-2-9" x="22.480469" y="249.943359"/>
<use xlink:href="#glyph-2-2" x="32.480469" y="249.943359"/>
<use xlink:href="#glyph-2-10" x="35.480469" y="249.943359"/>
<use xlink:href="#glyph-2-11" x="40.480469" y="249.943359"/>
<use xlink:href="#glyph-2-10" x="46.480469" y="249.943359"/>
<use xlink:href="#glyph-2-2" x="51.480469" y="249.943359"/>
<use xlink:href="#glyph-2-1" x="54.480469" y="249.943359"/>
<use xlink:href="#glyph-2-3" x="61.480469" y="249.943359"/>
<use xlink:href="#glyph-2-5" x="68.480469" y="249.943359"/>
<use xlink:href="#glyph-2-12" x="72.480469" y="249.943359"/>
<use xlink:href="#glyph-2-1" x="77.480469" y="249.943359"/>
<use xlink:href="#glyph-2-3" x="84.480469" y="249.943359"/>
<use xlink:href="#glyph-2-13" x="91.480469" y="249.943359"/>
<use xlink:href="#glyph-2-10" x="96.480469" y="249.943359"/>
<use xlink:href="#glyph-2-2" x="101.480469" y="249.943359"/>
<use xlink:href="#glyph-2-1" x="104.480469" y="249.943359"/>
<use xlink:href="#glyph-2-3" x="111.480469" y="249.943359"/>
<use xlink:href="#glyph-2-3" x="118.480469" y="249.943359"/>
<use xlink:href="#glyph-2-7" x="125.480469" y="249.943359"/>
<use xlink:href="#glyph-2-8" x="131.480469" y="249.943359"/>
<use xlink:href="#glyph-2-8" x="134.480469" y="249.943359"/>
<use xlink:href="#glyph-2-7" x="137.480469" y="249.943359"/>
</g>
<g fill="rgb(30.196078%, 30.196078%, 30.196078%)" fill-opacity="1">
<use xlink:href="#glyph-2-0" x="44.480469" y="220.705078"/>
<use xlink:href="#glyph-2-1" x="54.480469" y="220.705078"/>
<use xlink:href="#glyph-2-2" x="61.480469" y="220.705078"/>
<use xlink:href="#glyph-2-3" x="64.480469" y="220.705078"/>
<use xlink:href="#glyph-2-4" x="71.480469" y="220.705078"/>
<use xlink:href="#glyph-2-5" x="76.480469" y="220.705078"/>
<use xlink:href="#glyph-2-6" x="80.480469" y="220.705078"/>
<use xlink:href="#glyph-2-14" x="87.480469" y="220.705078"/>
<use xlink:href="#glyph-2-11" x="89.480469" y="220.705078"/>
<use xlink:href="#glyph-2-3" x="95.480469" y="220.705078"/>
<use xlink:href="#glyph-2-2" x="102.480469" y="220.705078"/>
<use xlink:href="#glyph-2-9" x="105.480469" y="220.705078"/>
<use xlink:href="#glyph-2-11" x="115.480469" y="220.705078"/>
<use xlink:href="#glyph-2-10" x="121.480469" y="220.705078"/>
<use xlink:href="#glyph-2-2" x="126.480469" y="220.705078"/>
<use xlink:href="#glyph-2-1" x="129.480469" y="220.705078"/>
<use xlink:href="#glyph-2-3" x="136.480469" y="220.705078"/>
</g>
<g fill="rgb(30.196078%, 30.196078%, 30.196078%)" fill-opacity="1">
<use xlink:href="#glyph-2-15" x="65.480469" y="197.408203"/>
<use xlink:href="#glyph-2-11" x="73.480469" y="197.408203"/>
<use xlink:href="#glyph-2-2" x="79.480469" y="197.408203"/>
<use xlink:href="#glyph-2-3" x="82.480469" y="197.408203"/>
<use xlink:href="#glyph-2-5" x="89.480469" y="197.408203"/>
<use xlink:href="#glyph-2-6" x="93.480469" y="197.408203"/>
<use xlink:href="#glyph-2-7" x="100.480469" y="197.408203"/>
<use xlink:href="#glyph-2-5" x="106.480469" y="197.408203"/>
<use xlink:href="#glyph-2-10" x="110.480469" y="197.408203"/>
<use xlink:href="#glyph-2-7" x="115.480469" y="197.408203"/>
<use xlink:href="#glyph-2-9" x="121.480469" y="197.408203"/>
<use xlink:href="#glyph-2-16" x="131.480469" y="197.408203"/>
<use xlink:href="#glyph-2-4" x="138.480469" y="197.408203"/>
</g>
<g fill="rgb(30.196078%, 30.196078%, 30.196078%)" fill-opacity="1">
<use xlink:href="#glyph-2-0" x="43.480469" y="174.111328"/>
<use xlink:href="#glyph-2-1" x="53.480469" y="174.111328"/>
<use xlink:href="#glyph-2-2" x="60.480469" y="174.111328"/>
<use xlink:href="#glyph-2-3" x="63.480469" y="174.111328"/>
<use xlink:href="#glyph-2-4" x="70.480469" y="174.111328"/>
<use xlink:href="#glyph-2-5" x="75.480469" y="174.111328"/>
<use xlink:href="#glyph-2-6" x="79.480469" y="174.111328"/>
<use xlink:href="#glyph-2-7" x="86.480469" y="174.111328"/>
<use xlink:href="#glyph-2-5" x="92.480469" y="174.111328"/>
<use xlink:href="#glyph-2-6" x="96.480469" y="174.111328"/>
<use xlink:href="#glyph-2-1" x="103.480469" y="174.111328"/>
<use xlink:href="#glyph-2-17" x="110.480469" y="174.111328"/>
<use xlink:href="#glyph-2-8" x="117.480469" y="174.111328"/>
<use xlink:href="#glyph-2-7" x="120.480469" y="174.111328"/>
<use xlink:href="#glyph-2-17" x="126.480469" y="174.111328"/>
<use xlink:href="#glyph-2-18" x="133.480469" y="174.111328"/>
<use xlink:href="#glyph-2-4" x="138.480469" y="174.111328"/>
</g>
<g fill="rgb(30.196078%, 30.196078%, 30.196078%)" fill-opacity="1">
<use xlink:href="#glyph-2-19" x="113.480469" y="150.814453"/>
<use xlink:href="#glyph-2-17" x="120.480469" y="150.814453"/>
<use xlink:href="#glyph-2-10" x="127.480469" y="150.814453"/>
<use xlink:href="#glyph-2-18" x="132.480469" y="150.814453"/>
<use xlink:href="#glyph-2-7" x="137.480469" y="150.814453"/>
</g>
<g fill="rgb(30.196078%, 30.196078%, 30.196078%)" fill-opacity="1">
<use xlink:href="#glyph-2-20" x="26.480469" y="127.513672"/>
<use xlink:href="#glyph-2-11" x="34.480469" y="127.513672"/>
<use xlink:href="#glyph-2-21" x="40.480469" y="127.513672"/>
<use xlink:href="#glyph-2-2" x="47.480469" y="127.513672"/>
<use xlink:href="#glyph-2-10" x="50.480469" y="127.513672"/>
<use xlink:href="#glyph-2-17" x="55.480469" y="127.513672"/>
<use xlink:href="#glyph-2-6" x="62.480469" y="127.513672"/>
<use xlink:href="#glyph-2-7" x="69.480469" y="127.513672"/>
<use xlink:href="#glyph-2-5" x="75.480469" y="127.513672"/>
<use xlink:href="#glyph-2-22" x="79.480469" y="127.513672"/>
<use xlink:href="#glyph-2-5" x="84.480469" y="127.513672"/>
<use xlink:href="#glyph-2-12" x="88.480469" y="127.513672"/>
<use xlink:href="#glyph-2-1" x="93.480469" y="127.513672"/>
<use xlink:href="#glyph-2-18" x="100.480469" y="127.513672"/>
<use xlink:href="#glyph-2-9" x="105.480469" y="127.513672"/>
<use xlink:href="#glyph-2-11" x="115.480469" y="127.513672"/>
<use xlink:href="#glyph-2-10" x="121.480469" y="127.513672"/>
<use xlink:href="#glyph-2-2" x="126.480469" y="127.513672"/>
<use xlink:href="#glyph-2-1" x="129.480469" y="127.513672"/>
<use xlink:href="#glyph-2-3" x="136.480469" y="127.513672"/>
</g>
<g fill="rgb(30.196078%, 30.196078%, 30.196078%)" fill-opacity="1">
<use xlink:href="#glyph-2-0" x="17.480469" y="104.216797"/>
<use xlink:href="#glyph-2-1" x="27.480469" y="104.216797"/>
<use xlink:href="#glyph-2-2" x="34.480469" y="104.216797"/>
<use xlink:href="#glyph-2-3" x="37.480469" y="104.216797"/>
<use xlink:href="#glyph-2-4" x="44.480469" y="104.216797"/>
<use xlink:href="#glyph-2-5" x="49.480469" y="104.216797"/>
<use xlink:href="#glyph-2-6" x="53.480469" y="104.216797"/>
<use xlink:href="#glyph-2-7" x="60.480469" y="104.216797"/>
<use xlink:href="#glyph-2-5" x="66.480469" y="104.216797"/>
<use xlink:href="#glyph-2-13" x="70.480469" y="104.216797"/>
<use xlink:href="#glyph-2-1" x="75.480469" y="104.216797"/>
<use xlink:href="#glyph-2-9" x="82.480469" y="104.216797"/>
<use xlink:href="#glyph-2-16" x="92.480469" y="104.216797"/>
<use xlink:href="#glyph-2-8" x="99.480469" y="104.216797"/>
<use xlink:href="#glyph-2-2" x="102.480469" y="104.216797"/>
<use xlink:href="#glyph-2-13" x="105.480469" y="104.216797"/>
<use xlink:href="#glyph-2-11" x="110.480469" y="104.216797"/>
<use xlink:href="#glyph-2-10" x="116.480469" y="104.216797"/>
<use xlink:href="#glyph-2-2" x="121.480469" y="104.216797"/>
<use xlink:href="#glyph-2-1" x="124.480469" y="104.216797"/>
<use xlink:href="#glyph-2-3" x="131.480469" y="104.216797"/>
<use xlink:href="#glyph-2-4" x="138.480469" y="104.216797"/>
</g>
<g fill="rgb(30.196078%, 30.196078%, 30.196078%)" fill-opacity="1">
<use xlink:href="#glyph-2-23" x="22.480469" y="80.919922"/>
<use xlink:href="#glyph-2-18" x="29.480469" y="80.919922"/>
<use xlink:href="#glyph-2-11" x="34.480469" y="80.919922"/>
<use xlink:href="#glyph-2-2" x="40.480469" y="80.919922"/>
<use xlink:href="#glyph-2-3" x="43.480469" y="80.919922"/>
<use xlink:href="#glyph-2-10" x="50.480469" y="80.919922"/>
<use xlink:href="#glyph-2-7" x="55.480469" y="80.919922"/>
<use xlink:href="#glyph-2-5" x="61.480469" y="80.919922"/>
<use xlink:href="#glyph-2-6" x="65.480469" y="80.919922"/>
<use xlink:href="#glyph-2-7" x="72.480469" y="80.919922"/>
<use xlink:href="#glyph-2-5" x="78.480469" y="80.919922"/>
<use xlink:href="#glyph-2-8" x="82.480469" y="80.919922"/>
<use xlink:href="#glyph-2-14" x="85.480469" y="80.919922"/>
<use xlink:href="#glyph-2-7" x="87.480469" y="80.919922"/>
<use xlink:href="#glyph-2-24" x="93.480469" y="80.919922"/>
<use xlink:href="#glyph-2-16" x="99.480469" y="80.919922"/>
<use xlink:href="#glyph-2-1" x="106.480469" y="80.919922"/>
<use xlink:href="#glyph-2-4" x="113.480469" y="80.919922"/>
<use xlink:href="#glyph-2-2" x="118.480469" y="80.919922"/>
<use xlink:href="#glyph-2-10" x="121.480469" y="80.919922"/>
<use xlink:href="#glyph-2-2" x="126.480469" y="80.919922"/>
<use xlink:href="#glyph-2-1" x="129.480469" y="80.919922"/>
<use xlink:href="#glyph-2-3" x="136.480469" y="80.919922"/>
</g>
<g fill="rgb(30.196078%, 30.196078%, 30.196078%)" fill-opacity="1">
<use xlink:href="#glyph-2-25" x="5.480469" y="57.623047"/>
<use xlink:href="#glyph-2-18" x="12.480469" y="57.623047"/>
<use xlink:href="#glyph-2-26" x="17.480469" y="57.623047"/>
<use xlink:href="#glyph-2-1" x="23.480469" y="57.623047"/>
<use xlink:href="#glyph-2-13" x="30.480469" y="57.623047"/>
<use xlink:href="#glyph-2-13" x="35.480469" y="57.623047"/>
<use xlink:href="#glyph-2-17" x="40.480469" y="57.623047"/>
<use xlink:href="#glyph-2-16" x="47.480469" y="57.623047"/>
<use xlink:href="#glyph-2-11" x="54.480469" y="57.623047"/>
<use xlink:href="#glyph-2-10" x="60.480469" y="57.623047"/>
<use xlink:href="#glyph-2-2" x="65.480469" y="57.623047"/>
<use xlink:href="#glyph-2-1" x="68.480469" y="57.623047"/>
<use xlink:href="#glyph-2-3" x="75.480469" y="57.623047"/>
<use xlink:href="#glyph-2-5" x="82.480469" y="57.623047"/>
<use xlink:href="#glyph-2-7" x="86.480469" y="57.623047"/>
<use xlink:href="#glyph-2-4" x="92.480469" y="57.623047"/>
<use xlink:href="#glyph-2-10" x="97.480469" y="57.623047"/>
<use xlink:href="#glyph-2-27" x="102.480469" y="57.623047"/>
<use xlink:href="#glyph-2-26" x="109.480469" y="57.623047"/>
<use xlink:href="#glyph-2-10" x="115.480469" y="57.623047"/>
<use xlink:href="#glyph-2-2" x="120.480469" y="57.623047"/>
<use xlink:href="#glyph-2-28" x="123.480469" y="57.623047"/>
<use xlink:href="#glyph-2-17" x="130.480469" y="57.623047"/>
<use xlink:href="#glyph-2-7" x="137.480469" y="57.623047"/>
</g>
<g fill="rgb(89.803922%, 89.803922%, 89.803922%)" fill-opacity="1">
<use xlink:href="#glyph-3-0" x="150.796875" y="262.056641"/>
</g>
<g fill="rgb(89.803922%, 89.803922%, 89.803922%)" fill-opacity="1">
<use xlink:href="#glyph-3-1" x="225.898438" y="262.056641"/>
<use xlink:href="#glyph-3-0" x="229.898438" y="262.056641"/>
</g>
<g fill="rgb(89.803922%, 89.803922%, 89.803922%)" fill-opacity="1">
<use xlink:href="#glyph-3-2" x="303" y="262.056641"/>
<use xlink:href="#glyph-3-0" x="307" y="262.056641"/>
</g>
<g fill="rgb(89.803922%, 89.803922%, 89.803922%)" fill-opacity="1">
<use xlink:href="#glyph-3-3" x="380.101562" y="262.056641"/>
<use xlink:href="#glyph-3-0" x="384.101562" y="262.056641"/>
</g>
<g fill="rgb(20%, 20%, 20%)" fill-opacity="1">
<use xlink:href="#glyph-2-29" x="24.5" y="14.181641"/>
<use xlink:href="#glyph-2-2" x="30.5" y="14.181641"/>
</g>
<g fill="rgb(20%, 20%, 20%)" fill-opacity="1">
<use xlink:href="#glyph-2-30" x="37.5" y="14.181641"/>
<use xlink:href="#glyph-2-1" x="43.5" y="14.181641"/>
<use xlink:href="#glyph-2-17" x="50.5" y="14.181641"/>
<use xlink:href="#glyph-2-4" x="57.5" y="14.181641"/>
</g>
<g fill="rgb(20%, 20%, 20%)" fill-opacity="1">
<use xlink:href="#glyph-2-18" x="66.5" y="14.181641"/>
<use xlink:href="#glyph-2-26" x="71.5" y="14.181641"/>
<use xlink:href="#glyph-2-11" x="77.5" y="14.181641"/>
<use xlink:href="#glyph-2-8" x="83.5" y="14.181641"/>
<use xlink:href="#glyph-2-2" x="86.5" y="14.181641"/>
<use xlink:href="#glyph-2-4" x="89.5" y="14.181641"/>
<use xlink:href="#glyph-2-7" x="94.5" y="14.181641"/>
<use xlink:href="#glyph-2-31" x="100.5" y="14.181641"/>
</g>
<g fill="rgb(20%, 20%, 20%)" fill-opacity="1">
<use xlink:href="#glyph-4-0" x="110.5" y="14.181641"/>
</g>
<g fill="rgb(20%, 20%, 20%)" fill-opacity="1">
<use xlink:href="#glyph-4-1" x="122.5" y="14.181641"/>
<use xlink:href="#glyph-4-2" x="128.5" y="14.181641"/>
<use xlink:href="#glyph-4-3" x="135.5" y="14.181641"/>
<use xlink:href="#glyph-4-4" x="143.5" y="14.181641"/>
<use xlink:href="#glyph-4-2" x="147.5" y="14.181641"/>
<use xlink:href="#glyph-4-3" x="154.5" y="14.181641"/>
<use xlink:href="#glyph-4-5" x="162.5" y="14.181641"/>
<use xlink:href="#glyph-4-6" x="167.5" y="14.181641"/>
</g>
<g fill="rgb(20%, 20%, 20%)" fill-opacity="1">
<use xlink:href="#glyph-4-2" x="177.5" y="14.181641"/>
<use xlink:href="#glyph-4-3" x="184.5" y="14.181641"/>
</g>
<g fill="rgb(20%, 20%, 20%)" fill-opacity="1">
<use xlink:href="#glyph-4-6" x="196.5" y="14.181641"/>
<use xlink:href="#glyph-4-2" x="202.5" y="14.181641"/>
<use xlink:href="#glyph-4-3" x="209.5" y="14.181641"/>
<use xlink:href="#glyph-4-7" x="217.5" y="14.181641"/>
<use xlink:href="#glyph-4-8" x="224.5" y="14.181641"/>
<use xlink:href="#glyph-4-9" x="230.5" y="14.181641"/>
<use xlink:href="#glyph-4-1" x="238.5" y="14.181641"/>
</g>
<g fill="rgb(20%, 20%, 20%)" fill-opacity="1">
<use xlink:href="#glyph-4-10" x="248.5" y="14.181641"/>
</g>
<g fill="rgb(20%, 20%, 20%)" fill-opacity="1">
<use xlink:href="#glyph-2-6" x="260.5" y="14.181641"/>
<use xlink:href="#glyph-2-7" x="267.5" y="14.181641"/>
<use xlink:href="#glyph-2-4" x="273.5" y="14.181641"/>
</g>
<g fill="rgb(20%, 20%, 20%)" fill-opacity="1">
<use xlink:href="#glyph-2-32" x="282.5" y="14.181641"/>
<use xlink:href="#glyph-2-0" x="289.5" y="14.181641"/>
<use xlink:href="#glyph-2-33" x="299.5" y="14.181641"/>
</g>
<g fill="rgb(20%, 20%, 20%)" fill-opacity="1">
<use xlink:href="#glyph-2-16" x="308.5" y="14.181641"/>
<use xlink:href="#glyph-2-11" x="315.5" y="14.181641"/>
<use xlink:href="#glyph-2-18" x="321.5" y="14.181641"/>
</g>
<g fill="rgb(20%, 20%, 20%)" fill-opacity="1">
<use xlink:href="#glyph-2-2" x="330.5" y="14.181641"/>
<use xlink:href="#glyph-2-9" x="333.5" y="14.181641"/>
<use xlink:href="#glyph-2-16" x="343.5" y="14.181641"/>
<use xlink:href="#glyph-2-8" x="350.5" y="14.181641"/>
<use xlink:href="#glyph-2-11" x="353.5" y="14.181641"/>
<use xlink:href="#glyph-2-3" x="359.5" y="14.181641"/>
<use xlink:href="#glyph-2-10" x="366.5" y="14.181641"/>
<use xlink:href="#glyph-2-4" x="371.5" y="14.181641"/>
</g>
<g fill="rgb(20%, 20%, 20%)" fill-opacity="1">
<use xlink:href="#glyph-2-7" x="93.5" y="26.181641"/>
<use xlink:href="#glyph-2-3" x="99.5" y="26.181641"/>
</g>
<g fill="rgb(20%, 20%, 20%)" fill-opacity="1">
<use xlink:href="#glyph-2-16" x="110.5" y="26.181641"/>
<use xlink:href="#glyph-2-1" x="117.5" y="26.181641"/>
<use xlink:href="#glyph-2-4" x="124.5" y="26.181641"/>
<use xlink:href="#glyph-2-2" x="129.5" y="26.181641"/>
<use xlink:href="#glyph-2-10" x="132.5" y="26.181641"/>
<use xlink:href="#glyph-2-2" x="137.5" y="26.181641"/>
<use xlink:href="#glyph-2-1" x="140.5" y="26.181641"/>
<use xlink:href="#glyph-2-3" x="147.5" y="26.181641"/>
</g>
<g fill="rgb(80%, 4.705882%, 0%)" fill-opacity="1">
<use xlink:href="#glyph-4-5" x="158.5" y="26.181641"/>
<use xlink:href="#glyph-4-11" x="163.5" y="26.181641"/>
<use xlink:href="#glyph-4-1" x="169.5" y="26.181641"/>
<use xlink:href="#glyph-4-5" x="175.5" y="26.181641"/>
<use xlink:href="#glyph-4-2" x="180.5" y="26.181641"/>
<use xlink:href="#glyph-4-12" x="187.5" y="26.181641"/>
<use xlink:href="#glyph-4-8" x="194.5" y="26.181641"/>
<use xlink:href="#glyph-4-13" x="200.5" y="26.181641"/>
<use xlink:href="#glyph-4-1" x="206.5" y="26.181641"/>
<use xlink:href="#glyph-4-2" x="212.5" y="26.181641"/>
<use xlink:href="#glyph-4-5" x="219.5" y="26.181641"/>
<use xlink:href="#glyph-4-14" x="224.5" y="26.181641"/>
<use xlink:href="#glyph-4-15" x="231.5" y="26.181641"/>
<use xlink:href="#glyph-4-8" x="235.5" y="26.181641"/>
</g>
<g fill="rgb(20%, 20%, 20%)" fill-opacity="1">
<use xlink:href="#glyph-2-34" x="241.5" y="26.181641"/>
</g>
<g fill="rgb(20%, 20%, 20%)" fill-opacity="1">
<use xlink:href="#glyph-2-16" x="248.5" y="26.181641"/>
<use xlink:href="#glyph-2-1" x="255.5" y="26.181641"/>
<use xlink:href="#glyph-2-17" x="262.5" y="26.181641"/>
<use xlink:href="#glyph-2-18" x="269.5" y="26.181641"/>
<use xlink:href="#glyph-2-28" x="274.5" y="26.181641"/>
<use xlink:href="#glyph-2-17" x="281.5" y="26.181641"/>
<use xlink:href="#glyph-2-1" x="288.5" y="26.181641"/>
<use xlink:href="#glyph-2-2" x="295.5" y="26.181641"/>
</g>
<g fill="rgb(20%, 20%, 20%)" fill-opacity="1">
<use xlink:href="#glyph-2-35" x="302.5" y="26.181641"/>
</g>
</svg>
