<?xml version="1.0" encoding="UTF-8"?>
<svg xmlns="http://www.w3.org/2000/svg" xmlns:xlink="http://www.w3.org/1999/xlink" width="360" height="324" viewBox="0 0 360 324">
<defs>
<g>
<g id="glyph-0-0">
<path d="M 6.359375 -1.28125 L 6.359375 0 L 0.75 0 L 0.75 -1.53125 C 1.4375 -2.1875 1.945312 -2.679688 2.28125 -3.015625 C 2.625 -3.359375 2.914062 -3.660156 3.15625 -3.921875 C 3.726562 -4.535156 4.140625 -5.070312 4.390625 -5.53125 C 4.640625 -6 4.765625 -6.4375 4.765625 -6.84375 C 4.765625 -7.332031 4.625 -7.707031 4.34375 -7.96875 C 4.0625 -8.238281 3.664062 -8.375 3.15625 -8.375 C 2.769531 -8.375 2.367188 -8.289062 1.953125 -8.125 C 1.535156 -7.957031 1.179688 -7.738281 0.890625 -7.46875 L 0.890625 -8.875 C 1.222656 -9.113281 1.601562 -9.300781 2.03125 -9.4375 C 2.457031 -9.582031 2.882812 -9.65625 3.3125 -9.65625 C 4.238281 -9.65625 4.953125 -9.410156 5.453125 -8.921875 C 5.960938 -8.429688 6.21875 -7.738281 6.21875 -6.84375 C 6.21875 -6.132812 5.957031 -5.394531 5.4375 -4.625 C 4.925781 -3.851562 3.921875 -2.75 2.421875 -1.3125 L 2.453125 -1.28125 Z M 6.359375 -1.28125 "/>
</g>
<g id="glyph-0-1">
<path d="M 6.15625 -8.109375 L 2.546875 0 L 1.0625 0 L 4.75 -8.1875 L 4.703125 -8.21875 L 0.375 -8.21875 L 0.375 -9.5 L 6.15625 -9.5 Z M 6.15625 -8.109375 "/>
</g>
<g id="glyph-0-2">
<path d="M 3.21875 0.140625 C 3.007812 0.140625 2.804688 0.128906 2.609375 0.109375 C 2.421875 0.0976562 2.238281 0.0703125 2.0625 0.03125 C 1.8125 -0.0195312 1.597656 -0.078125 1.421875 -0.140625 C 1.253906 -0.210938 1.113281 -0.289062 1 -0.375 L 1 -1.78125 C 1.125 -1.675781 1.273438 -1.582031 1.453125 -1.5 C 1.640625 -1.425781 1.847656 -1.359375 2.078125 -1.296875 C 2.265625 -1.242188 2.457031 -1.203125 2.65625 -1.171875 C 2.851562 -1.148438 3.054688 -1.140625 3.265625 -1.140625 C 3.847656 -1.140625 4.304688 -1.296875 4.640625 -1.609375 C 4.984375 -1.921875 5.15625 -2.335938 5.15625 -2.859375 C 5.15625 -3.304688 5.023438 -3.664062 4.765625 -3.9375 C 4.515625 -4.207031 4.140625 -4.390625 3.640625 -4.484375 C 3.421875 -4.523438 3.175781 -4.546875 2.90625 -4.546875 C 2.632812 -4.554688 2.0625 -4.535156 1.1875 -4.484375 L 1.1875 -9.515625 L 6.109375 -9.515625 L 6.109375 -8.234375 L 2.609375 -8.234375 L 2.609375 -5.734375 C 3.890625 -5.847656 4.875 -5.660156 5.5625 -5.171875 C 6.257812 -4.679688 6.609375 -3.9375 6.609375 -2.9375 C 6.609375 -2.039062 6.296875 -1.300781 5.671875 -0.71875 C 5.054688 -0.144531 4.238281 0.140625 3.21875 0.140625 Z M 3.21875 0.140625 "/>
</g>
<g id="glyph-0-3">
<path d="M 7.734375 -4.75 C 7.734375 -3.15625 7.441406 -1.941406 6.859375 -1.109375 C 6.273438 -0.273438 5.421875 0.140625 4.296875 0.140625 C 3.171875 0.140625 2.316406 -0.269531 1.734375 -1.09375 C 1.160156 -1.925781 0.875 -3.144531 0.875 -4.75 C 0.875 -6.34375 1.160156 -7.554688 1.734375 -8.390625 C 2.316406 -9.222656 3.171875 -9.640625 4.296875 -9.640625 C 5.421875 -9.640625 6.273438 -9.222656 6.859375 -8.390625 C 7.441406 -7.554688 7.734375 -6.34375 7.734375 -4.75 Z M 6.265625 -4.75 C 6.265625 -5.976562 6.101562 -6.878906 5.78125 -7.453125 C 5.457031 -8.035156 4.960938 -8.328125 4.296875 -8.328125 C 3.628906 -8.328125 3.132812 -8.035156 2.8125 -7.453125 C 2.5 -6.878906 2.34375 -5.976562 2.34375 -4.75 C 2.34375 -3.519531 2.5 -2.613281 2.8125 -2.03125 C 3.132812 -1.457031 3.628906 -1.171875 4.296875 -1.171875 C 4.960938 -1.171875 5.457031 -1.457031 5.78125 -2.03125 C 6.101562 -2.613281 6.265625 -3.519531 6.265625 -4.75 Z M 6.265625 -4.75 "/>
</g>
<g id="glyph-0-4">
<path d="M 2.5625 -0.84375 C 2.5625 -0.582031 2.46875 -0.351562 2.28125 -0.15625 C 2.09375 0.03125 1.863281 0.125 1.59375 0.125 C 1.332031 0.125 1.101562 0.03125 0.90625 -0.15625 C 0.71875 -0.351562 0.625 -0.582031 0.625 -0.84375 C 0.625 -1.113281 0.71875 -1.34375 0.90625 -1.53125 C 1.101562 -1.71875 1.332031 -1.8125 1.59375 -1.8125 C 1.863281 -1.8125 2.09375 -1.71875 2.28125 -1.53125 C 2.46875 -1.34375 2.5625 -1.113281 2.5625 -0.84375 Z M 2.5625 -0.84375 "/>
</g>
<g id="glyph-0-5">
<path d="M 6.140625 -6.453125 C 6.140625 -5.429688 5.921875 -4.648438 5.484375 -4.109375 C 5.054688 -3.578125 4.425781 -3.3125 3.59375 -3.3125 C 2.75 -3.3125 2.109375 -3.578125 1.671875 -4.109375 C 1.242188 -4.648438 1.03125 -5.429688 1.03125 -6.453125 C 1.03125 -7.472656 1.242188 -8.25 1.671875 -8.78125 C 2.109375 -9.320312 2.75 -9.59375 3.59375 -9.59375 C 4.425781 -9.59375 5.054688 -9.320312 5.484375 -8.78125 C 5.921875 -8.25 6.140625 -7.472656 6.140625 -6.453125 Z M 10.375 -9.5 L 6.46875 0 L 5.0625 0 L 8.984375 -9.5 Z M 4.8125 -6.453125 C 4.8125 -7.128906 4.707031 -7.628906 4.5 -7.953125 C 4.300781 -8.273438 4 -8.4375 3.59375 -8.4375 C 3.175781 -8.4375 2.863281 -8.273438 2.65625 -7.953125 C 2.457031 -7.628906 2.359375 -7.128906 2.359375 -6.453125 C 2.359375 -5.765625 2.457031 -5.257812 2.65625 -4.9375 C 2.863281 -4.613281 3.175781 -4.453125 3.59375 -4.453125 C 4 -4.453125 4.300781 -4.613281 4.5 -4.9375 C 4.707031 -5.257812 4.8125 -5.765625 4.8125 -6.453125 Z M 14.484375 -3 C 14.484375 -1.976562 14.265625 -1.195312 13.828125 -0.65625 C 13.398438 -0.125 12.769531 0.140625 11.9375 0.140625 C 11.09375 0.140625 10.453125 -0.125 10.015625 -0.65625 C 9.585938 -1.195312 9.375 -1.976562 9.375 -3 C 9.375 -4.019531 9.585938 -4.796875 10.015625 -5.328125 C 10.453125 -5.867188 11.09375 -6.140625 11.9375 -6.140625 C 12.769531 -6.140625 13.398438 -5.867188 13.828125 -5.328125 C 14.265625 -4.796875 14.484375 -4.019531 14.484375 -3 Z M 13.15625 -3 C 13.15625 -3.675781 13.050781 -4.175781 12.84375 -4.5 C 12.644531 -4.832031 12.34375 -5 11.9375 -5 C 11.519531 -5 11.207031 -4.832031 11 -4.5 C 10.800781 -4.175781 10.703125 -3.675781 10.703125 -3 C 10.703125 -2.320312 10.800781 -1.820312 11 -1.5 C 11.207031 -1.175781 11.519531 -1.015625 11.9375 -1.015625 C 12.34375 -1.015625 12.644531 -1.175781 12.84375 -1.5 C 13.050781 -1.820312 13.15625 -2.320312 13.15625 -3 Z M 13.15625 -3 "/>
</g>
<g id="glyph-1-0">
<path d="M 10.1875 -13.421875 L 4.203125 0 L 1.75 0 L 7.859375 -13.546875 L 7.796875 -13.609375 L 0.625 -13.609375 L 0.625 -15.71875 L 10.1875 -15.71875 Z M 10.1875 -13.421875 "/>
</g>
<g id="glyph-1-1">
<path d="M 7.796875 0 L 7.796875 -3.6875 L 1.03125 -3.6875 L 1.03125 -5.671875 L 7.359375 -15.71875 L 10.15625 -15.71875 L 10.15625 -5.671875 L 11.96875 -5.671875 L 11.96875 -3.6875 L 10.15625 -3.6875 L 10.15625 0 Z M 3.546875 -5.671875 L 7.796875 -5.671875 L 7.796875 -13.046875 L 7.734375 -13.046875 C 7.671875 -12.890625 7.59375 -12.710938 7.5 -12.515625 C 7.40625 -12.328125 7.039062 -11.707031 6.40625 -10.65625 L 3.484375 -5.734375 Z M 3.546875 -5.671875 "/>
</g>
<g id="glyph-1-2">
<path d="M 12.453125 -4.3125 C 12.453125 -3 11.921875 -1.910156 10.859375 -1.046875 C 9.804688 -0.191406 8.507812 0.234375 6.96875 0.234375 C 5.300781 0.234375 3.960938 -0.160156 2.953125 -0.953125 C 1.941406 -1.753906 1.4375 -2.816406 1.4375 -4.140625 C 1.4375 -4.984375 1.679688 -5.765625 2.171875 -6.484375 C 2.671875 -7.210938 3.367188 -7.832031 4.265625 -8.34375 C 3.546875 -8.71875 2.988281 -9.195312 2.59375 -9.78125 C 2.207031 -10.363281 2.015625 -11.003906 2.015625 -11.703125 C 2.015625 -12.929688 2.484375 -13.945312 3.421875 -14.75 C 4.367188 -15.550781 5.554688 -15.953125 6.984375 -15.953125 C 8.398438 -15.953125 9.550781 -15.578125 10.4375 -14.828125 C 11.320312 -14.085938 11.765625 -13.144531 11.765625 -12 C 11.765625 -11.238281 11.554688 -10.539062 11.140625 -9.90625 C 10.734375 -9.28125 10.1875 -8.796875 9.5 -8.453125 C 10.5 -7.941406 11.238281 -7.34375 11.71875 -6.65625 C 12.207031 -5.976562 12.453125 -5.195312 12.453125 -4.3125 Z M 9.359375 -11.640625 C 9.359375 -12.347656 9.132812 -12.910156 8.6875 -13.328125 C 8.238281 -13.753906 7.628906 -13.96875 6.859375 -13.96875 C 6.148438 -13.96875 5.566406 -13.757812 5.109375 -13.34375 C 4.660156 -12.9375 4.4375 -12.425781 4.4375 -11.8125 C 4.4375 -11.226562 4.691406 -10.722656 5.203125 -10.296875 C 5.722656 -9.878906 6.523438 -9.507812 7.609375 -9.1875 C 8.140625 -9.445312 8.5625 -9.789062 8.875 -10.21875 C 9.195312 -10.65625 9.359375 -11.128906 9.359375 -11.640625 Z M 10.03125 -4.328125 C 10.03125 -4.984375 9.6875 -5.578125 9 -6.109375 C 8.3125 -6.648438 7.316406 -7.085938 6.015625 -7.421875 C 5.367188 -7.140625 4.847656 -6.734375 4.453125 -6.203125 C 4.054688 -5.679688 3.859375 -5.101562 3.859375 -4.46875 C 3.859375 -3.644531 4.128906 -2.984375 4.671875 -2.484375 C 5.210938 -1.992188 5.941406 -1.75 6.859375 -1.75 C 7.835938 -1.75 8.609375 -1.976562 9.171875 -2.4375 C 9.742188 -2.894531 10.03125 -3.523438 10.03125 -4.328125 Z M 10.03125 -4.328125 "/>
</g>
<g id="glyph-1-3">
<path d="M 4.25 -1.40625 C 4.25 -0.957031 4.085938 -0.578125 3.765625 -0.265625 C 3.453125 0.046875 3.078125 0.203125 2.640625 0.203125 C 2.203125 0.203125 1.820312 0.046875 1.5 -0.265625 C 1.1875 -0.578125 1.03125 -0.957031 1.03125 -1.40625 C 1.03125 -1.84375 1.1875 -2.21875 1.5 -2.53125 C 1.820312 -2.851562 2.203125 -3.015625 2.640625 -3.015625 C 3.078125 -3.015625 3.453125 -2.851562 3.765625 -2.53125 C 4.085938 -2.21875 4.25 -1.84375 4.25 -1.40625 Z M 4.25 -1.40625 "/>
</g>
<g id="glyph-1-4">
<path d="M 10.140625 -2.125 L 10.140625 0 L 1.421875 0 L 1.421875 -2.125 L 4.59375 -2.125 L 4.59375 -11.625 L 1.234375 -11.625 L 1.234375 -13.484375 C 1.523438 -13.484375 1.789062 -13.5 2.03125 -13.53125 C 2.28125 -13.5625 2.515625 -13.601562 2.734375 -13.65625 C 2.992188 -13.738281 3.226562 -13.835938 3.4375 -13.953125 C 3.65625 -14.078125 3.84375 -14.222656 4 -14.390625 C 4.207031 -14.609375 4.359375 -14.828125 4.453125 -15.046875 C 4.546875 -15.265625 4.59375 -15.488281 4.59375 -15.71875 L 6.96875 -15.71875 L 6.96875 -2.125 Z M 10.140625 -2.125 "/>
</g>
<g id="glyph-1-5">
<path d="M 10.15625 -10.671875 C 10.15625 -8.984375 9.796875 -7.695312 9.078125 -6.8125 C 8.367188 -5.925781 7.320312 -5.484375 5.9375 -5.484375 C 4.550781 -5.484375 3.5 -5.925781 2.78125 -6.8125 C 2.0625 -7.695312 1.703125 -8.984375 1.703125 -10.671875 C 1.703125 -12.359375 2.0625 -13.644531 2.78125 -14.53125 C 3.5 -15.425781 4.550781 -15.875 5.9375 -15.875 C 7.320312 -15.875 8.367188 -15.425781 9.078125 -14.53125 C 9.796875 -13.644531 10.15625 -12.359375 10.15625 -10.671875 Z M 17.171875 -15.71875 L 10.703125 0 L 8.390625 0 L 14.859375 -15.71875 Z M 7.96875 -10.671875 C 7.96875 -11.796875 7.800781 -12.625 7.46875 -13.15625 C 7.132812 -13.695312 6.625 -13.96875 5.9375 -13.96875 C 5.25 -13.96875 4.734375 -13.695312 4.390625 -13.15625 C 4.054688 -12.625 3.890625 -11.796875 3.890625 -10.671875 C 3.890625 -9.546875 4.054688 -8.710938 4.390625 -8.171875 C 4.734375 -7.640625 5.25 -7.375 5.9375 -7.375 C 6.625 -7.375 7.132812 -7.640625 7.46875 -8.171875 C 7.800781 -8.710938 7.96875 -9.546875 7.96875 -10.671875 Z M 23.96875 -4.96875 C 23.96875 -3.28125 23.609375 -1.988281 22.890625 -1.09375 C 22.179688 -0.207031 21.132812 0.234375 19.75 0.234375 C 18.351562 0.234375 17.296875 -0.207031 16.578125 -1.09375 C 15.867188 -1.988281 15.515625 -3.28125 15.515625 -4.96875 C 15.515625 -6.65625 15.867188 -7.941406 16.578125 -8.828125 C 17.296875 -9.710938 18.351562 -10.15625 19.75 -10.15625 C 21.132812 -10.15625 22.179688 -9.710938 22.890625 -8.828125 C 23.609375 -7.941406 23.96875 -6.65625 23.96875 -4.96875 Z M 21.78125 -4.96875 C 21.78125 -6.09375 21.613281 -6.921875 21.28125 -7.453125 C 20.945312 -7.992188 20.4375 -8.265625 19.75 -8.265625 C 19.0625 -8.265625 18.546875 -7.992188 18.203125 -7.453125 C 17.867188 -6.921875 17.703125 -6.09375 17.703125 -4.96875 C 17.703125 -3.84375 17.867188 -3.007812 18.203125 -2.46875 C 18.546875 -1.9375 19.0625 -1.671875 19.75 -1.671875 C 20.4375 -1.671875 20.945312 -1.9375 21.28125 -2.46875 C 21.613281 -3.007812 21.78125 -3.84375 21.78125 -4.96875 Z M 21.78125 -4.96875 "/>
</g>
<g id="glyph-2-0">
<path d="M 3.734375 -0.78125 L 3.734375 0 L 0.515625 0 L 0.515625 -0.78125 L 1.6875 -0.78125 L 1.6875 -4.28125 L 0.453125 -4.28125 L 0.453125 -4.953125 C 0.554688 -4.953125 0.65625 -4.957031 0.75 -4.96875 C 0.84375 -4.988281 0.929688 -5.007812 1.015625 -5.03125 C 1.109375 -5.050781 1.191406 -5.082031 1.265625 -5.125 C 1.347656 -5.175781 1.414062 -5.234375 1.46875 -5.296875 C 1.539062 -5.367188 1.59375 -5.445312 1.625 -5.53125 C 1.664062 -5.613281 1.6875 -5.695312 1.6875 -5.78125 L 2.5625 -5.78125 L 2.5625 -0.78125 Z M 3.734375 -0.78125 "/>
</g>
<g id="glyph-2-1">
<path d="M 4.703125 -2.890625 C 4.703125 -1.921875 4.523438 -1.179688 4.171875 -0.671875 C 3.816406 -0.171875 3.296875 0.078125 2.609375 0.078125 C 1.921875 0.078125 1.398438 -0.171875 1.046875 -0.671875 C 0.703125 -1.171875 0.53125 -1.910156 0.53125 -2.890625 C 0.53125 -3.859375 0.703125 -4.59375 1.046875 -5.09375 C 1.398438 -5.601562 1.921875 -5.859375 2.609375 -5.859375 C 3.296875 -5.859375 3.816406 -5.601562 4.171875 -5.09375 C 4.523438 -4.59375 4.703125 -3.859375 4.703125 -2.890625 Z M 3.8125 -2.890625 C 3.8125 -3.640625 3.710938 -4.1875 3.515625 -4.53125 C 3.316406 -4.882812 3.015625 -5.0625 2.609375 -5.0625 C 2.210938 -5.0625 1.914062 -4.882812 1.71875 -4.53125 C 1.519531 -4.1875 1.421875 -3.640625 1.421875 -2.890625 C 1.421875 -2.140625 1.519531 -1.585938 1.71875 -1.234375 C 1.914062 -0.890625 2.210938 -0.71875 2.609375 -0.71875 C 3.015625 -0.71875 3.316406 -0.890625 3.515625 -1.234375 C 3.710938 -1.585938 3.8125 -2.140625 3.8125 -2.890625 Z M 3.8125 -2.890625 "/>
</g>
<g id="glyph-2-2">
<path d="M 1.5625 -0.515625 C 1.5625 -0.347656 1.503906 -0.207031 1.390625 -0.09375 C 1.273438 0.0195312 1.132812 0.078125 0.96875 0.078125 C 0.8125 0.078125 0.671875 0.0195312 0.546875 -0.09375 C 0.429688 -0.207031 0.375 -0.347656 0.375 -0.515625 C 0.375 -0.679688 0.429688 -0.820312 0.546875 -0.9375 C 0.671875 -1.050781 0.8125 -1.109375 0.96875 -1.109375 C 1.132812 -1.109375 1.273438 -1.050781 1.390625 -0.9375 C 1.503906 -0.820312 1.5625 -0.679688 1.5625 -0.515625 Z M 1.5625 -0.515625 "/>
</g>
<g id="glyph-2-3">
<path d="M 0.5 -3.9375 C 0.5 -4.5 0.671875 -4.957031 1.015625 -5.3125 C 1.367188 -5.675781 1.828125 -5.859375 2.390625 -5.859375 C 3.023438 -5.859375 3.507812 -5.617188 3.84375 -5.140625 C 4.175781 -4.671875 4.34375 -3.984375 4.34375 -3.078125 C 4.34375 -2.066406 4.140625 -1.285156 3.734375 -0.734375 C 3.328125 -0.191406 2.742188 0.078125 1.984375 0.078125 C 1.785156 0.078125 1.582031 0.0546875 1.375 0.015625 C 1.175781 -0.015625 0.972656 -0.0703125 0.765625 -0.15625 L 0.765625 -1.015625 C 0.992188 -0.910156 1.203125 -0.832031 1.390625 -0.78125 C 1.585938 -0.726562 1.773438 -0.703125 1.953125 -0.703125 C 2.441406 -0.703125 2.816406 -0.859375 3.078125 -1.171875 C 3.335938 -1.484375 3.46875 -1.9375 3.46875 -2.53125 C 3.289062 -2.40625 3.097656 -2.3125 2.890625 -2.25 C 2.691406 -2.1875 2.488281 -2.15625 2.28125 -2.15625 C 1.726562 -2.15625 1.289062 -2.316406 0.96875 -2.640625 C 0.65625 -2.960938 0.5 -3.394531 0.5 -3.9375 Z M 1.375 -4.015625 C 1.375 -3.648438 1.46875 -3.367188 1.65625 -3.171875 C 1.851562 -2.972656 2.125 -2.875 2.46875 -2.875 C 2.675781 -2.875 2.863281 -2.90625 3.03125 -2.96875 C 3.207031 -3.03125 3.351562 -3.117188 3.46875 -3.234375 C 3.46875 -3.859375 3.375 -4.328125 3.1875 -4.640625 C 3.007812 -4.960938 2.738281 -5.125 2.375 -5.125 C 2.0625 -5.125 1.816406 -5.023438 1.640625 -4.828125 C 1.460938 -4.628906 1.375 -4.359375 1.375 -4.015625 Z M 1.375 -4.015625 "/>
</g>
<g id="glyph-2-4">
<path d="M 3.734375 -3.921875 C 3.734375 -3.304688 3.601562 -2.832031 3.34375 -2.5 C 3.082031 -2.175781 2.695312 -2.015625 2.1875 -2.015625 C 1.675781 -2.015625 1.285156 -2.175781 1.015625 -2.5 C 0.753906 -2.832031 0.625 -3.304688 0.625 -3.921875 C 0.625 -4.546875 0.753906 -5.019531 1.015625 -5.34375 C 1.285156 -5.664062 1.675781 -5.828125 2.1875 -5.828125 C 2.695312 -5.828125 3.082031 -5.664062 3.34375 -5.34375 C 3.601562 -5.019531 3.734375 -4.546875 3.734375 -3.921875 Z M 6.3125 -5.78125 L 3.9375 0 L 3.078125 0 L 5.46875 -5.78125 Z M 2.9375 -3.921875 C 2.9375 -4.335938 2.875 -4.644531 2.75 -4.84375 C 2.625 -5.039062 2.4375 -5.140625 2.1875 -5.140625 C 1.925781 -5.140625 1.734375 -5.039062 1.609375 -4.84375 C 1.492188 -4.644531 1.4375 -4.335938 1.4375 -3.921875 C 1.4375 -3.503906 1.492188 -3.195312 1.609375 -3 C 1.734375 -2.8125 1.925781 -2.71875 2.1875 -2.71875 C 2.4375 -2.71875 2.625 -2.8125 2.75 -3 C 2.875 -3.195312 2.9375 -3.503906 2.9375 -3.921875 Z M 8.8125 -1.828125 C 8.8125 -1.203125 8.679688 -0.726562 8.421875 -0.40625 C 8.160156 -0.0820312 7.773438 0.078125 7.265625 0.078125 C 6.753906 0.078125 6.363281 -0.0820312 6.09375 -0.40625 C 5.832031 -0.726562 5.703125 -1.203125 5.703125 -1.828125 C 5.703125 -2.453125 5.832031 -2.925781 6.09375 -3.25 C 6.363281 -3.570312 6.753906 -3.734375 7.265625 -3.734375 C 7.773438 -3.734375 8.160156 -3.570312 8.421875 -3.25 C 8.679688 -2.925781 8.8125 -2.453125 8.8125 -1.828125 Z M 8.015625 -1.828125 C 8.015625 -2.242188 7.953125 -2.546875 7.828125 -2.734375 C 7.703125 -2.929688 7.515625 -3.03125 7.265625 -3.03125 C 7.003906 -3.03125 6.8125 -2.929688 6.6875 -2.734375 C 6.570312 -2.546875 6.515625 -2.242188 6.515625 -1.828125 C 6.515625 -1.410156 6.570312 -1.101562 6.6875 -0.90625 C 6.8125 -0.707031 7.003906 -0.609375 7.265625 -0.609375 C 7.515625 -0.609375 7.703125 -0.707031 7.828125 -0.90625 C 7.953125 -1.101562 8.015625 -1.410156 8.015625 -1.828125 Z M 8.015625 -1.828125 "/>
</g>
<g id="glyph-3-0">
<path d="M 2.203125 -4.71875 L 2.203125 0 L 0.9375 0 L 0.9375 -7.9375 L 2.203125 -7.9375 L 5.140625 -3.171875 C 5.234375 -3.035156 5.328125 -2.863281 5.421875 -2.65625 C 5.523438 -2.457031 5.632812 -2.226562 5.75 -1.96875 L 5.796875 -1.96875 C 5.773438 -2.226562 5.757812 -2.460938 5.75 -2.671875 C 5.738281 -2.878906 5.734375 -3.0625 5.734375 -3.21875 L 5.734375 -7.9375 L 7 -7.9375 L 7 0 L 5.734375 0 L 2.78125 -4.765625 C 2.675781 -4.941406 2.570312 -5.128906 2.46875 -5.328125 C 2.375 -5.535156 2.273438 -5.75 2.171875 -5.96875 L 2.140625 -5.96875 C 2.160156 -5.75 2.175781 -5.535156 2.1875 -5.328125 C 2.195312 -5.117188 2.203125 -4.914062 2.203125 -4.71875 Z M 2.203125 -4.71875 "/>
</g>
<g id="glyph-3-1">
<path d="M 5.65625 -2.828125 C 5.65625 -1.953125 5.421875 -1.242188 4.953125 -0.703125 C 4.484375 -0.160156 3.859375 0.109375 3.078125 0.109375 C 2.304688 0.109375 1.6875 -0.160156 1.21875 -0.703125 C 0.75 -1.242188 0.515625 -1.953125 0.515625 -2.828125 C 0.515625 -3.710938 0.75 -4.425781 1.21875 -4.96875 C 1.6875 -5.507812 2.304688 -5.78125 3.078125 -5.78125 C 3.859375 -5.78125 4.484375 -5.507812 4.953125 -4.96875 C 5.421875 -4.425781 5.65625 -3.710938 5.65625 -2.828125 Z M 4.46875 -2.828125 C 4.46875 -3.410156 4.34375 -3.875 4.09375 -4.21875 C 3.84375 -4.570312 3.503906 -4.75 3.078125 -4.75 C 2.640625 -4.75 2.300781 -4.578125 2.0625 -4.234375 C 1.820312 -3.890625 1.703125 -3.421875 1.703125 -2.828125 C 1.703125 -2.242188 1.820312 -1.78125 2.0625 -1.4375 C 2.300781 -1.09375 2.640625 -0.921875 3.078125 -0.921875 C 3.503906 -0.921875 3.84375 -1.09375 4.09375 -1.4375 C 4.34375 -1.78125 4.46875 -2.242188 4.46875 -2.828125 Z M 4.46875 -2.828125 "/>
</g>
<g id="glyph-3-2">
<path d="M 2.109375 -4.1875 L 2.109375 0 L 0.9375 0 L 0.9375 -5.671875 L 2.109375 -5.671875 L 2.109375 -5.25 L 2.140625 -5.21875 C 2.398438 -5.40625 2.671875 -5.546875 2.953125 -5.640625 C 3.234375 -5.734375 3.53125 -5.78125 3.84375 -5.78125 C 4.382812 -5.78125 4.796875 -5.628906 5.078125 -5.328125 C 5.367188 -5.023438 5.515625 -4.570312 5.515625 -3.96875 L 5.515625 0 L 4.34375 0 L 4.34375 -3.59375 C 4.34375 -4.007812 4.28125 -4.304688 4.15625 -4.484375 C 4.03125 -4.660156 3.820312 -4.75 3.53125 -4.75 C 3.257812 -4.75 2.984375 -4.691406 2.703125 -4.578125 C 2.421875 -4.460938 2.222656 -4.332031 2.109375 -4.1875 Z M 2.109375 -4.1875 "/>
</g>
<g id="glyph-3-3">
<path d="M 7.65625 -3.96875 C 7.65625 -2.757812 7.328125 -1.773438 6.671875 -1.015625 C 6.015625 -0.265625 5.148438 0.109375 4.078125 0.109375 C 3.003906 0.109375 2.140625 -0.265625 1.484375 -1.015625 C 0.835938 -1.773438 0.515625 -2.757812 0.515625 -3.96875 C 0.515625 -5.175781 0.835938 -6.15625 1.484375 -6.90625 C 2.140625 -7.664062 3.003906 -8.046875 4.078125 -8.046875 C 5.148438 -8.046875 6.015625 -7.664062 6.671875 -6.90625 C 7.328125 -6.15625 7.65625 -5.175781 7.65625 -3.96875 Z M 6.390625 -3.96875 C 6.390625 -4.84375 6.175781 -5.550781 5.75 -6.09375 C 5.332031 -6.644531 4.773438 -6.921875 4.078125 -6.921875 C 3.378906 -6.921875 2.820312 -6.644531 2.40625 -6.09375 C 1.988281 -5.550781 1.78125 -4.84375 1.78125 -3.96875 C 1.78125 -3.09375 1.988281 -2.378906 2.40625 -1.828125 C 2.820312 -1.285156 3.378906 -1.015625 4.078125 -1.015625 C 4.773438 -1.015625 5.332031 -1.285156 5.75 -1.828125 C 6.175781 -2.378906 6.390625 -3.09375 6.390625 -3.96875 Z M 6.390625 -3.96875 "/>
</g>
<g id="glyph-3-4">
<path d="M 4.3125 -0.453125 C 4.050781 -0.265625 3.773438 -0.125 3.484375 -0.03125 C 3.203125 0.0625 2.910156 0.109375 2.609375 0.109375 C 2.066406 0.109375 1.648438 -0.0390625 1.359375 -0.34375 C 1.078125 -0.644531 0.9375 -1.097656 0.9375 -1.703125 L 0.9375 -5.671875 L 2.109375 -5.671875 L 2.109375 -2.078125 C 2.109375 -1.660156 2.171875 -1.363281 2.296875 -1.1875 C 2.421875 -1.007812 2.628906 -0.921875 2.921875 -0.921875 C 3.179688 -0.921875 3.457031 -0.976562 3.75 -1.09375 C 4.039062 -1.207031 4.238281 -1.335938 4.34375 -1.484375 L 4.34375 -5.671875 L 5.515625 -5.671875 L 5.515625 0 L 4.34375 0 L 4.34375 -0.421875 Z M 4.3125 -0.453125 "/>
</g>
<g id="glyph-3-5">
<path d="M 2.328125 -7.8125 C 2.328125 -7.582031 2.25 -7.390625 2.09375 -7.234375 C 1.9375 -7.078125 1.742188 -7 1.515625 -7 C 1.285156 -7 1.09375 -7.078125 0.9375 -7.234375 C 0.78125 -7.390625 0.703125 -7.582031 0.703125 -7.8125 C 0.703125 -8.039062 0.78125 -8.234375 0.9375 -8.390625 C 1.09375 -8.546875 1.285156 -8.625 1.515625 -8.625 C 1.742188 -8.625 1.9375 -8.546875 2.09375 -8.390625 C 2.25 -8.234375 2.328125 -8.039062 2.328125 -7.8125 Z M 2.109375 -5.671875 L 2.109375 0 L 0.9375 0 L 0.9375 -5.671875 Z M 2.109375 -5.671875 "/>
</g>
<g id="glyph-3-6">
<path d="M 2.203125 -2.609375 L 2.203125 0 L 0.9375 0 L 0.9375 -7.9375 L 2.953125 -7.9375 C 3.941406 -7.9375 4.679688 -7.71875 5.171875 -7.28125 C 5.671875 -6.851562 5.921875 -6.207031 5.921875 -5.34375 C 5.921875 -4.457031 5.648438 -3.78125 5.109375 -3.3125 C 4.578125 -2.84375 3.820312 -2.609375 2.84375 -2.609375 Z M 2.953125 -6.8125 L 2.203125 -6.8125 L 2.203125 -3.734375 L 2.84375 -3.734375 C 3.46875 -3.734375 3.925781 -3.859375 4.21875 -4.109375 C 4.507812 -4.367188 4.65625 -4.757812 4.65625 -5.28125 C 4.65625 -5.78125 4.507812 -6.160156 4.21875 -6.421875 C 3.9375 -6.679688 3.515625 -6.8125 2.953125 -6.8125 Z M 2.953125 -6.8125 "/>
</g>
<g id="glyph-3-7">
<path d="M 2.109375 -3.75 L 2.109375 0 L 0.9375 0 L 0.9375 -5.671875 L 2.109375 -5.671875 L 2.109375 -5 L 2.140625 -4.96875 C 2.335938 -5.226562 2.570312 -5.425781 2.84375 -5.5625 C 3.113281 -5.707031 3.414062 -5.78125 3.75 -5.78125 C 3.8125 -5.78125 3.875 -5.78125 3.9375 -5.78125 C 4 -5.78125 4.054688 -5.773438 4.109375 -5.765625 L 4.109375 -4.5 C 4.078125 -4.5 4.039062 -4.5 4 -4.5 C 3.96875 -4.5 3.925781 -4.5 3.875 -4.5 C 3.445312 -4.5 3.078125 -4.429688 2.765625 -4.296875 C 2.460938 -4.160156 2.242188 -3.976562 2.109375 -3.75 Z M 2.109375 -3.75 "/>
</g>
<g id="glyph-3-8">
<path d="M 4.96875 -8.546875 L 2.84375 -6.71875 L 2.25 -7.34375 L 3.953125 -9.390625 Z M 5.0625 -0.203125 C 4.769531 -0.0976562 4.484375 -0.0195312 4.203125 0.03125 C 3.921875 0.0820312 3.644531 0.109375 3.375 0.109375 C 2.476562 0.109375 1.773438 -0.144531 1.265625 -0.65625 C 0.765625 -1.164062 0.515625 -1.878906 0.515625 -2.796875 C 0.515625 -3.703125 0.75 -4.425781 1.21875 -4.96875 C 1.695312 -5.507812 2.335938 -5.78125 3.140625 -5.78125 C 3.828125 -5.78125 4.359375 -5.570312 4.734375 -5.15625 C 5.109375 -4.75 5.296875 -4.175781 5.296875 -3.4375 C 5.296875 -3.269531 5.285156 -3.097656 5.265625 -2.921875 C 5.242188 -2.742188 5.210938 -2.566406 5.171875 -2.390625 L 1.65625 -2.390625 C 1.726562 -1.890625 1.90625 -1.519531 2.1875 -1.28125 C 2.46875 -1.039062 2.863281 -0.921875 3.375 -0.921875 C 3.632812 -0.921875 3.90625 -0.945312 4.1875 -1 C 4.46875 -1.0625 4.757812 -1.148438 5.0625 -1.265625 Z M 4.234375 -3.65625 C 4.242188 -4.019531 4.140625 -4.3125 3.921875 -4.53125 C 3.710938 -4.75 3.421875 -4.859375 3.046875 -4.859375 C 2.640625 -4.859375 2.3125 -4.722656 2.0625 -4.453125 C 1.820312 -4.179688 1.6875 -3.796875 1.65625 -3.296875 L 4.203125 -3.296875 C 4.210938 -3.347656 4.21875 -3.40625 4.21875 -3.46875 C 4.226562 -3.539062 4.234375 -3.601562 4.234375 -3.65625 Z M 4.234375 -3.65625 "/>
</g>
<g id="glyph-3-9">
<path d="M 2.109375 -0.109375 L 2.109375 2.328125 L 0.9375 2.328125 L 0.9375 -5.671875 L 2.109375 -5.671875 L 2.109375 -5.265625 L 2.140625 -5.234375 C 2.316406 -5.410156 2.523438 -5.546875 2.765625 -5.640625 C 3.003906 -5.734375 3.257812 -5.78125 3.53125 -5.78125 C 4.195312 -5.78125 4.734375 -5.507812 5.140625 -4.96875 C 5.546875 -4.425781 5.75 -3.738281 5.75 -2.90625 C 5.75 -2.007812 5.515625 -1.28125 5.046875 -0.71875 C 4.578125 -0.164062 3.960938 0.109375 3.203125 0.109375 C 2.972656 0.109375 2.769531 0.0859375 2.59375 0.046875 C 2.414062 0.00390625 2.265625 -0.0546875 2.140625 -0.140625 Z M 3.21875 -4.75 C 2.96875 -4.75 2.738281 -4.691406 2.53125 -4.578125 C 2.332031 -4.460938 2.191406 -4.320312 2.109375 -4.15625 L 2.109375 -1.203125 C 2.210938 -1.117188 2.34375 -1.050781 2.5 -1 C 2.664062 -0.957031 2.84375 -0.9375 3.03125 -0.9375 C 3.519531 -0.9375 3.894531 -1.097656 4.15625 -1.421875 C 4.425781 -1.753906 4.5625 -2.226562 4.5625 -2.84375 C 4.5625 -3.425781 4.441406 -3.890625 4.203125 -4.234375 C 3.960938 -4.578125 3.632812 -4.75 3.21875 -4.75 Z M 3.21875 -4.75 "/>
</g>
<g id="glyph-3-10">
<path d="M 5.0625 -0.203125 C 4.769531 -0.0976562 4.484375 -0.0195312 4.203125 0.03125 C 3.921875 0.0820312 3.644531 0.109375 3.375 0.109375 C 2.476562 0.109375 1.773438 -0.144531 1.265625 -0.65625 C 0.765625 -1.164062 0.515625 -1.878906 0.515625 -2.796875 C 0.515625 -3.703125 0.75 -4.425781 1.21875 -4.96875 C 1.695312 -5.507812 2.335938 -5.78125 3.140625 -5.78125 C 3.828125 -5.78125 4.359375 -5.570312 4.734375 -5.15625 C 5.109375 -4.75 5.296875 -4.175781 5.296875 -3.4375 C 5.296875 -3.269531 5.285156 -3.097656 5.265625 -2.921875 C 5.242188 -2.742188 5.210938 -2.566406 5.171875 -2.390625 L 1.65625 -2.390625 C 1.726562 -1.890625 1.90625 -1.519531 2.1875 -1.28125 C 2.46875 -1.039062 2.863281 -0.921875 3.375 -0.921875 C 3.632812 -0.921875 3.90625 -0.945312 4.1875 -1 C 4.46875 -1.0625 4.757812 -1.148438 5.0625 -1.265625 Z M 4.234375 -3.65625 C 4.242188 -4.019531 4.140625 -4.3125 3.921875 -4.53125 C 3.710938 -4.75 3.421875 -4.859375 3.046875 -4.859375 C 2.640625 -4.859375 2.3125 -4.722656 2.0625 -4.453125 C 1.820312 -4.179688 1.6875 -3.796875 1.65625 -3.296875 L 4.203125 -3.296875 C 4.210938 -3.347656 4.21875 -3.40625 4.21875 -3.46875 C 4.226562 -3.539062 4.234375 -3.601562 4.234375 -3.65625 Z M 4.234375 -3.65625 "/>
</g>
<g id="glyph-3-11">
<path d="M 4.625 -0.265625 C 4.4375 -0.148438 4.203125 -0.0625 3.921875 0 C 3.640625 0.0703125 3.359375 0.109375 3.078125 0.109375 C 2.285156 0.109375 1.660156 -0.15625 1.203125 -0.6875 C 0.742188 -1.21875 0.515625 -1.929688 0.515625 -2.828125 C 0.515625 -3.722656 0.742188 -4.4375 1.203125 -4.96875 C 1.671875 -5.507812 2.300781 -5.78125 3.09375 -5.78125 C 3.375 -5.78125 3.648438 -5.75 3.921875 -5.6875 C 4.203125 -5.625 4.425781 -5.539062 4.59375 -5.4375 L 4.59375 -4.3125 C 4.46875 -4.4375 4.269531 -4.535156 4 -4.609375 C 3.726562 -4.691406 3.457031 -4.734375 3.1875 -4.734375 C 2.675781 -4.734375 2.300781 -4.578125 2.0625 -4.265625 C 1.820312 -3.960938 1.703125 -3.5 1.703125 -2.875 C 1.703125 -2.226562 1.820312 -1.742188 2.0625 -1.421875 C 2.300781 -1.097656 2.664062 -0.9375 3.15625 -0.9375 C 3.414062 -0.9375 3.6875 -0.976562 3.96875 -1.0625 C 4.25 -1.144531 4.46875 -1.242188 4.625 -1.359375 Z M 4.625 -0.265625 "/>
</g>
<g id="glyph-3-12">
<path d="M 4.09375 -0.078125 C 3.9375 -0.015625 3.765625 0.03125 3.578125 0.0625 C 3.390625 0.09375 3.195312 0.109375 3 0.109375 C 2.40625 0.109375 1.960938 -0.0546875 1.671875 -0.390625 C 1.378906 -0.722656 1.234375 -1.222656 1.234375 -1.890625 L 1.234375 -4.671875 L 0.3125 -4.671875 L 0.3125 -5.671875 L 1.234375 -5.671875 L 1.234375 -7.171875 L 2.390625 -7.171875 L 2.390625 -5.671875 L 3.96875 -5.671875 L 3.96875 -4.671875 L 2.390625 -4.671875 L 2.390625 -2.53125 C 2.390625 -1.914062 2.445312 -1.492188 2.5625 -1.265625 C 2.6875 -1.046875 2.914062 -0.9375 3.25 -0.9375 C 3.382812 -0.9375 3.523438 -0.945312 3.671875 -0.96875 C 3.828125 -1 3.96875 -1.035156 4.09375 -1.078125 Z M 4.09375 -0.078125 "/>
</g>
<g id="glyph-3-13">
<path d="M 4 -0.53125 C 3.820312 -0.332031 3.585938 -0.175781 3.296875 -0.0625 C 3.015625 0.0507812 2.710938 0.109375 2.390625 0.109375 C 1.847656 0.109375 1.414062 -0.046875 1.09375 -0.359375 C 0.78125 -0.679688 0.625 -1.101562 0.625 -1.625 C 0.625 -2.207031 0.835938 -2.65625 1.265625 -2.96875 C 1.691406 -3.28125 2.300781 -3.4375 3.09375 -3.4375 L 3.890625 -3.4375 C 3.898438 -3.457031 3.90625 -3.484375 3.90625 -3.515625 C 3.90625 -3.546875 3.90625 -3.59375 3.90625 -3.65625 C 3.90625 -4.0625 3.816406 -4.34375 3.640625 -4.5 C 3.460938 -4.664062 3.15625 -4.75 2.71875 -4.75 C 2.4375 -4.75 2.160156 -4.71875 1.890625 -4.65625 C 1.617188 -4.59375 1.335938 -4.488281 1.046875 -4.34375 L 1.046875 -5.421875 C 1.171875 -5.472656 1.3125 -5.519531 1.46875 -5.5625 C 1.625 -5.613281 1.796875 -5.65625 1.984375 -5.6875 C 2.140625 -5.726562 2.300781 -5.753906 2.46875 -5.765625 C 2.632812 -5.773438 2.796875 -5.78125 2.953125 -5.78125 C 3.703125 -5.78125 4.238281 -5.597656 4.5625 -5.234375 C 4.894531 -4.878906 5.0625 -4.300781 5.0625 -3.5 L 5.0625 0 L 4.21875 0 L 4.03125 -0.515625 Z M 3.21875 -2.578125 C 2.738281 -2.578125 2.378906 -2.507812 2.140625 -2.375 C 1.910156 -2.238281 1.796875 -2.015625 1.796875 -1.703125 C 1.796875 -1.429688 1.875 -1.222656 2.03125 -1.078125 C 2.1875 -0.929688 2.40625 -0.859375 2.6875 -0.859375 C 2.957031 -0.859375 3.21875 -0.914062 3.46875 -1.03125 C 3.71875 -1.144531 3.890625 -1.285156 3.984375 -1.453125 L 3.984375 -2.578125 Z M 3.21875 -2.578125 "/>
</g>
<g id="glyph-3-14">
<path d="M 2.109375 -8.234375 L 2.109375 0 L 0.9375 0 L 0.9375 -8.234375 Z M 2.109375 -8.234375 "/>
</g>
<g id="glyph-3-15">
<path d="M 2.203125 -3.03125 L 2.203125 0 L 0.9375 0 L 0.9375 -7.9375 L 2.953125 -7.9375 C 3.921875 -7.9375 4.65625 -7.738281 5.15625 -7.34375 C 5.664062 -6.945312 5.921875 -6.363281 5.921875 -5.59375 C 5.921875 -5.0625 5.804688 -4.609375 5.578125 -4.234375 C 5.347656 -3.859375 5.015625 -3.570312 4.578125 -3.375 L 6.515625 0 L 5.046875 0 L 3.40625 -3.09375 C 3.289062 -3.070312 3.175781 -3.054688 3.0625 -3.046875 C 2.945312 -3.035156 2.828125 -3.03125 2.703125 -3.03125 Z M 2.953125 -6.8125 L 2.203125 -6.8125 L 2.203125 -4.15625 L 2.84375 -4.15625 C 3.445312 -4.15625 3.898438 -4.265625 4.203125 -4.484375 C 4.503906 -4.703125 4.65625 -5.035156 4.65625 -5.484375 C 4.65625 -5.910156 4.507812 -6.238281 4.21875 -6.46875 C 3.925781 -6.695312 3.503906 -6.8125 2.953125 -6.8125 Z M 2.953125 -6.8125 "/>
</g>
<g id="glyph-4-0">
<path d="M 3.859375 -2.90625 L 3.859375 0 L 1.046875 0 L 1.046875 -9.921875 L 4.5625 -9.921875 C 5.875 -9.921875 6.878906 -9.628906 7.578125 -9.046875 C 8.285156 -8.460938 8.640625 -7.613281 8.640625 -6.5 C 8.640625 -5.34375 8.269531 -4.453125 7.53125 -3.828125 C 6.789062 -3.210938 5.753906 -2.90625 4.421875 -2.90625 Z M 4.5625 -7.703125 L 3.859375 -7.703125 L 3.859375 -5.109375 L 4.421875 -5.109375 C 4.867188 -5.109375 5.210938 -5.222656 5.453125 -5.453125 C 5.703125 -5.679688 5.828125 -6.015625 5.828125 -6.453125 C 5.828125 -6.867188 5.71875 -7.179688 5.5 -7.390625 C 5.28125 -7.597656 4.96875 -7.703125 4.5625 -7.703125 Z M 4.5625 -7.703125 "/>
</g>
<g id="glyph-4-1">
<path d="M 7.78125 -3.53125 C 7.78125 -2.394531 7.457031 -1.5 6.8125 -0.84375 C 6.164062 -0.195312 5.273438 0.125 4.140625 0.125 C 3.015625 0.125 2.128906 -0.195312 1.484375 -0.84375 C 0.835938 -1.5 0.515625 -2.394531 0.515625 -3.53125 C 0.515625 -4.664062 0.835938 -5.5625 1.484375 -6.21875 C 2.128906 -6.882812 3.015625 -7.21875 4.140625 -7.21875 C 5.273438 -7.21875 6.164062 -6.882812 6.8125 -6.21875 C 7.457031 -5.5625 7.78125 -4.664062 7.78125 -3.53125 Z M 5.171875 -3.53125 C 5.171875 -4.101562 5.085938 -4.53125 4.921875 -4.8125 C 4.753906 -5.09375 4.492188 -5.234375 4.140625 -5.234375 C 3.804688 -5.234375 3.554688 -5.09375 3.390625 -4.8125 C 3.222656 -4.53125 3.140625 -4.101562 3.140625 -3.53125 C 3.140625 -2.957031 3.222656 -2.53125 3.390625 -2.25 C 3.554688 -1.976562 3.804688 -1.84375 4.140625 -1.84375 C 4.492188 -1.84375 4.753906 -1.976562 4.921875 -2.25 C 5.085938 -2.53125 5.171875 -2.957031 5.171875 -3.53125 Z M 5.171875 -3.53125 "/>
</g>
<g id="glyph-4-2">
<path d="M 6.296875 -2.203125 C 6.296875 -1.503906 6.019531 -0.9375 5.46875 -0.5 C 4.914062 -0.0625 4.210938 0.15625 3.359375 0.15625 C 2.898438 0.15625 2.445312 0.117188 2 0.046875 C 1.550781 -0.0234375 1.148438 -0.128906 0.796875 -0.265625 L 0.796875 -2.359375 C 1.117188 -2.171875 1.488281 -2.019531 1.90625 -1.90625 C 2.320312 -1.789062 2.707031 -1.734375 3.0625 -1.734375 C 3.320312 -1.734375 3.515625 -1.757812 3.640625 -1.8125 C 3.765625 -1.875 3.828125 -1.972656 3.828125 -2.109375 C 3.828125 -2.210938 3.769531 -2.300781 3.65625 -2.375 C 3.550781 -2.445312 3.304688 -2.535156 2.921875 -2.640625 C 2.472656 -2.765625 2.132812 -2.878906 1.90625 -2.984375 C 1.6875 -3.085938 1.5 -3.210938 1.34375 -3.359375 C 1.132812 -3.554688 0.976562 -3.785156 0.875 -4.046875 C 0.769531 -4.316406 0.71875 -4.617188 0.71875 -4.953125 C 0.71875 -5.691406 0.972656 -6.253906 1.484375 -6.640625 C 2.003906 -7.023438 2.757812 -7.21875 3.75 -7.21875 C 4.125 -7.21875 4.488281 -7.191406 4.84375 -7.140625 C 5.207031 -7.085938 5.578125 -7.003906 5.953125 -6.890625 L 5.953125 -4.875 C 5.722656 -5 5.40625 -5.109375 5 -5.203125 C 4.59375 -5.296875 4.207031 -5.34375 3.84375 -5.34375 C 3.601562 -5.34375 3.429688 -5.316406 3.328125 -5.265625 C 3.234375 -5.210938 3.1875 -5.117188 3.1875 -4.984375 C 3.1875 -4.890625 3.238281 -4.804688 3.34375 -4.734375 C 3.445312 -4.671875 3.6875 -4.585938 4.0625 -4.484375 C 4.507812 -4.359375 4.84375 -4.242188 5.0625 -4.140625 C 5.289062 -4.035156 5.484375 -3.910156 5.640625 -3.765625 C 5.859375 -3.578125 6.019531 -3.351562 6.125 -3.09375 C 6.238281 -2.832031 6.296875 -2.535156 6.296875 -2.203125 Z M 6.296875 -2.203125 "/>
</g>
<g id="glyph-4-3">
<path d="M 3.90625 -9.671875 C 3.90625 -9.234375 3.753906 -8.867188 3.453125 -8.578125 C 3.148438 -8.296875 2.785156 -8.15625 2.359375 -8.15625 C 1.898438 -8.15625 1.519531 -8.296875 1.21875 -8.578125 C 0.925781 -8.867188 0.78125 -9.234375 0.78125 -9.671875 C 0.78125 -10.109375 0.925781 -10.46875 1.21875 -10.75 C 1.519531 -11.039062 1.898438 -11.1875 2.359375 -11.1875 C 2.796875 -11.1875 3.160156 -11.039062 3.453125 -10.75 C 3.753906 -10.46875 3.90625 -10.109375 3.90625 -9.671875 Z M 3.640625 -7.078125 L 3.640625 0 L 1.046875 0 L 1.046875 -7.078125 Z M 3.640625 -7.078125 "/>
</g>
<g id="glyph-4-4">
<path d="M 6.109375 -0.171875 C 5.828125 -0.0664062 5.53125 0.00390625 5.21875 0.046875 C 4.90625 0.0976562 4.582031 0.125 4.25 0.125 C 3.363281 0.125 2.664062 -0.101562 2.15625 -0.5625 C 1.65625 -1.03125 1.40625 -1.671875 1.40625 -2.484375 L 1.40625 -5.140625 L 0.265625 -5.140625 L 0.265625 -7.078125 L 1.40625 -7.078125 L 1.40625 -8.953125 L 4 -8.953125 L 4 -7.078125 L 5.984375 -7.078125 L 5.984375 -5.140625 L 4 -5.140625 L 4 -3.3125 C 4 -2.84375 4.070312 -2.523438 4.21875 -2.359375 C 4.363281 -2.191406 4.609375 -2.109375 4.953125 -2.109375 C 5.097656 -2.109375 5.269531 -2.125 5.46875 -2.15625 C 5.664062 -2.1875 5.878906 -2.226562 6.109375 -2.28125 Z M 6.109375 -0.171875 "/>
</g>
<g id="glyph-4-5">
<path d="M 3.640625 -4.90625 L 3.640625 0 L 1.046875 0 L 1.046875 -7.078125 L 3.640625 -7.078125 L 3.640625 -6.625 L 3.6875 -6.59375 C 3.957031 -6.800781 4.253906 -6.957031 4.578125 -7.0625 C 4.898438 -7.175781 5.242188 -7.234375 5.609375 -7.234375 C 6.347656 -7.234375 6.910156 -7.023438 7.296875 -6.609375 C 7.679688 -6.191406 7.875 -5.578125 7.875 -4.765625 L 7.875 0 L 5.28125 0 L 5.28125 -4.234375 C 5.28125 -4.597656 5.234375 -4.851562 5.140625 -5 C 5.054688 -5.144531 4.898438 -5.21875 4.671875 -5.21875 C 4.484375 -5.21875 4.296875 -5.1875 4.109375 -5.125 C 3.921875 -5.070312 3.765625 -5 3.640625 -4.90625 Z M 3.640625 -4.90625 "/>
</g>
<g id="glyph-4-6">
<path d="M 4.984375 -0.5625 C 4.785156 -0.332031 4.535156 -0.15625 4.234375 -0.03125 C 3.929688 0.0820312 3.59375 0.140625 3.21875 0.140625 C 2.40625 0.140625 1.75 -0.1875 1.25 -0.84375 C 0.757812 -1.507812 0.515625 -2.394531 0.515625 -3.5 C 0.515625 -4.59375 0.773438 -5.488281 1.296875 -6.1875 C 1.828125 -6.882812 2.523438 -7.234375 3.390625 -7.234375 C 3.648438 -7.234375 3.914062 -7.195312 4.1875 -7.125 C 4.46875 -7.0625 4.722656 -6.96875 4.953125 -6.84375 L 5.015625 -6.890625 L 5.015625 -10.28125 L 7.625 -10.28125 L 7.625 0 L 5.015625 0 L 5.015625 -0.53125 Z M 5.015625 -5.046875 C 4.929688 -5.109375 4.828125 -5.148438 4.703125 -5.171875 C 4.578125 -5.203125 4.445312 -5.21875 4.3125 -5.21875 C 3.9375 -5.21875 3.644531 -5.066406 3.4375 -4.765625 C 3.226562 -4.472656 3.125 -4.054688 3.125 -3.515625 C 3.125 -3.003906 3.222656 -2.59375 3.421875 -2.28125 C 3.617188 -1.976562 3.898438 -1.828125 4.265625 -1.828125 C 4.429688 -1.828125 4.578125 -1.859375 4.703125 -1.921875 C 4.835938 -1.992188 4.941406 -2.085938 5.015625 -2.203125 Z M 5.015625 -5.046875 "/>
</g>
<g id="glyph-4-7">
<path d="M 6.78125 -0.265625 C 6.394531 -0.128906 6 -0.03125 5.59375 0.03125 C 5.1875 0.101562 4.769531 0.140625 4.34375 0.140625 C 3.175781 0.140625 2.242188 -0.195312 1.546875 -0.875 C 0.859375 -1.550781 0.515625 -2.472656 0.515625 -3.640625 C 0.515625 -4.722656 0.832031 -5.59375 1.46875 -6.25 C 2.113281 -6.90625 2.976562 -7.234375 4.0625 -7.234375 C 5.019531 -7.234375 5.757812 -6.972656 6.28125 -6.453125 C 6.8125 -5.941406 7.078125 -5.222656 7.078125 -4.296875 C 7.078125 -4.046875 7.0625 -3.800781 7.03125 -3.5625 C 7 -3.320312 6.953125 -3.101562 6.890625 -2.90625 L 2.984375 -2.90625 C 3.054688 -2.519531 3.21875 -2.238281 3.46875 -2.0625 C 3.726562 -1.894531 4.109375 -1.8125 4.609375 -1.8125 C 4.910156 -1.8125 5.210938 -1.835938 5.515625 -1.890625 C 5.816406 -1.941406 6.238281 -2.054688 6.78125 -2.234375 Z M 4.96875 -4.671875 C 4.96875 -4.972656 4.878906 -5.207031 4.703125 -5.375 C 4.535156 -5.539062 4.300781 -5.625 4 -5.625 C 3.664062 -5.625 3.40625 -5.515625 3.21875 -5.296875 C 3.03125 -5.085938 2.929688 -4.773438 2.921875 -4.359375 L 4.9375 -4.359375 C 4.945312 -4.367188 4.953125 -4.394531 4.953125 -4.4375 C 4.960938 -4.476562 4.96875 -4.554688 4.96875 -4.671875 Z M 4.96875 -4.671875 "/>
</g>
<g id="glyph-4-8">
<path d="M 3.640625 -10.28125 L 3.640625 0 L 1.046875 0 L 1.046875 -10.28125 Z M 3.640625 -10.28125 "/>
</g>
<g id="glyph-4-9">
<path d="M 3.53125 -9.796875 L 2.109375 -5.765625 L 0.390625 -6.25 L 1.1875 -10.21875 Z M 3.53125 -9.796875 "/>
</g>
<g id="glyph-4-10">
<path d="M 3.640625 -4.90625 L 3.640625 0 L 1.046875 0 L 1.046875 -7.078125 L 3.640625 -7.078125 L 3.640625 -6.5 L 3.6875 -6.46875 C 4.019531 -6.726562 4.347656 -6.921875 4.671875 -7.046875 C 4.992188 -7.171875 5.34375 -7.234375 5.71875 -7.234375 C 6.09375 -7.234375 6.414062 -7.164062 6.6875 -7.03125 C 6.96875 -6.90625 7.195312 -6.710938 7.375 -6.453125 C 7.71875 -6.710938 8.082031 -6.90625 8.46875 -7.03125 C 8.863281 -7.164062 9.28125 -7.234375 9.71875 -7.234375 C 10.4375 -7.234375 10.972656 -7.03125 11.328125 -6.625 C 11.691406 -6.21875 11.875 -5.625 11.875 -4.84375 L 11.875 0 L 9.28125 0 L 9.28125 -4.328125 C 9.28125 -4.660156 9.238281 -4.890625 9.15625 -5.015625 C 9.070312 -5.148438 8.925781 -5.21875 8.71875 -5.21875 C 8.570312 -5.21875 8.421875 -5.191406 8.265625 -5.140625 C 8.109375 -5.085938 7.941406 -5.007812 7.765625 -4.90625 L 7.765625 0 L 5.15625 0 L 5.15625 -4.328125 C 5.15625 -4.660156 5.113281 -4.890625 5.03125 -5.015625 C 4.945312 -5.148438 4.800781 -5.21875 4.59375 -5.21875 C 4.425781 -5.21875 4.253906 -5.1875 4.078125 -5.125 C 3.910156 -5.070312 3.765625 -5 3.640625 -4.90625 Z M 3.640625 -4.90625 "/>
</g>
<g id="glyph-4-11">
<path d="M 3.640625 -0.1875 L 3.640625 2.90625 L 1.046875 2.90625 L 1.046875 -7.078125 L 3.640625 -7.078125 L 3.640625 -6.5625 L 3.671875 -6.53125 C 3.878906 -6.757812 4.132812 -6.929688 4.4375 -7.046875 C 4.75 -7.171875 5.085938 -7.234375 5.453125 -7.234375 C 6.253906 -7.234375 6.898438 -6.898438 7.390625 -6.234375 C 7.890625 -5.566406 8.140625 -4.707031 8.140625 -3.65625 C 8.140625 -2.519531 7.875 -1.601562 7.34375 -0.90625 C 6.820312 -0.207031 6.117188 0.140625 5.234375 0.140625 C 4.984375 0.140625 4.722656 0.101562 4.453125 0.03125 C 4.179688 -0.03125 3.929688 -0.117188 3.703125 -0.234375 Z M 4.390625 -5.25 C 4.222656 -5.25 4.070312 -5.21875 3.9375 -5.15625 C 3.8125 -5.09375 3.710938 -5 3.640625 -4.875 L 3.640625 -2.046875 C 3.722656 -1.984375 3.828125 -1.9375 3.953125 -1.90625 C 4.078125 -1.875 4.207031 -1.859375 4.34375 -1.859375 C 4.71875 -1.859375 5.007812 -2.003906 5.21875 -2.296875 C 5.425781 -2.597656 5.53125 -3.019531 5.53125 -3.5625 C 5.53125 -4.082031 5.429688 -4.492188 5.234375 -4.796875 C 5.035156 -5.097656 4.753906 -5.25 4.390625 -5.25 Z M 4.390625 -5.25 "/>
</g>
<g id="glyph-4-12">
<path d="M 4.703125 -0.6875 C 4.390625 -0.375 4.085938 -0.15625 3.796875 -0.03125 C 3.503906 0.0820312 3.171875 0.140625 2.796875 0.140625 C 2.128906 0.140625 1.601562 -0.0546875 1.21875 -0.453125 C 0.84375 -0.859375 0.65625 -1.398438 0.65625 -2.078125 C 0.65625 -2.828125 0.925781 -3.382812 1.46875 -3.75 C 2.019531 -4.113281 2.859375 -4.296875 3.984375 -4.296875 L 4.453125 -4.296875 C 4.453125 -4.316406 4.453125 -4.34375 4.453125 -4.375 C 4.453125 -4.40625 4.453125 -4.472656 4.453125 -4.578125 C 4.453125 -4.804688 4.351562 -4.972656 4.15625 -5.078125 C 3.96875 -5.191406 3.671875 -5.25 3.265625 -5.25 C 2.921875 -5.25 2.601562 -5.21875 2.3125 -5.15625 C 2.019531 -5.101562 1.675781 -5.003906 1.28125 -4.859375 L 1.28125 -6.90625 C 1.632812 -7.007812 2.007812 -7.085938 2.40625 -7.140625 C 2.800781 -7.191406 3.222656 -7.21875 3.671875 -7.21875 C 4.878906 -7.21875 5.738281 -6.957031 6.25 -6.4375 C 6.769531 -5.914062 7.03125 -5.066406 7.03125 -3.890625 L 7.03125 0 L 5.015625 0 L 4.765625 -0.671875 Z M 4.15625 -2.96875 C 3.800781 -2.96875 3.539062 -2.910156 3.375 -2.796875 C 3.21875 -2.679688 3.140625 -2.484375 3.140625 -2.203125 C 3.140625 -1.992188 3.191406 -1.832031 3.296875 -1.71875 C 3.398438 -1.613281 3.546875 -1.5625 3.734375 -1.5625 C 3.921875 -1.5625 4.109375 -1.601562 4.296875 -1.6875 C 4.484375 -1.78125 4.613281 -1.890625 4.6875 -2.015625 L 4.6875 -2.96875 Z M 4.15625 -2.96875 "/>
</g>
<g id="glyph-5-0">
<path d="M -2.90625 -3.859375 L 0 -3.859375 L 0 -1.046875 L -9.921875 -1.046875 L -9.921875 -4.5625 C -9.921875 -5.875 -9.628906 -6.878906 -9.046875 -7.578125 C -8.460938 -8.285156 -7.613281 -8.640625 -6.5 -8.640625 C -5.34375 -8.640625 -4.453125 -8.269531 -3.828125 -7.53125 C -3.210938 -6.789062 -2.90625 -5.753906 -2.90625 -4.421875 Z M -7.703125 -4.5625 L -7.703125 -3.859375 L -5.109375 -3.859375 L -5.109375 -4.421875 C -5.109375 -4.867188 -5.222656 -5.210938 -5.453125 -5.453125 C -5.679688 -5.703125 -6.015625 -5.828125 -6.453125 -5.828125 C -6.867188 -5.828125 -7.179688 -5.71875 -7.390625 -5.5 C -7.597656 -5.28125 -7.703125 -4.96875 -7.703125 -4.5625 Z M -7.703125 -4.5625 "/>
</g>
<g id="glyph-5-1">
<path d="M -3.53125 -7.78125 C -2.394531 -7.78125 -1.5 -7.457031 -0.84375 -6.8125 C -0.195312 -6.164062 0.125 -5.273438 0.125 -4.140625 C 0.125 -3.015625 -0.195312 -2.128906 -0.84375 -1.484375 C -1.5 -0.835938 -2.394531 -0.515625 -3.53125 -0.515625 C -4.664062 -0.515625 -5.5625 -0.835938 -6.21875 -1.484375 C -6.882812 -2.128906 -7.21875 -3.015625 -7.21875 -4.140625 C -7.21875 -5.273438 -6.882812 -6.164062 -6.21875 -6.8125 C -5.5625 -7.457031 -4.664062 -7.78125 -3.53125 -7.78125 Z M -3.53125 -5.171875 C -4.101562 -5.171875 -4.53125 -5.085938 -4.8125 -4.921875 C -5.09375 -4.753906 -5.234375 -4.492188 -5.234375 -4.140625 C -5.234375 -3.804688 -5.09375 -3.554688 -4.8125 -3.390625 C -4.53125 -3.222656 -4.101562 -3.140625 -3.53125 -3.140625 C -2.957031 -3.140625 -2.53125 -3.222656 -2.25 -3.390625 C -1.976562 -3.554688 -1.84375 -3.804688 -1.84375 -4.140625 C -1.84375 -4.492188 -1.976562 -4.753906 -2.25 -4.921875 C -2.53125 -5.085938 -2.957031 -5.171875 -3.53125 -5.171875 Z M -3.53125 -5.171875 "/>
</g>
<g id="glyph-5-2">
<path d="M -2.203125 -6.296875 C -1.503906 -6.296875 -0.9375 -6.019531 -0.5 -5.46875 C -0.0625 -4.914062 0.15625 -4.210938 0.15625 -3.359375 C 0.15625 -2.898438 0.117188 -2.445312 0.046875 -2 C -0.0234375 -1.550781 -0.128906 -1.148438 -0.265625 -0.796875 L -2.359375 -0.796875 C -2.171875 -1.117188 -2.019531 -1.488281 -1.90625 -1.90625 C -1.789062 -2.320312 -1.734375 -2.707031 -1.734375 -3.0625 C -1.734375 -3.320312 -1.757812 -3.515625 -1.8125 -3.640625 C -1.875 -3.765625 -1.972656 -3.828125 -2.109375 -3.828125 C -2.210938 -3.828125 -2.300781 -3.769531 -2.375 -3.65625 C -2.445312 -3.550781 -2.535156 -3.304688 -2.640625 -2.921875 C -2.765625 -2.472656 -2.878906 -2.132812 -2.984375 -1.90625 C -3.085938 -1.6875 -3.210938 -1.5 -3.359375 -1.34375 C -3.554688 -1.132812 -3.785156 -0.976562 -4.046875 -0.875 C -4.316406 -0.769531 -4.617188 -0.71875 -4.953125 -0.71875 C -5.691406 -0.71875 -6.253906 -0.972656 -6.640625 -1.484375 C -7.023438 -2.003906 -7.21875 -2.757812 -7.21875 -3.75 C -7.21875 -4.125 -7.191406 -4.488281 -7.140625 -4.84375 C -7.085938 -5.207031 -7.003906 -5.578125 -6.890625 -5.953125 L -4.875 -5.953125 C -5 -5.722656 -5.109375 -5.40625 -5.203125 -5 C -5.296875 -4.59375 -5.34375 -4.207031 -5.34375 -3.84375 C -5.34375 -3.601562 -5.316406 -3.429688 -5.265625 -3.328125 C -5.210938 -3.234375 -5.117188 -3.1875 -4.984375 -3.1875 C -4.890625 -3.1875 -4.804688 -3.238281 -4.734375 -3.34375 C -4.671875 -3.445312 -4.585938 -3.6875 -4.484375 -4.0625 C -4.359375 -4.507812 -4.242188 -4.84375 -4.140625 -5.0625 C -4.035156 -5.289062 -3.910156 -5.484375 -3.765625 -5.640625 C -3.578125 -5.859375 -3.351562 -6.019531 -3.09375 -6.125 C -2.832031 -6.238281 -2.535156 -6.296875 -2.203125 -6.296875 Z M -2.203125 -6.296875 "/>
</g>
<g id="glyph-5-3">
<path d="M -0.265625 -6.78125 C -0.128906 -6.394531 -0.03125 -6 0.03125 -5.59375 C 0.101562 -5.1875 0.140625 -4.769531 0.140625 -4.34375 C 0.140625 -3.175781 -0.195312 -2.242188 -0.875 -1.546875 C -1.550781 -0.859375 -2.472656 -0.515625 -3.640625 -0.515625 C -4.722656 -0.515625 -5.59375 -0.832031 -6.25 -1.46875 C -6.90625 -2.113281 -7.234375 -2.976562 -7.234375 -4.0625 C -7.234375 -5.019531 -6.972656 -5.757812 -6.453125 -6.28125 C -5.941406 -6.8125 -5.222656 -7.078125 -4.296875 -7.078125 C -4.046875 -7.078125 -3.800781 -7.0625 -3.5625 -7.03125 C -3.320312 -7 -3.101562 -6.953125 -2.90625 -6.890625 L -2.90625 -2.984375 C -2.519531 -3.054688 -2.238281 -3.21875 -2.0625 -3.46875 C -1.894531 -3.726562 -1.8125 -4.109375 -1.8125 -4.609375 C -1.8125 -4.910156 -1.835938 -5.210938 -1.890625 -5.515625 C -1.941406 -5.816406 -2.054688 -6.238281 -2.234375 -6.78125 Z M -4.671875 -4.96875 C -4.972656 -4.96875 -5.207031 -4.878906 -5.375 -4.703125 C -5.539062 -4.535156 -5.625 -4.300781 -5.625 -4 C -5.625 -3.664062 -5.515625 -3.40625 -5.296875 -3.21875 C -5.085938 -3.03125 -4.773438 -2.929688 -4.359375 -2.921875 L -4.359375 -4.9375 C -4.367188 -4.945312 -4.394531 -4.953125 -4.4375 -4.953125 C -4.476562 -4.960938 -4.554688 -4.96875 -4.671875 -4.96875 Z M -4.671875 -4.96875 "/>
</g>
<g id="glyph-5-4">
<path d="M -0.5625 -4.984375 C -0.332031 -4.785156 -0.15625 -4.535156 -0.03125 -4.234375 C 0.0820312 -3.929688 0.140625 -3.59375 0.140625 -3.21875 C 0.140625 -2.40625 -0.1875 -1.75 -0.84375 -1.25 C -1.507812 -0.757812 -2.394531 -0.515625 -3.5 -0.515625 C -4.59375 -0.515625 -5.488281 -0.773438 -6.1875 -1.296875 C -6.882812 -1.828125 -7.234375 -2.523438 -7.234375 -3.390625 C -7.234375 -3.648438 -7.195312 -3.914062 -7.125 -4.1875 C -7.0625 -4.46875 -6.96875 -4.722656 -6.84375 -4.953125 L -6.890625 -5.015625 L -10.28125 -5.015625 L -10.28125 -7.625 L 0 -7.625 L 0 -5.015625 L -0.53125 -5.015625 Z M -5.046875 -5.015625 C -5.109375 -4.929688 -5.148438 -4.828125 -5.171875 -4.703125 C -5.203125 -4.578125 -5.21875 -4.445312 -5.21875 -4.3125 C -5.21875 -3.9375 -5.066406 -3.644531 -4.765625 -3.4375 C -4.472656 -3.226562 -4.054688 -3.125 -3.515625 -3.125 C -3.003906 -3.125 -2.59375 -3.222656 -2.28125 -3.421875 C -1.976562 -3.617188 -1.828125 -3.898438 -1.828125 -4.265625 C -1.828125 -4.429688 -1.859375 -4.578125 -1.921875 -4.703125 C -1.992188 -4.835938 -2.085938 -4.941406 -2.203125 -5.015625 Z M -5.046875 -5.015625 "/>
</g>
<g id="glyph-5-5">
<path d="M -9.796875 -3.53125 L -5.765625 -2.109375 L -6.25 -0.390625 L -10.21875 -1.1875 Z M -9.796875 -3.53125 "/>
</g>
<g id="glyph-5-6">
<path d="M -0.484375 -5.21875 C -0.273438 -4.957031 -0.113281 -4.664062 0 -4.34375 C 0.101562 -4.019531 0.15625 -3.675781 0.15625 -3.3125 C 0.15625 -2.570312 -0.0507812 -2.007812 -0.46875 -1.625 C -0.882812 -1.238281 -1.492188 -1.046875 -2.296875 -1.046875 L -7.078125 -1.046875 L -7.078125 -3.640625 L -2.828125 -3.640625 C -2.460938 -3.640625 -2.207031 -3.679688 -2.0625 -3.765625 C -1.925781 -3.859375 -1.859375 -4.019531 -1.859375 -4.25 C -1.859375 -4.4375 -1.882812 -4.625 -1.9375 -4.8125 C -2 -5 -2.078125 -5.15625 -2.171875 -5.28125 L -7.078125 -5.28125 L -7.078125 -7.875 L 0 -7.875 L 0 -5.28125 L -0.4375 -5.28125 Z M -0.484375 -5.21875 "/>
</g>
<g id="glyph-5-7">
<path d="M -4.90625 -3.640625 L 0 -3.640625 L 0 -1.046875 L -7.078125 -1.046875 L -7.078125 -3.640625 L -6.625 -3.640625 L -6.59375 -3.6875 C -6.800781 -3.957031 -6.957031 -4.253906 -7.0625 -4.578125 C -7.175781 -4.898438 -7.234375 -5.242188 -7.234375 -5.609375 C -7.234375 -6.347656 -7.023438 -6.910156 -6.609375 -7.296875 C -6.191406 -7.679688 -5.578125 -7.875 -4.765625 -7.875 L 0 -7.875 L 0 -5.28125 L -4.234375 -5.28125 C -4.597656 -5.28125 -4.851562 -5.234375 -5 -5.140625 C -5.144531 -5.054688 -5.21875 -4.898438 -5.21875 -4.671875 C -5.21875 -4.484375 -5.1875 -4.296875 -5.125 -4.109375 C -5.070312 -3.921875 -5 -3.765625 -4.90625 -3.640625 Z M -4.90625 -3.640625 "/>
</g>
<g id="glyph-5-8">
<path d="M -4.90625 -3.640625 L 0 -3.640625 L 0 -1.046875 L -7.078125 -1.046875 L -7.078125 -3.640625 L -6.5 -3.640625 L -6.46875 -3.6875 C -6.726562 -4.019531 -6.921875 -4.347656 -7.046875 -4.671875 C -7.171875 -4.992188 -7.234375 -5.34375 -7.234375 -5.71875 C -7.234375 -6.09375 -7.164062 -6.414062 -7.03125 -6.6875 C -6.90625 -6.96875 -6.710938 -7.195312 -6.453125 -7.375 C -6.710938 -7.71875 -6.90625 -8.082031 -7.03125 -8.46875 C -7.164062 -8.863281 -7.234375 -9.28125 -7.234375 -9.71875 C -7.234375 -10.4375 -7.03125 -10.972656 -6.625 -11.328125 C -6.21875 -11.691406 -5.625 -11.875 -4.84375 -11.875 L 0 -11.875 L 0 -9.28125 L -4.328125 -9.28125 C -4.660156 -9.28125 -4.890625 -9.238281 -5.015625 -9.15625 C -5.148438 -9.070312 -5.21875 -8.925781 -5.21875 -8.71875 C -5.21875 -8.570312 -5.191406 -8.421875 -5.140625 -8.265625 C -5.085938 -8.109375 -5.007812 -7.941406 -4.90625 -7.765625 L 0 -7.765625 L 0 -5.15625 L -4.328125 -5.15625 C -4.660156 -5.15625 -4.890625 -5.113281 -5.015625 -5.03125 C -5.148438 -4.945312 -5.21875 -4.800781 -5.21875 -4.59375 C -5.21875 -4.425781 -5.1875 -4.253906 -5.125 -4.078125 C -5.070312 -3.910156 -5 -3.765625 -4.90625 -3.640625 Z M -4.90625 -3.640625 "/>
</g>
<g id="glyph-5-9">
<path d="M -0.6875 -4.703125 C -0.375 -4.390625 -0.15625 -4.085938 -0.03125 -3.796875 C 0.0820312 -3.503906 0.140625 -3.171875 0.140625 -2.796875 C 0.140625 -2.128906 -0.0546875 -1.601562 -0.453125 -1.21875 C -0.859375 -0.84375 -1.398438 -0.65625 -2.078125 -0.65625 C -2.828125 -0.65625 -3.382812 -0.925781 -3.75 -1.46875 C -4.113281 -2.019531 -4.296875 -2.859375 -4.296875 -3.984375 L -4.296875 -4.453125 C -4.316406 -4.453125 -4.34375 -4.453125 -4.375 -4.453125 C -4.40625 -4.453125 -4.472656 -4.453125 -4.578125 -4.453125 C -4.804688 -4.453125 -4.972656 -4.351562 -5.078125 -4.15625 C -5.191406 -3.96875 -5.25 -3.671875 -5.25 -3.265625 C -5.25 -2.921875 -5.21875 -2.601562 -5.15625 -2.3125 C -5.101562 -2.019531 -5.003906 -1.675781 -4.859375 -1.28125 L -6.90625 -1.28125 C -7.007812 -1.632812 -7.085938 -2.007812 -7.140625 -2.40625 C -7.191406 -2.800781 -7.21875 -3.222656 -7.21875 -3.671875 C -7.21875 -4.878906 -6.957031 -5.738281 -6.4375 -6.25 C -5.914062 -6.769531 -5.066406 -7.03125 -3.890625 -7.03125 L 0 -7.03125 L 0 -5.015625 L -0.671875 -4.765625 Z M -2.96875 -4.15625 C -2.96875 -3.800781 -2.910156 -3.539062 -2.796875 -3.375 C -2.679688 -3.21875 -2.484375 -3.140625 -2.203125 -3.140625 C -1.992188 -3.140625 -1.832031 -3.191406 -1.71875 -3.296875 C -1.613281 -3.398438 -1.5625 -3.546875 -1.5625 -3.734375 C -1.5625 -3.921875 -1.601562 -4.109375 -1.6875 -4.296875 C -1.78125 -4.484375 -1.890625 -4.613281 -2.015625 -4.6875 L -2.96875 -4.6875 Z M -2.96875 -4.15625 "/>
</g>
<g id="glyph-5-10">
<path d="M -0.171875 -6.109375 C -0.0664062 -5.828125 0.00390625 -5.53125 0.046875 -5.21875 C 0.0976562 -4.90625 0.125 -4.582031 0.125 -4.25 C 0.125 -3.363281 -0.101562 -2.664062 -0.5625 -2.15625 C -1.03125 -1.65625 -1.671875 -1.40625 -2.484375 -1.40625 L -5.140625 -1.40625 L -5.140625 -0.265625 L -7.078125 -0.265625 L -7.078125 -1.40625 L -8.953125 -1.40625 L -8.953125 -4 L -7.078125 -4 L -7.078125 -5.984375 L -5.140625 -5.984375 L -5.140625 -4 L -3.3125 -4 C -2.84375 -4 -2.523438 -4.070312 -2.359375 -4.21875 C -2.191406 -4.363281 -2.109375 -4.609375 -2.109375 -4.953125 C -2.109375 -5.097656 -2.125 -5.269531 -2.15625 -5.46875 C -2.1875 -5.664062 -2.226562 -5.878906 -2.28125 -6.109375 Z M -0.171875 -6.109375 "/>
</g>
<g id="glyph-5-11">
<path d="M -3.796875 -3.640625 L 0 -3.640625 L 0 -1.046875 L -7.078125 -1.046875 L -7.078125 -3.640625 L -6.234375 -3.640625 L -6.203125 -3.6875 C -6.578125 -4.007812 -6.84375 -4.316406 -7 -4.609375 C -7.15625 -4.898438 -7.234375 -5.207031 -7.234375 -5.53125 C -7.234375 -5.625 -7.226562 -5.71875 -7.21875 -5.8125 C -7.207031 -5.90625 -7.1875 -6.007812 -7.15625 -6.125 L -4.5 -6.125 C -4.519531 -5.957031 -4.53125 -5.84375 -4.53125 -5.78125 C -4.539062 -5.71875 -4.546875 -5.660156 -4.546875 -5.609375 C -4.546875 -5.097656 -4.488281 -4.6875 -4.375 -4.375 C -4.257812 -4.070312 -4.066406 -3.828125 -3.796875 -3.640625 Z M -3.796875 -3.640625 "/>
</g>
<g id="glyph-5-12">
<path d="M -9.671875 -3.90625 C -9.234375 -3.90625 -8.867188 -3.753906 -8.578125 -3.453125 C -8.296875 -3.148438 -8.15625 -2.785156 -8.15625 -2.359375 C -8.15625 -1.898438 -8.296875 -1.519531 -8.578125 -1.21875 C -8.867188 -0.925781 -9.234375 -0.78125 -9.671875 -0.78125 C -10.109375 -0.78125 -10.46875 -0.925781 -10.75 -1.21875 C -11.039062 -1.519531 -11.1875 -1.898438 -11.1875 -2.359375 C -11.1875 -2.796875 -11.039062 -3.160156 -10.75 -3.453125 C -10.46875 -3.753906 -10.109375 -3.90625 -9.671875 -3.90625 Z M -7.078125 -3.640625 L 0 -3.640625 L 0 -1.046875 L -7.078125 -1.046875 Z M -7.078125 -3.640625 "/>
</g>
<g id="glyph-5-13">
<path d="M -0.359375 -6.109375 C -0.191406 -5.785156 -0.0703125 -5.453125 0 -5.109375 C 0.0820312 -4.765625 0.125 -4.410156 0.125 -4.046875 C 0.125 -2.972656 -0.207031 -2.113281 -0.875 -1.46875 C -1.550781 -0.832031 -2.4375 -0.515625 -3.53125 -0.515625 C -4.664062 -0.515625 -5.5625 -0.820312 -6.21875 -1.4375 C -6.882812 -2.0625 -7.21875 -2.929688 -7.21875 -4.046875 C -7.21875 -4.460938 -7.175781 -4.832031 -7.09375 -5.15625 C -7.007812 -5.488281 -6.882812 -5.796875 -6.71875 -6.078125 L -4.609375 -6.078125 C -4.773438 -5.835938 -4.90625 -5.5625 -5 -5.25 C -5.101562 -4.9375 -5.15625 -4.625 -5.15625 -4.3125 C -5.15625 -3.914062 -5.019531 -3.613281 -4.75 -3.40625 C -4.488281 -3.207031 -4.097656 -3.109375 -3.578125 -3.109375 C -3.066406 -3.109375 -2.671875 -3.210938 -2.390625 -3.421875 C -2.117188 -3.628906 -1.984375 -3.925781 -1.984375 -4.3125 C -1.984375 -4.644531 -2.03125 -4.96875 -2.125 -5.28125 C -2.226562 -5.59375 -2.367188 -5.867188 -2.546875 -6.109375 Z M -0.359375 -6.109375 "/>
</g>
</g>
<clipPath id="clip-0">
<path clip-rule="nonzero" d="M 74.300781 202 L 354.523438 202 L 354.523438 204 L 74.300781 204 Z M 74.300781 202 "/>
</clipPath>
<clipPath id="clip-1">
<path clip-rule="nonzero" d="M 74.300781 78 L 354.523438 78 L 354.523438 80 L 74.300781 80 Z M 74.300781 78 "/>
</clipPath>
<clipPath id="clip-2">
<path clip-rule="nonzero" d="M 150 5.480469 L 152 5.480469 L 152 276.636719 L 150 276.636719 Z M 150 5.480469 "/>
</clipPath>
<clipPath id="clip-3">
<path clip-rule="nonzero" d="M 277 5.480469 L 279 5.480469 L 279 276.636719 L 277 276.636719 Z M 277 5.480469 "/>
</clipPath>
</defs>
<rect x="-36" y="-32.4" width="432" height="388.8" fill="rgb(100%, 100%, 100%)" fill-opacity="1"/>
<rect x="-36" y="-32.4" width="432" height="388.8" fill="rgb(100%, 100%, 100%)" fill-opacity="1"/>
<path fill="none" stroke-width="1.066978" stroke-linecap="round" stroke-linejoin="round" stroke="rgb(100%, 100%, 100%)" stroke-opacity="1" stroke-miterlimit="10" d="M 0 324 L 360 324 L 360 0 L 0 0 Z M 0 324 "/>
<g clip-path="url(#clip-0)">
<path fill="none" stroke-width="1.066978" stroke-linecap="butt" stroke-linejoin="round" stroke="rgb(94.901961%, 94.901961%, 94.901961%)" stroke-opacity="1" stroke-miterlimit="10" d="M 74.300781 202.683594 L 354.519531 202.683594 "/>
</g>
<g clip-path="url(#clip-1)">
<path fill="none" stroke-width="1.066978" stroke-linecap="butt" stroke-linejoin="round" stroke="rgb(94.901961%, 94.901961%, 94.901961%)" stroke-opacity="1" stroke-miterlimit="10" d="M 74.300781 79.429688 L 354.519531 79.429688 "/>
</g>
<g clip-path="url(#clip-2)">
<path fill="none" stroke-width="1.066978" stroke-linecap="butt" stroke-linejoin="round" stroke="rgb(89.803922%, 93.72549%, 100%)" stroke-opacity="1" stroke-miterlimit="10" d="M 150.722656 276.632812 L 150.722656 5.480469 "/>
</g>
<g clip-path="url(#clip-3)">
<path fill="none" stroke-width="1.066978" stroke-linecap="butt" stroke-linejoin="round" stroke="rgb(100%, 87.45098%, 87.45098%)" stroke-opacity="1" stroke-miterlimit="10" d="M 278.097656 276.632812 L 278.097656 5.480469 "/>
</g>
<path fill-rule="nonzero" fill="rgb(0%, 60%, 93.333333%)" fill-opacity="0.901961" stroke-width="0.708661" stroke-linecap="round" stroke-linejoin="round" stroke="rgb(0%, 60%, 93.333333%)" stroke-opacity="0.901961" stroke-miterlimit="10" d="M 191.269531 202.683594 C 191.269531 225.074219 173.117188 243.226562 150.722656 243.226562 C 128.332031 243.226562 110.175781 225.074219 110.175781 202.683594 C 110.175781 180.289062 128.332031 162.136719 150.722656 162.136719 C 173.117188 162.136719 191.269531 180.289062 191.269531 202.683594 "/>
<path fill-rule="nonzero" fill="rgb(0%, 60%, 93.333333%)" fill-opacity="0.901961" stroke-width="0.708661" stroke-linecap="round" stroke-linejoin="round" stroke="rgb(0%, 60%, 93.333333%)" stroke-opacity="0.901961" stroke-miterlimit="10" d="M 191.269531 79.429688 C 191.269531 101.824219 173.117188 119.976562 150.722656 119.976562 C 128.332031 119.976562 110.175781 101.824219 110.175781 79.429688 C 110.175781 57.039062 128.332031 38.886719 150.722656 38.886719 C 173.117188 38.886719 191.269531 57.039062 191.269531 79.429688 "/>
<path fill-rule="nonzero" fill="rgb(80%, 4.705882%, 0%)" fill-opacity="0.901961" stroke-width="0.708661" stroke-linecap="round" stroke-linejoin="round" stroke="rgb(80%, 4.705882%, 0%)" stroke-opacity="0.901961" stroke-miterlimit="10" d="M 331.800781 202.683594 C 331.800781 232.34375 307.757812 256.386719 278.097656 256.386719 C 248.4375 256.386719 224.394531 232.34375 224.394531 202.683594 C 224.394531 173.023438 248.4375 148.980469 278.097656 148.980469 C 307.757812 148.980469 331.800781 173.023438 331.800781 202.683594 "/>
<path fill-rule="nonzero" fill="rgb(80%, 4.705882%, 0%)" fill-opacity="0.901961" stroke-width="0.708661" stroke-linecap="round" stroke-linejoin="round" stroke="rgb(80%, 4.705882%, 0%)" stroke-opacity="0.901961" stroke-miterlimit="10" d="M 298.0625 79.429688 C 298.0625 90.457031 289.125 99.394531 278.097656 99.394531 C 267.070312 99.394531 258.128906 90.457031 258.128906 79.429688 C 258.128906 68.402344 267.070312 59.464844 278.097656 59.464844 C 289.125 59.464844 298.0625 68.402344 298.0625 79.429688 "/>
<g fill="rgb(94.509804%, 94.509804%, 94.509804%)" fill-opacity="1">
<use xlink:href="#glyph-0-0" x="143.722656" y="198.564453"/>
<use xlink:href="#glyph-0-1" x="150.722656" y="198.564453"/>
</g>
<g fill="rgb(94.509804%, 94.509804%, 94.509804%)" fill-opacity="1">
<use xlink:href="#glyph-0-2" x="129.222656" y="216.498047"/>
<use xlink:href="#glyph-0-3" x="136.222656" y="216.498047"/>
<use xlink:href="#glyph-0-4" x="145.222656" y="216.498047"/>
<use xlink:href="#glyph-0-3" x="148.222656" y="216.498047"/>
<use xlink:href="#glyph-0-5" x="157.222656" y="216.498047"/>
</g>
<g fill="rgb(94.509804%, 94.509804%, 94.509804%)" fill-opacity="1">
<use xlink:href="#glyph-0-0" x="143.722656" y="75.314453"/>
<use xlink:href="#glyph-0-1" x="150.722656" y="75.314453"/>
</g>
<g fill="rgb(94.509804%, 94.509804%, 94.509804%)" fill-opacity="1">
<use xlink:href="#glyph-0-2" x="129.222656" y="93.248047"/>
<use xlink:href="#glyph-0-3" x="136.222656" y="93.248047"/>
<use xlink:href="#glyph-0-4" x="145.222656" y="93.248047"/>
<use xlink:href="#glyph-0-3" x="148.222656" y="93.248047"/>
<use xlink:href="#glyph-0-5" x="157.222656" y="93.248047"/>
</g>
<g fill="rgb(94.509804%, 94.509804%, 94.509804%)" fill-opacity="1">
<use xlink:href="#glyph-1-0" x="266.597656" y="195.147461"/>
<use xlink:href="#glyph-1-1" x="276.597656" y="195.147461"/>
</g>
<g fill="rgb(94.509804%, 94.509804%, 94.509804%)" fill-opacity="1">
<use xlink:href="#glyph-1-2" x="243.597656" y="224.834961"/>
<use xlink:href="#glyph-1-2" x="256.597656" y="224.834961"/>
<use xlink:href="#glyph-1-3" x="270.597656" y="224.834961"/>
<use xlink:href="#glyph-1-4" x="275.597656" y="224.834961"/>
<use xlink:href="#glyph-1-5" x="286.597656" y="224.834961"/>
</g>
<g fill="rgb(94.509804%, 94.509804%, 94.509804%)" fill-opacity="1">
<use xlink:href="#glyph-2-0" x="273.597656" y="76.966797"/>
<use xlink:href="#glyph-2-1" x="277.597656" y="76.966797"/>
</g>
<g fill="rgb(94.509804%, 94.509804%, 94.509804%)" fill-opacity="1">
<use xlink:href="#glyph-2-0" x="266.097656" y="87.880859"/>
<use xlink:href="#glyph-2-0" x="270.097656" y="87.880859"/>
<use xlink:href="#glyph-2-2" x="274.097656" y="87.880859"/>
<use xlink:href="#glyph-2-3" x="276.097656" y="87.880859"/>
<use xlink:href="#glyph-2-4" x="281.097656" y="87.880859"/>
</g>
<g fill="rgb(20%, 20%, 20%)" fill-opacity="1">
<use xlink:href="#glyph-3-0" x="49.367188" y="204.40918"/>
<use xlink:href="#glyph-3-1" x="57.367188" y="204.40918"/>
<use xlink:href="#glyph-3-2" x="63.367188" y="204.40918"/>
</g>
<g fill="rgb(20%, 20%, 20%)" fill-opacity="1">
<use xlink:href="#glyph-3-3" x="52.367188" y="81.155273"/>
<use xlink:href="#glyph-3-4" x="60.367188" y="81.155273"/>
<use xlink:href="#glyph-3-5" x="66.367188" y="81.155273"/>
</g>
<g fill="rgb(0%, 60%, 93.333333%)" fill-opacity="1">
<use xlink:href="#glyph-3-6" x="119.222656" y="288.791992"/>
<use xlink:href="#glyph-3-7" x="125.222656" y="288.791992"/>
<use xlink:href="#glyph-3-8" x="129.222656" y="288.791992"/>
<use xlink:href="#glyph-3-9" x="135.222656" y="288.791992"/>
<use xlink:href="#glyph-3-10" x="141.222656" y="288.791992"/>
<use xlink:href="#glyph-3-11" x="147.222656" y="288.791992"/>
<use xlink:href="#glyph-3-12" x="152.222656" y="288.791992"/>
<use xlink:href="#glyph-3-1" x="157.222656" y="288.791992"/>
<use xlink:href="#glyph-3-7" x="163.222656" y="288.791992"/>
<use xlink:href="#glyph-3-13" x="167.222656" y="288.791992"/>
<use xlink:href="#glyph-3-14" x="173.222656" y="288.791992"/>
<use xlink:href="#glyph-3-10" x="176.222656" y="288.791992"/>
</g>
<g fill="rgb(80%, 4.705882%, 0%)" fill-opacity="1">
<use xlink:href="#glyph-3-15" x="240.597656" y="288.791992"/>
<use xlink:href="#glyph-3-8" x="247.597656" y="288.791992"/>
<use xlink:href="#glyph-3-12" x="253.597656" y="288.791992"/>
<use xlink:href="#glyph-3-7" x="258.597656" y="288.791992"/>
<use xlink:href="#glyph-3-1" x="262.597656" y="288.791992"/>
<use xlink:href="#glyph-3-9" x="268.597656" y="288.791992"/>
<use xlink:href="#glyph-3-10" x="274.597656" y="288.791992"/>
<use xlink:href="#glyph-3-11" x="280.597656" y="288.791992"/>
<use xlink:href="#glyph-3-12" x="285.597656" y="288.791992"/>
<use xlink:href="#glyph-3-1" x="290.597656" y="288.791992"/>
<use xlink:href="#glyph-3-7" x="296.597656" y="288.791992"/>
<use xlink:href="#glyph-3-13" x="300.597656" y="288.791992"/>
<use xlink:href="#glyph-3-14" x="306.597656" y="288.791992"/>
<use xlink:href="#glyph-3-10" x="309.597656" y="288.791992"/>
</g>
<g fill="rgb(20%, 20%, 20%)" fill-opacity="1">
<use xlink:href="#glyph-4-0" x="139.410156" y="313.802734"/>
<use xlink:href="#glyph-4-1" x="148.410156" y="313.802734"/>
<use xlink:href="#glyph-4-2" x="156.410156" y="313.802734"/>
<use xlink:href="#glyph-4-3" x="163.410156" y="313.802734"/>
<use xlink:href="#glyph-4-4" x="168.410156" y="313.802734"/>
<use xlink:href="#glyph-4-3" x="175.410156" y="313.802734"/>
<use xlink:href="#glyph-4-1" x="180.410156" y="313.802734"/>
<use xlink:href="#glyph-4-5" x="188.410156" y="313.802734"/>
</g>
<g fill="rgb(20%, 20%, 20%)" fill-opacity="1">
<use xlink:href="#glyph-4-6" x="202.410156" y="313.802734"/>
<use xlink:href="#glyph-4-7" x="211.410156" y="313.802734"/>
</g>
<g fill="rgb(20%, 20%, 20%)" fill-opacity="1">
<use xlink:href="#glyph-4-8" x="224.410156" y="313.802734"/>
<use xlink:href="#glyph-4-9" x="229.410156" y="313.802734"/>
<use xlink:href="#glyph-4-3" x="233.410156" y="313.802734"/>
<use xlink:href="#glyph-4-10" x="238.410156" y="313.802734"/>
<use xlink:href="#glyph-4-11" x="251.410156" y="313.802734"/>
<use xlink:href="#glyph-4-8" x="260.410156" y="313.802734"/>
<use xlink:href="#glyph-4-12" x="265.410156" y="313.802734"/>
<use xlink:href="#glyph-4-5" x="273.410156" y="313.802734"/>
<use xlink:href="#glyph-4-4" x="282.410156" y="313.802734"/>
</g>
<g fill="rgb(20%, 20%, 20%)" fill-opacity="1">
<use xlink:href="#glyph-5-0" x="34.689453" y="208.558594"/>
<use xlink:href="#glyph-5-1" x="34.689453" y="199.558594"/>
<use xlink:href="#glyph-5-2" x="34.689453" y="191.558594"/>
<use xlink:href="#glyph-5-3" x="34.689453" y="184.558594"/>
</g>
<g fill="rgb(20%, 20%, 20%)" fill-opacity="1">
<use xlink:href="#glyph-5-4" x="34.689453" y="171.558594"/>
<use xlink:href="#glyph-5-5" x="34.689453" y="162.558594"/>
<use xlink:href="#glyph-5-6" x="34.689453" y="158.558594"/>
<use xlink:href="#glyph-5-7" x="34.689453" y="149.558594"/>
<use xlink:href="#glyph-5-3" x="34.689453" y="140.558594"/>
</g>
<g fill="rgb(20%, 20%, 20%)" fill-opacity="1">
<use xlink:href="#glyph-5-8" x="34.689453" y="127.558594"/>
<use xlink:href="#glyph-5-9" x="34.689453" y="114.558594"/>
<use xlink:href="#glyph-5-10" x="34.689453" y="106.558594"/>
<use xlink:href="#glyph-5-11" x="34.689453" y="99.558594"/>
<use xlink:href="#glyph-5-12" x="34.689453" y="93.558594"/>
<use xlink:href="#glyph-5-13" x="34.689453" y="88.558594"/>
<use xlink:href="#glyph-5-3" x="34.689453" y="81.558594"/>
</g>
</svg>
